ps3/zad3/binary_BCD_4_bits_board/simulation/qsim/binary_BCD_4_bits_board.msim.vcd
$comment
	File created using the following command:
		vcd file binary_BCD_4_bits_board.msim.vcd -direction
$end
$date
	Thu Mar 14 09:35:39 2019
$end
$version
	ModelSim Version 10.5b
$end
$timescale
	1ps
$end

$scope module binary_BCD_4_bits_board_vlg_vec_tst $end
$var reg 4 ! SW [3:0] $end
$var wire 1 " HEX0 [0] $end
$var wire 1 # HEX0 [1] $end
$var wire 1 $ HEX0 [2] $end
$var wire 1 % HEX0 [3] $end
$var wire 1 & HEX0 [4] $end
$var wire 1 ' HEX0 [5] $end
$var wire 1 ( HEX0 [6] $end
$var wire 1 ) HEX1 [0] $end
$var wire 1 * HEX1 [1] $end
$var wire 1 + HEX1 [2] $end
$var wire 1 , HEX1 [3] $end
$var wire 1 - HEX1 [4] $end
$var wire 1 . HEX1 [5] $end
$var wire 1 / HEX1 [6] $end
$var wire 1 0 LEDR [3] $end
$var wire 1 1 LEDR [2] $end
$var wire 1 2 LEDR [1] $end
$var wire 1 3 LEDR [0] $end

$scope module i1 $end
$var wire 1 4 gnd $end
$var wire 1 5 vcc $end
$var wire 1 6 unknown $end
$var tri1 1 7 devclrn $end
$var tri1 1 8 devpor $end
$var tri1 1 9 devoe $end
$var wire 1 : ~QUARTUS_CREATED_GND~I_combout $end
$var wire 1 ; SW[0]~input_o $end
$var wire 1 < SW[1]~input_o $end
$var wire 1 = SW[2]~input_o $end
$var wire 1 > SW[3]~input_o $end
$var wire 1 ? ex1|WideOr5~0_combout $end
$var wire 1 @ ex1|WideOr4~0_combout $end
$var wire 1 A ex1|WideOr3~0_combout $end
$var wire 1 B ex1|WideOr2~0_combout $end
$var wire 1 C ex1|h[2]~0_combout $end
$var wire 1 D ex1|WideOr1~0_combout $end
$var wire 1 E ex1|WideOr0~0_combout $end
$var wire 1 F LessThan0~0_combout $end
$upscope $end
$upscope $end
$enddefinitions $end
#0
$dumpvars
b0 !
1(
0'
0&
0%
0$
0#
0"
1/
0.
0-
0,
0+
0*
0)
03
02
01
00
04
15
x6
17
18
19
0:
0;
0<
0=
0>
0?
0@
0A
0B
0C
0D
0E
0F
$end
#5000
b1 !
1;
13
1E
1B
1A
1@
1'
1&
1%
1"
#10000
b11 !
b10 !
0;
1<
12
03
1?
0E
1C
0B
0A
0&
0%
1$
0"
0(
#15000
b11 !
1;
13
0C
1A
1&
0$
#20000
b111 !
b101 !
b100 !
0;
0<
1=
11
02
03
1E
1B
0@
0'
1%
1"
#25000
b101 !
1;
13
0E
1D
0B
0%
1#
0"
#30000
b111 !
b110 !
0;
1<
12
03
0A
0&
#35000
b111 !
1;
13
0?
0D
1B
1A
1@
1'
1&
1%
0#
1(
#40000
b1111 !
b1011 !
b1001 !
b1000 !
0;
0<
0=
1>
10
01
02
03
1?
0B
0A
0@
0'
0&
0%
0(
#45000
b1001 !
1;
13
1A
1&
#50000
b1011 !
b1010 !
0;
1<
12
03
0?
1F
0A
0&
1.
1-
1,
1)
1(
#55000
b1011 !
1;
13
1E
1B
1A
1@
1'
1&
1%
1"
#60000
b1111 !
b1101 !
b1100 !
0;
0<
1=
11
02
03
1?
0E
1C
0B
0A
0&
0%
1$
0"
0(
#65000
b1101 !
1;
13
0C
1A
1&
0$
#70000
b1111 !
b1110 !
0;
1<
12
03
1E
1B
0@
0'
1%
1"
#75000
b1111 !
1;
13
0E
1D
0B
0%
1#
0"
