ps5/zad3/simulation/qsim/counter_mod_M_board.msim.vcd
$comment
	File created using the following command:
		vcd file counter_mod_M_board.msim.vcd -direction
$end
$date
	Wed Mar 27 22:15:16 2019
$end
$version
	ModelSim Version 10.5b
$end
$timescale
	1ps
$end

$scope module counter_mod_M_board_vlg_vec_tst $end
$var reg 1 ! CLOCK_50 [0:0] $end
$var reg 2 " SW [1:0] $end
$var wire 1 # HEX0 [0] $end
$var wire 1 $ HEX0 [1] $end
$var wire 1 % HEX0 [2] $end
$var wire 1 & HEX0 [3] $end
$var wire 1 ' HEX0 [4] $end
$var wire 1 ( HEX0 [5] $end
$var wire 1 ) HEX0 [6] $end

$scope module i1 $end
$var wire 1 * gnd $end
$var wire 1 + vcc $end
$var wire 1 , unknown $end
$var tri1 1 - devclrn $end
$var tri1 1 . devpor $end
$var tri1 1 / devoe $end
$var wire 1 0 ~QUARTUS_CREATED_GND~I_combout $end
$var wire 1 1 CLOCK_50[0]~input_o $end
$var wire 1 2 CLOCK_50[0]~inputCLKENA0_outclk $end
$var wire 1 3 ex|Add0~25_sumout $end
$var wire 1 4 SW[0]~input_o $end
$var wire 1 5 SW[1]~input_o $end
$var wire 1 6 ex|Q[10]~0_combout $end
$var wire 1 7 ex|Add0~26 $end
$var wire 1 8 ex|Add0~29_sumout $end
$var wire 1 9 ex|Add0~30 $end
$var wire 1 : ex|Add0~33_sumout $end
$var wire 1 ; ex|Add0~34 $end
$var wire 1 < ex|Add0~41_sumout $end
$var wire 1 = ex|Add0~42 $end
$var wire 1 > ex|Add0~37_sumout $end
$var wire 1 ? ex|Add0~38 $end
$var wire 1 @ ex|Add0~1_sumout $end
$var wire 1 A ex|Add0~2 $end
$var wire 1 B ex|Add0~5_sumout $end
$var wire 1 C ex|Equal0~1_combout $end
$var wire 1 D ex|Add0~6 $end
$var wire 1 E ex|Add0~9_sumout $end
$var wire 1 F ex|Add0~10 $end
$var wire 1 G ex|Add0~13_sumout $end
$var wire 1 H ex|Add0~14 $end
$var wire 1 I ex|Add0~21_sumout $end
$var wire 1 J ex|Add0~22 $end
$var wire 1 K ex|Add0~17_sumout $end
$var wire 1 L ex|Equal0~0_combout $end
$var wire 1 M ex|Equal0~combout $end
$var wire 1 N ex0|ex|Q[1]~1_combout $end
$var wire 1 O ex0|ex|Q[2]~2_combout $end
$var wire 1 P ex0|ex|Q[0]~0_combout $end
$var wire 1 Q ex0|ex|Q[3]~3_combout $end
$var wire 1 R ex1|WideOr6~0_combout $end
$var wire 1 S ex1|WideOr5~0_combout $end
$var wire 1 T ex1|WideOr4~0_combout $end
$var wire 1 U ex1|WideOr3~0_combout $end
$var wire 1 V ex1|WideOr2~0_combout $end
$var wire 1 W ex1|WideOr1~0_combout $end
$var wire 1 X ex1|WideOr0~0_combout $end
$var wire 1 Y ex|Q [10] $end
$var wire 1 Z ex|Q [9] $end
$var wire 1 [ ex|Q [8] $end
$var wire 1 \ ex|Q [7] $end
$var wire 1 ] ex|Q [6] $end
$var wire 1 ^ ex|Q [5] $end
$var wire 1 _ ex|Q [4] $end
$var wire 1 ` ex|Q [3] $end
$var wire 1 a ex|Q [2] $end
$var wire 1 b ex|Q [1] $end
$var wire 1 c ex|Q [0] $end
$var wire 1 d ex0|ex|Q [3] $end
$var wire 1 e ex0|ex|Q [2] $end
$var wire 1 f ex0|ex|Q [1] $end
$var wire 1 g ex0|ex|Q [0] $end
$upscope $end
$upscope $end
$enddefinitions $end
#0
$dumpvars
b0 !
b11 "
1)
0(
0'
0&
0%
0$
0#
0*
1+
x,
1-
1.
1/
00
01
02
13
14
15
16
07
08
09
0:
0;
0<
0=
0>
0?
0@
0A
0B
0C
0D
0E
0F
0G
0H
0I
0J
0K
0L
0M
0N
0O
1P
0Q
0R
0S
0T
0U
0V
0W
0X
0c
0b
0a
0`
0_
0^
0]
0\
0[
0Z
0Y
0g
0f
0e
0d
$end
#500
b1 !
11
12
1c
17
03
18
#1000
b0 !
01
02
#1500
b1 !
11
12
1b
0c
07
19
13
08
09
18
1:
0:
#2000
b0 !
01
02
#2500
b1 !
11
12
1c
17
03
19
08
1:
#3000
b0 !
01
02
#3500
b1 !
11
12
1a
0b
0c
07
09
1;
13
18
0:
0;
08
1:
1<
0<
#4000
b0 !
01
02
#4500
b1 !
11
12
1c
17
03
18
#5000
b0 !
01
02
#5500
b1 !
11
12
1b
0c
07
19
13
08
09
1;
18
0:
0;
1:
1<
0<
#6000
b0 !
01
02
#6500
b1 !
11
12
1c
17
03
19
08
1;
0:
1<
#7000
b0 !
01
02
#7500
b1 !
11
12
1`
0a
0b
0c
07
09
0;
1=
13
18
1:
0<
0=
08
0:
1<
1>
0>
#8000
b0 !
01
02
#8500
b1 !
11
12
1c
17
03
18
#9000
b0 !
01
02
#9500
b1 !
11
12
1b
0c
07
19
13
08
09
18
1:
0:
#10000
b0 !
01
02
#10500
b1 !
11
12
1c
17
03
19
08
1:
#11000
b0 !
01
02
#11500
b1 !
11
12
1a
0b
0c
07
09
1;
13
18
0:
0;
1=
08
1:
0<
0=
1<
1>
0>
#12000
b0 !
01
02
#12500
b1 !
11
12
1c
17
03
18
#13000
b0 !
01
02
#13500
b1 !
11
12
1b
0c
07
1C
19
13
08
09
1;
18
0:
0;
1=
1:
0<
0=
1<
1>
0>
#14000
b0 !
01
02
#14500
b1 !
11
12
1c
17
03
19
08
1;
0:
1=
0<
1>
#15000
b0 !
01
02
#15500
b1 !
11
12
1_
0`
0a
0b
0c
07
0C
09
0;
0=
1?
13
18
1:
1<
0>
0?
08
0:
0<
1>
1@
0@
#16000
b0 !
01
02
#16500
b1 !
11
12
1c
17
03
18
#17000
b0 !
01
02
#17500
b1 !
11
12
1b
0c
07
19
13
08
09
18
1:
0:
#18000
b0 !
01
02
#18500
b1 !
11
12
1c
17
03
19
08
1:
#19000
b0 !
01
02
#19500
b1 !
11
12
1a
0b
0c
07
09
1;
13
18
0:
0;
08
1:
1<
0<
#20000
b0 !
01
02
#20500
b1 !
11
12
1c
17
03
18
#21000
b0 !
01
02
#21500
b1 !
11
12
1b
0c
07
19
13
08
09
1;
18
0:
0;
1:
1<
0<
#22000
b0 !
01
02
#22500
b1 !
11
12
1c
17
03
19
08
1;
0:
1<
#23000
b0 !
01
02
#23500
b1 !
11
12
1`
0a
0b
0c
07
09
0;
1=
13
18
1:
0<
0=
1?
08
0:
1<
0>
0?
1>
1@
0@
#24000
b0 !
01
02
#24500
b1 !
11
12
1c
17
03
18
#25000
b0 !
01
02
#25500
b1 !
11
12
1b
0c
07
19
13
08
09
18
1:
0:
#26000
b0 !
01
02
#26500
b1 !
11
12
1c
17
03
19
08
1:
#27000
b0 !
01
02
#27500
b1 !
11
12
1a
0b
0c
07
09
1;
13
18
0:
0;
1=
08
1:
0<
0=
1?
1<
0>
0?
1>
1@
0@
#28000
b0 !
01
02
#28500
b1 !
11
12
1c
17
03
18
#29000
b0 !
01
02
#29500
b1 !
11
12
1b
0c
07
19
13
08
09
1;
18
0:
0;
1=
1:
0<
0=
1?
1<
0>
0?
1>
1@
0@
#30000
b0 !
01
02
#30500
b1 !
11
12
1c
17
03
19
08
1;
0:
1=
0<
1?
0>
1@
#31000
b0 !
01
02
#31500
b1 !
11
12
1^
0_
0`
0a
0b
0c
07
09
0;
0=
0?
1A
13
18
1:
1<
1>
0@
0A
08
0:
0<
0>
1@
1B
0B
#32000
b0 !
01
02
#32500
b1 !
11
12
1c
17
03
18
#33000
b0 !
01
02
#33500
b1 !
11
12
1b
0c
07
19
13
08
09
18
1:
0:
#34000
b0 !
01
02
#34500
b1 !
11
12
1c
17
03
19
08
1:
#35000
b0 !
01
02
#35500
b1 !
11
12
1a
0b
0c
07
09
1;
13
18
0:
0;
08
1:
1<
0<
#36000
b0 !
01
02
#36500
b1 !
11
12
1c
17
03
18
#37000
b0 !
01
02
#37500
b1 !
11
12
1b
0c
07
19
13
08
09
1;
18
0:
0;
1:
1<
0<
#38000
b0 !
01
02
#38500
b1 !
11
12
1c
17
03
19
08
1;
0:
1<
#39000
b0 !
01
02
#39500
b1 !
11
12
1`
0a
0b
0c
07
09
0;
1=
13
18
1:
0<
0=
08
0:
1<
1>
0>
#40000
b0 !
01
02
#40500
b1 !
11
12
1c
17
03
18
#41000
b0 !
01
02
#41500
b1 !
11
12
1b
0c
07
19
13
08
09
18
1:
0:
#42000
b0 !
01
02
#42500
b1 !
11
12
1c
17
03
19
08
1:
#43000
b0 !
01
02
#43500
b1 !
11
12
1a
0b
0c
07
09
1;
13
18
0:
0;
1=
08
1:
0<
0=
1<
1>
0>
#44000
b0 !
01
02
#44500
b1 !
11
12
1c
17
03
18
#45000
b0 !
01
02
#45500
b1 !
11
12
1b
0c
07
1C
19
13
08
09
1;
18
0:
0;
1=
1:
0<
0=
1<
1>
0>
#46000
b0 !
01
02
#46500
b1 !
11
12
1c
17
03
19
08
1;
0:
1=
0<
1>
#47000
b0 !
01
02
#47500
b1 !
11
12
1_
0`
0a
0b
0c
07
0C
09
0;
0=
1?
13
18
1:
1<
0>
0?
1A
08
0:
0<
1>
0@
0A
1@
1B
0B
#48000
b0 !
01
02
#48500
b1 !
11
12
1c
17
03
18
#49000
b0 !
01
02
#49500
b1 !
11
12
1b
0c
07
19
13
08
09
18
1:
0:
#50000
b0 !
01
02
#50500
b1 !
11
12
1c
17
03
19
08
1:
#51000
b0 !
01
02
#51500
b1 !
11
12
1a
0b
0c
07
09
1;
13
18
0:
0;
08
1:
1<
0<
#52000
b0 !
01
02
#52500
b1 !
11
12
1c
17
03
18
#53000
b0 !
01
02
#53500
b1 !
11
12
1b
0c
07
19
13
08
09
1;
18
0:
0;
1:
1<
0<
#54000
b0 !
01
02
#54500
b1 !
11
12
1c
17
03
19
08
1;
0:
1<
#55000
b0 !
01
02
#55500
b1 !
11
12
1`
0a
0b
0c
07
09
0;
1=
13
18
1:
0<
0=
1?
08
0:
1<
0>
0?
1A
1>
0@
0A
1@
1B
0B
#56000
b0 !
01
02
#56500
b1 !
11
12
1c
17
03
18
#57000
b0 !
01
02
#57500
b1 !
11
12
1b
0c
07
19
13
08
09
18
1:
0:
#58000
b0 !
01
02
#58500
b1 !
11
12
1c
17
03
19
08
1:
#59000
b0 !
01
02
#59500
b1 !
11
12
1a
0b
0c
07
09
1;
13
18
0:
0;
1=
08
1:
0<
0=
1?
1<
0>
0?
1A
1>
0@
0A
1@
1B
0B
#60000
b0 !
01
02
#60500
b1 !
11
12
1c
17
03
18
#61000
b0 !
01
02
#61500
b1 !
11
12
1b
0c
07
19
13
08
09
1;
18
0:
0;
1=
1:
0<
0=
1?
1<
0>
0?
1A
1>
0@
0A
1@
1B
0B
#62000
b0 !
01
02
#62500
b1 !
11
12
1c
17
03
19
08
1;
0:
1=
0<
1?
0>
1A
0@
1B
#63000
b0 !
01
02
#63500
b1 !
11
12
1]
0^
0_
0`
0a
0b
0c
07
09
0;
0=
0?
0A
1D
13
18
1:
1<
1>
1@
0B
0D
08
0:
0<
0>
0@
1B
1E
0E
#64000
b0 !
01
02
#64500
b1 !
11
12
1c
17
03
18
#65000
b0 !
01
02
#65500
b1 !
11
12
1b
0c
07
19
13
08
09
18
1:
0:
#66000
b0 !
01
02
#66500
b1 !
11
12
1c
17
03
19
08
1:
#67000
b0 !
01
02
#67500
b1 !
11
12
1a
0b
0c
07
09
1;
13
18
0:
0;
08
1:
1<
0<
#68000
b0 !
01
02
#68500
b1 !
11
12
1c
17
03
18
#69000
b0 !
01
02
#69500
b1 !
11
12
1b
0c
07
19
13
08
09
1;
18
0:
0;
1:
1<
0<
#70000
b0 !
01
02
#70500
b1 !
11
12
1c
17
03
19
08
1;
0:
1<
#71000
b0 !
01
02
#71500
b1 !
11
12
1`
0a
0b
0c
07
09
0;
1=
13
18
1:
0<
0=
08
0:
1<
1>
0>
#72000
b0 !
01
02
#72500
b1 !
11
12
1c
17
03
18
#73000
b0 !
01
02
#73500
b1 !
11
12
1b
0c
07
19
13
08
09
18
1:
0:
#74000
b0 !
01
02
#74500
b1 !
11
12
1c
17
03
19
08
1:
#75000
b0 !
01
02
#75500
b1 !
11
12
1a
0b
0c
07
09
1;
13
18
0:
0;
1=
08
1:
0<
0=
1<
1>
0>
#76000
b0 !
01
02
#76500
b1 !
11
12
1c
17
03
18
#77000
b0 !
01
02
#77500
b1 !
11
12
1b
0c
07
1C
19
13
08
09
1;
18
0:
0;
1=
1:
0<
0=
1<
1>
0>
#78000
b0 !
01
02
#78500
b1 !
11
12
1c
17
03
19
08
1;
0:
1=
0<
1>
#79000
b0 !
01
02
#79500
b1 !
11
12
1_
0`
0a
0b
0c
07
0C
09
0;
0=
1?
13
18
1:
1<
0>
0?
08
0:
0<
1>
1@
0@
#80000
b0 !
01
02
#80500
b1 !
11
12
1c
17
03
18
#81000
b0 !
01
02
#81500
b1 !
11
12
1b
0c
07
19
13
08
09
18
1:
0:
#82000
b0 !
01
02
#82500
b1 !
11
12
1c
17
03
19
08
1:
#83000
b0 !
01
02
#83500
b1 !
11
12
1a
0b
0c
07
09
1;
13
18
0:
0;
08
1:
1<
0<
#84000
b0 !
01
02
#84500
b1 !
11
12
1c
17
03
18
#85000
b0 !
01
02
#85500
b1 !
11
12
1b
0c
07
19
13
08
09
1;
18
0:
0;
1:
1<
0<
#86000
b0 !
01
02
#86500
b1 !
11
12
1c
17
03
19
08
1;
0:
1<
#87000
b0 !
01
02
#87500
b1 !
11
12
1`
0a
0b
0c
07
09
0;
1=
13
18
1:
0<
0=
1?
08
0:
1<
0>
0?
1>
1@
0@
#88000
b0 !
01
02
#88500
b1 !
11
12
1c
17
03
18
#89000
b0 !
01
02
#89500
b1 !
11
12
1b
0c
07
19
13
08
09
18
1:
0:
#90000
b0 !
01
02
#90500
b1 !
11
12
1c
17
03
19
08
1:
#91000
b0 !
01
02
#91500
b1 !
11
12
1a
0b
0c
07
09
1;
13
18
0:
0;
1=
08
1:
0<
0=
1?
1<
0>
0?
1>
1@
0@
#92000
b0 !
01
02
#92500
b1 !
11
12
1c
17
03
18
#93000
b0 !
01
02
#93500
b1 !
11
12
1b
0c
07
19
13
08
09
1;
18
0:
0;
1=
1:
0<
0=
1?
1<
0>
0?
1>
1@
0@
#94000
b0 !
01
02
#94500
b1 !
11
12
1c
17
03
19
08
1;
0:
1=
0<
1?
0>
1@
#95000
b0 !
01
02
#95500
b1 !
11
12
1^
0_
0`
0a
0b
0c
07
09
0;
0=
0?
1A
13
18
1:
1<
1>
0@
0A
1D
08
0:
0<
0>
1@
0B
0D
1B
1E
0E
#96000
b0 !
01
02
#96500
b1 !
11
12
1c
17
03
18
#97000
b0 !
01
02
#97500
b1 !
11
12
1b
0c
07
19
13
08
09
18
1:
0:
#98000
b0 !
01
02
#98500
b1 !
11
12
1c
17
03
19
08
1:
#99000
b0 !
01
02
#99500
b1 !
11
12
1a
0b
0c
07
09
1;
13
18
0:
0;
08
1:
1<
0<
#100000
b0 !
01
02
#100500
b1 !
11
12
1c
17
03
18
#101000
b0 !
01
02
#101500
b1 !
11
12
1b
0c
07
19
13
08
09
1;
18
0:
0;
1:
1<
0<
#102000
b0 !
01
02
#102500
b1 !
11
12
1c
17
03
19
08
1;
0:
1<
#103000
b0 !
01
02
#103500
b1 !
11
12
1`
0a
0b
0c
07
09
0;
1=
13
18
1:
0<
0=
08
0:
1<
1>
0>
#104000
b0 !
01
02
#104500
b1 !
11
12
1c
17
03
18
#105000
b0 !
01
02
#105500
b1 !
11
12
1b
0c
07
19
13
08
09
18
1:
0:
#106000
b0 !
01
02
#106500
b1 !
11
12
1c
17
03
19
08
1:
#107000
b0 !
01
02
#107500
b1 !
11
12
1a
0b
0c
07
09
1;
13
18
0:
0;
1=
08
1:
0<
0=
1<
1>
0>
#108000
b0 !
01
02
#108500
b1 !
11
12
1c
17
03
18
#109000
b0 !
01
02
#109500
b1 !
11
12
1b
0c
07
1C
19
13
08
09
1;
18
0:
0;
1=
1:
0<
0=
1<
1>
0>
#110000
b0 !
01
02
#110500
b1 !
11
12
1c
17
03
19
08
1;
0:
1=
0<
1>
#111000
b0 !
01
02
#111500
b1 !
11
12
1_
0`
0a
0b
0c
07
0C
09
0;
0=
1?
13
18
1:
1<
0>
0?
1A
08
0:
0<
1>
0@
0A
1D
1@
0B
0D
1B
1E
0E
#112000
b0 !
01
02
#112500
b1 !
11
12
1c
17
03
18
#113000
b0 !
01
02
#113500
b1 !
11
12
1b
0c
07
19
13
08
09
18
1:
0:
#114000
b0 !
01
02
#114500
b1 !
11
12
1c
17
03
19
08
1:
#115000
b0 !
01
02
#115500
b1 !
11
12
1a
0b
0c
07
09
1;
13
18
0:
0;
08
1:
1<
0<
#116000
b0 !
01
02
#116500
b1 !
11
12
1c
17
03
18
#117000
b0 !
01
02
#117500
b1 !
11
12
1b
0c
07
19
13
08
09
1;
18
0:
0;
1:
1<
0<
#118000
b0 !
01
02
#118500
b1 !
11
12
1c
17
03
19
08
1;
0:
1<
#119000
b0 !
01
02
#119500
b1 !
11
12
1`
0a
0b
0c
07
09
0;
1=
13
18
1:
0<
0=
1?
08
0:
1<
0>
0?
1A
1>
0@
0A
1D
1@
0B
0D
1B
1E
0E
#120000
b0 !
01
02
#120500
b1 !
11
12
1c
17
03
18
#121000
b0 !
01
02
#121500
b1 !
11
12
1b
0c
07
19
13
08
09
18
1:
0:
#122000
b0 !
01
02
#122500
b1 !
11
12
1c
17
03
19
08
1:
#123000
b0 !
01
02
#123500
b1 !
11
12
1a
0b
0c
07
09
1;
13
18
0:
0;
1=
08
1:
0<
0=
1?
1<
0>
0?
1A
1>
0@
0A
1D
1@
0B
0D
1B
1E
0E
#124000
b0 !
01
02
#124500
b1 !
11
12
1c
17
03
18
#125000
b0 !
01
02
#125500
b1 !
11
12
1b
0c
07
19
13
08
09
1;
18
0:
0;
1=
1:
0<
0=
1?
1<
0>
0?
1A
1>
0@
0A
1D
1@
0B
0D
1B
1E
0E
#126000
b0 !
01
02
#126500
b1 !
11
12
1c
17
03
19
08
1;
0:
1=
0<
1?
0>
1A
0@
1D
0B
1E
#127000
b0 !
01
02
#127500
b1 !
11
12
1\
0]
0^
0_
0`
0a
0b
0c
07
09
0;
0=
0?
0A
0D
1F
13
18
1:
1<
1>
1@
1B
0E
0F
08
0:
0<
0>
0@
0B
1E
1G
0G
#128000
b0 !
01
02
#128500
b1 !
11
12
1c
17
03
18
#129000
b0 !
01
02
#129500
b1 !
11
12
1b
0c
07
19
13
08
09
18
1:
0:
#130000
b0 !
01
02
#130500
b1 !
11
12
1c
17
03
19
08
1:
#131000
b0 !
01
02
#131500
b1 !
11
12
1a
0b
0c
07
09
1;
13
18
0:
0;
08
1:
1<
0<
#132000
b0 !
01
02
#132500
b1 !
11
12
1c
17
03
18
#133000
b0 !
01
02
#133500
b1 !
11
12
1b
0c
07
19
13
08
09
1;
18
0:
0;
1:
1<
0<
#134000
b0 !
01
02
#134500
b1 !
11
12
1c
17
03
19
08
1;
0:
1<
#135000
b0 !
01
02
#135500
b1 !
11
12
1`
0a
0b
0c
07
09
0;
1=
13
18
1:
0<
0=
08
0:
1<
1>
0>
#136000
b0 !
01
02
#136500
b1 !
11
12
1c
17
03
18
#137000
b0 !
01
02
#137500
b1 !
11
12
1b
0c
07
19
13
08
09
18
1:
0:
#138000
b0 !
01
02
#138500
b1 !
11
12
1c
17
03
19
08
1:
#139000
b0 !
01
02
#139500
b1 !
11
12
1a
0b
0c
07
09
1;
13
18
0:
0;
1=
08
1:
0<
0=
1<
1>
0>
#140000
b0 !
01
02
#140500
b1 !
11
12
1c
17
03
18
#141000
b0 !
01
02
#141500
b1 !
11
12
1b
0c
07
1C
19
13
08
09
1;
18
0:
0;
1=
1:
0<
0=
1<
1>
0>
#142000
b0 !
01
02
#142500
b1 !
11
12
1c
17
03
19
08
1;
0:
1=
0<
1>
#143000
b0 !
01
02
#143500
b1 !
11
12
1_
0`
0a
0b
0c
07
0C
09
0;
0=
1?
13
18
1:
1<
0>
0?
08
0:
0<
1>
1@
0@
#144000
b0 !
01
02
#144500
b1 !
11
12
1c
17
03
18
#145000
b0 !
01
02
#145500
b1 !
11
12
1b
0c
07
19
13
08
09
18
1:
0:
#146000
b0 !
01
02
#146500
b1 !
11
12
1c
17
03
19
08
1:
#147000
b0 !
01
02
#147500
b1 !
11
12
1a
0b
0c
07
09
1;
13
18
0:
0;
08
1:
1<
0<
#148000
b0 !
01
02
#148500
b1 !
11
12
1c
17
03
18
#149000
b0 !
01
02
#149500
b1 !
11
12
1b
0c
07
19
13
08
09
1;
18
0:
0;
1:
1<
0<
#150000
b0 !
01
02
#150500
b1 !
11
12
1c
17
03
19
08
1;
0:
1<
#151000
b0 !
01
02
#151500
b1 !
11
12
1`
0a
0b
0c
07
09
0;
1=
13
18
1:
0<
0=
1?
08
0:
1<
0>
0?
1>
1@
0@
#152000
b0 !
01
02
#152500
b1 !
11
12
1c
17
03
18
#153000
b0 !
01
02
#153500
b1 !
11
12
1b
0c
07
19
13
08
09
18
1:
0:
#154000
b0 !
01
02
#154500
b1 !
11
12
1c
17
03
19
08
1:
#155000
b0 !
01
02
#155500
b1 !
11
12
1a
0b
0c
07
09
1;
13
18
0:
0;
1=
08
1:
0<
0=
1?
1<
0>
0?
1>
1@
0@
#156000
b0 !
01
02
#156500
b1 !
11
12
1c
17
03
18
#157000
b0 !
01
02
#157500
b1 !
11
12
1b
0c
07
19
13
08
09
1;
18
0:
0;
1=
1:
0<
0=
1?
1<
0>
0?
1>
1@
0@
#158000
b0 !
01
02
#158500
b1 !
11
12
1c
17
03
19
08
1;
0:
1=
0<
1?
0>
1@
#159000
b0 !
01
02
#159500
b1 !
11
12
1^
0_
0`
0a
0b
0c
07
09
0;
0=
0?
1A
13
18
1:
1<
1>
0@
0A
08
0:
0<
0>
1@
1B
0B
#160000
b0 !
01
02
#160500
b1 !
11
12
1c
17
03
18
#161000
b0 !
01
02
#161500
b1 !
11
12
1b
0c
07
19
13
08
09
18
1:
0:
#162000
b0 !
01
02
#162500
b1 !
11
12
1c
17
03
19
08
1:
#163000
b0 !
01
02
#163500
b1 !
11
12
1a
0b
0c
07
09
1;
13
18
0:
0;
08
1:
1<
0<
#164000
b0 !
01
02
#164500
b1 !
11
12
1c
17
03
18
#165000
b0 !
01
02
#165500
b1 !
11
12
1b
0c
07
19
13
08
09
1;
18
0:
0;
1:
1<
0<
#166000
b0 !
01
02
#166500
b1 !
11
12
1c
17
03
19
08
1;
0:
1<
#167000
b0 !
01
02
#167500
b1 !
11
12
1`
0a
0b
0c
07
09
0;
1=
13
18
1:
0<
0=
08
0:
1<
1>
0>
#168000
b0 !
01
02
#168500
b1 !
11
12
1c
17
03
18
#169000
b0 !
01
02
#169500
b1 !
11
12
1b
0c
07
19
13
08
09
18
1:
0:
#170000
b0 !
01
02
#170500
b1 !
11
12
1c
17
03
19
08
1:
#171000
b0 !
01
02
#171500
b1 !
11
12
1a
0b
0c
07
09
1;
13
18
0:
0;
1=
08
1:
0<
0=
1<
1>
0>
#172000
b0 !
01
02
#172500
b1 !
11
12
1c
17
03
18
#173000
b0 !
01
02
#173500
b1 !
11
12
1b
0c
07
1C
19
13
08
09
1;
18
0:
0;
1=
1:
0<
0=
1<
1>
0>
#174000
b0 !
01
02
#174500
b1 !
11
12
1c
17
03
19
08
1;
0:
1=
0<
1>
#175000
b0 !
01
02
#175500
b1 !
11
12
1_
0`
0a
0b
0c
07
0C
09
0;
0=
1?
13
18
1:
1<
0>
0?
1A
08
0:
0<
1>
0@
0A
1@
1B
0B
#176000
b0 !
01
02
#176500
b1 !
11
12
1c
17
03
18
#177000
b0 !
01
02
#177500
b1 !
11
12
1b
0c
07
19
13
08
09
18
1:
0:
#178000
b0 !
01
02
#178500
b1 !
11
12
1c
17
03
19
08
1:
#179000
b0 !
01
02
#179500
b1 !
11
12
1a
0b
0c
07
09
1;
13
18
0:
0;
08
1:
1<
0<
#180000
b0 !
01
02
#180500
b1 !
11
12
1c
17
03
18
#181000
b0 !
01
02
#181500
b1 !
11
12
1b
0c
07
19
13
08
09
1;
18
0:
0;
1:
1<
0<
#182000
b0 !
01
02
#182500
b1 !
11
12
1c
17
03
19
08
1;
0:
1<
#183000
b0 !
01
02
#183500
b1 !
11
12
1`
0a
0b
0c
07
09
0;
1=
13
18
1:
0<
0=
1?
08
0:
1<
0>
0?
1A
1>
0@
0A
1@
1B
0B
#184000
b0 !
01
02
#184500
b1 !
11
12
1c
17
03
18
#185000
b0 !
01
02
#185500
b1 !
11
12
1b
0c
07
19
13
08
09
18
1:
0:
#186000
b0 !
01
02
#186500
b1 !
11
12
1c
17
03
19
08
1:
#187000
b0 !
01
02
#187500
b1 !
11
12
1a
0b
0c
07
09
1;
13
18
0:
0;
1=
08
1:
0<
0=
1?
1<
0>
0?
1A
1>
0@
0A
1@
1B
0B
#188000
b0 !
01
02
#188500
b1 !
11
12
1c
17
03
18
#189000
b0 !
01
02
#189500
b1 !
11
12
1b
0c
07
19
13
08
09
1;
18
0:
0;
1=
1:
0<
0=
1?
1<
0>
0?
1A
1>
0@
0A
1@
1B
0B
#190000
b0 !
01
02
#190500
b1 !
11
12
1c
17
03
19
08
1;
0:
1=
0<
1?
0>
1A
0@
1B
#191000
b0 !
01
02
#191500
b1 !
11
12
1]
0^
0_
0`
0a
0b
0c
07
09
0;
0=
0?
0A
1D
13
18
1:
1<
1>
1@
0B
0D
1F
08
0:
0<
0>
0@
1B
0E
0F
1E
1G
0G
#192000
b0 !
01
02
#192500
b1 !
11
12
1c
17
03
18
#193000
b0 !
01
02
#193500
b1 !
11
12
1b
0c
07
19
13
08
09
18
1:
0:
#194000
b0 !
01
02
#194500
b1 !
11
12
1c
17
03
19
08
1:
#195000
b0 !
01
02
#195500
b1 !
11
12
1a
0b
0c
07
09
1;
13
18
0:
0;
08
1:
1<
0<
#196000
b0 !
01
02
#196500
b1 !
11
12
1c
17
03
18
#197000
b0 !
01
02
#197500
b1 !
11
12
1b
0c
07
19
13
08
09
1;
18
0:
0;
1:
1<
0<
#198000
b0 !
01
02
#198500
b1 !
11
12
1c
17
03
19
08
1;
0:
1<
#199000
b0 !
01
02
#199500
b1 !
11
12
1`
0a
0b
0c
07
09
0;
1=
13
18
1:
0<
0=
08
0:
1<
1>
0>
#200000
b0 !
01
02
#200500
b1 !
11
12
1c
17
03
18
#201000
b0 !
01
02
#201500
b1 !
11
12
1b
0c
07
19
13
08
09
18
1:
0:
#202000
b0 !
01
02
#202500
b1 !
11
12
1c
17
03
19
08
1:
#203000
b0 !
01
02
#203500
b1 !
11
12
1a
0b
0c
07
09
1;
13
18
0:
0;
1=
08
1:
0<
0=
1<
1>
0>
#204000
b0 !
01
02
#204500
b1 !
11
12
1c
17
03
18
#205000
b0 !
01
02
#205500
b1 !
11
12
1b
0c
07
1C
19
13
08
09
1;
18
0:
0;
1=
1:
0<
0=
1<
1>
0>
#206000
b0 !
01
02
#206500
b1 !
11
12
1c
17
03
19
08
1;
0:
1=
0<
1>
#207000
b0 !
01
02
#207500
b1 !
11
12
1_
0`
0a
0b
0c
07
0C
09
0;
0=
1?
13
18
1:
1<
0>
0?
08
0:
0<
1>
1@
0@
#208000
b0 !
01
02
#208500
b1 !
11
12
1c
17
03
18
#209000
b0 !
01
02
#209500
b1 !
11
12
1b
0c
07
19
13
08
09
18
1:
0:
#210000
b0 !
01
02
#210500
b1 !
11
12
1c
17
03
19
08
1:
#211000
b0 !
01
02
#211500
b1 !
11
12
1a
0b
0c
07
09
1;
13
18
0:
0;
08
1:
1<
0<
#212000
b0 !
01
02
#212500
b1 !
11
12
1c
17
03
18
#213000
b0 !
01
02
#213500
b1 !
11
12
1b
0c
07
19
13
08
09
1;
18
0:
0;
1:
1<
0<
#214000
b0 !
01
02
#214500
b1 !
11
12
1c
17
03
19
08
1;
0:
1<
#215000
b0 !
01
02
#215500
b1 !
11
12
1`
0a
0b
0c
07
09
0;
1=
13
18
1:
0<
0=
1?
08
0:
1<
0>
0?
1>
1@
0@
#216000
b0 !
01
02
#216500
b1 !
11
12
1c
17
03
18
#217000
b0 !
01
02
#217500
b1 !
11
12
1b
0c
07
19
13
08
09
18
1:
0:
#218000
b0 !
01
02
#218500
b1 !
11
12
1c
17
03
19
08
1:
#219000
b0 !
01
02
#219500
b1 !
11
12
1a
0b
0c
07
09
1;
13
18
0:
0;
1=
08
1:
0<
0=
1?
1<
0>
0?
1>
1@
0@
#220000
b0 !
01
02
#220500
b1 !
11
12
1c
17
03
18
#221000
b0 !
01
02
#221500
b1 !
11
12
1b
0c
07
19
13
08
09
1;
18
0:
0;
1=
1:
0<
0=
1?
1<
0>
0?
1>
1@
0@
#222000
b0 !
01
02
#222500
b1 !
11
12
1c
17
03
19
08
1;
0:
1=
0<
1?
0>
1@
#223000
b0 !
01
02
#223500
b1 !
11
12
1^
0_
0`
0a
0b
0c
07
09
0;
0=
0?
1A
13
18
1:
1<
1>
0@
0A
1D
08
0:
0<
0>
1@
0B
0D
1F
1B
0E
0F
1E
1G
0G
#224000
b0 !
01
02
#224500
b1 !
11
12
1c
17
03
18
#225000
b0 !
01
02
#225500
b1 !
11
12
1b
0c
07
19
13
08
09
18
1:
0:
#226000
b0 !
01
02
#226500
b1 !
11
12
1c
17
03
19
08
1:
#227000
b0 !
01
02
#227500
b1 !
11
12
1a
0b
0c
07
09
1;
13
18
0:
0;
08
1:
1<
0<
#228000
b0 !
01
02
#228500
b1 !
11
12
1c
17
03
18
#229000
b0 !
01
02
#229500
b1 !
11
12
1b
0c
07
19
13
08
09
1;
18
0:
0;
1:
1<
0<
#230000
b0 !
01
02
#230500
b1 !
11
12
1c
17
03
19
08
1;
0:
1<
#231000
b0 !
01
02
