ps5/zad1/simulation/qsim/counter_T_4_bits_board.msim.vcd
$comment
	File created using the following command:
		vcd file counter_T_4_bits_board.msim.vcd -direction
$end
$date
	Wed Mar 27 19:18:50 2019
$end
$version
	ModelSim Version 10.5b
$end
$timescale
	1ps
$end

$scope module counter_T_4_bits_board_vlg_vec_tst $end
$var reg 1 ! KEY [0:0] $end
$var reg 2 " SW [1:0] $end
$var wire 1 # HEX0 [0] $end
$var wire 1 $ HEX0 [1] $end
$var wire 1 % HEX0 [2] $end
$var wire 1 & HEX0 [3] $end
$var wire 1 ' HEX0 [4] $end
$var wire 1 ( HEX0 [5] $end
$var wire 1 ) HEX0 [6] $end

$scope module i1 $end
$var wire 1 * gnd $end
$var wire 1 + vcc $end
$var wire 1 , unknown $end
$var tri1 1 - devclrn $end
$var tri1 1 . devpor $end
$var tri1 1 / devoe $end
$var wire 1 0 ~QUARTUS_CREATED_GND~I_combout $end
$var wire 1 1 KEY[0]~input_o $end
$var wire 1 2 KEY[0]~inputCLKENA0_outclk $end
$var wire 1 3 SW[1]~input_o $end
$var wire 1 4 ex0|ex0|Q~0_combout $end
$var wire 1 5 SW[0]~input_o $end
$var wire 1 6 ex0|ex0|Q~q $end
$var wire 1 7 ex0|ex1|Q~0_combout $end
$var wire 1 8 ex0|ex1|Q~q $end
$var wire 1 9 ex0|ex2|Q~0_combout $end
$var wire 1 : ex0|ex2|Q~q $end
$var wire 1 ; ex0|ex3|Q~0_combout $end
$var wire 1 < ex0|ex3|Q~q $end
$var wire 1 = ex1|WideOr6~0_combout $end
$var wire 1 > ex1|WideOr5~0_combout $end
$var wire 1 ? ex1|WideOr4~0_combout $end
$var wire 1 @ ex1|WideOr3~0_combout $end
$var wire 1 A ex1|WideOr2~0_combout $end
$var wire 1 B ex1|WideOr1~0_combout $end
$var wire 1 C ex1|WideOr0~0_combout $end
$upscope $end
$upscope $end
$enddefinitions $end
#0
$dumpvars
b0 !
b11 "
1)
0(
0'
0&
0%
0$
0#
0*
1+
x,
1-
1.
1/
00
01
02
13
14
15
06
07
08
09
0:
0;
0<
0=
0>
0?
0@
0A
0B
0C
$end
#5000
b1 !
11
12
16
1C
1@
1?
1>
17
04
1(
1'
1&
1#
#10000
b0 !
01
02
#15000
b1 !
11
12
18
06
1=
0C
1A
0@
0?
14
0'
0&
1%
0#
0)
#20000
b0 !
01
02
#25000
b1 !
11
12
16
0A
1?
19
07
04
1'
0%
#30000
b0 !
01
02
#35000
b1 !
11
12
1:
08
06
1C
1@
0>
14
0(
1&
1#
#40000
b0 !
01
02
#45000
b1 !
11
12
16
0C
1B
0@
17
04
0&
1$
0#
#50000
b0 !
01
02
#55000
b1 !
11
12
18
06
0?
14
0'
#60000
b0 !
01
02
#65000
b1 !
11
12
16
0=
0B
1@
1?
1>
1;
09
07
04
1(
1'
1&
0$
1)
#70000
b0 !
01
02
#75000
b1 !
11
12
1<
0:
08
06
1=
0@
0?
0>
14
0(
0'
0&
0)
#80000
b0 !
01
02
#85000
b1 !
11
12
16
1?
17
04
1'
#90000
b0 !
01
02
#95000
b1 !
11
12
18
06
1@
0?
14
0'
1&
#100000
b0 !
01
02
#105000
b1 !
11
12
16
1C
1B
0@
19
07
04
0&
1$
1#
#110000
b0 !
01
02
#115000
b1 !
11
12
1:
08
06
0=
0C
1A
14
1%
0#
1)
#120000
b0 !
01
02
#125000
b1 !
11
12
16
1=
1C
0B
0A
1>
17
04
1(
0%
0$
1#
0)
#130000
b0 !
01
02
#135000
b1 !
11
12
18
06
0C
1B
1A
0>
14
0(
1%
1$
0#
#140000
b0 !
01
02
#145000
b1 !
11
12
16
1@
0;
09
07
04
1&
#150000
b0 !
01
02
#155000
b1 !
11
12
0<
0:
08
06
0=
0B
0A
0@
14
0&
0%
0$
1)
#160000
b0 !
01
02
#165000
b1 !
11
12
16
1C
1@
1?
1>
17
04
1(
1'
1&
1#
#170000
b0 !
01
02
#175000
b1 !
11
12
18
06
1=
0C
1A
0@
0?
14
0'
0&
1%
0#
0)
#180000
b0 !
01
02
#185000
b1 !
11
12
16
0A
1?
19
07
04
1'
0%
#190000
b0 !
01
02
#195000
b1 !
11
12
1:
08
06
1C
1@
0>
14
0(
1&
1#
#200000
b0 !
01
02
#205000
b1 !
11
12
16
0C
1B
0@
17
04
0&
1$
0#
#210000
b0 !
01
02
#215000
b1 !
11
12
18
06
0?
14
0'
#220000
b0 !
01
02
#225000
b1 !
11
12
16
0=
0B
1@
1?
1>
1;
09
07
04
1(
1'
1&
0$
1)
#230000
b0 !
01
02
#235000
b1 !
11
12
1<
0:
08
06
1=
0@
0?
0>
14
0(
0'
0&
0)
#240000
b0 !
01
02
#245000
b1 !
11
12
16
1?
17
04
1'
#250000
b0 !
01
02
#255000
b1 !
11
12
18
06
1@
0?
14
0'
1&
#260000
b0 !
01
02
#265000
b1 !
11
12
16
1C
1B
0@
19
07
04
0&
1$
1#
#270000
b0 !
01
02
#275000
b1 !
11
12
1:
08
06
0=
0C
1A
14
1%
0#
1)
#280000
b0 !
01
02
#285000
b1 !
11
12
16
1=
1C
0B
0A
1>
17
04
1(
0%
0$
1#
0)
#290000
b0 !
01
02
#295000
b1 !
11
12
18
06
0C
1B
1A
0>
14
0(
1%
1$
0#
#300000
b0 !
01
02
#305000
b1 !
11
12
16
1@
0;
09
07
04
1&
#310000
b0 !
01
02
#315000
b1 !
11
12
0<
0:
08
06
0=
0B
0A
0@
14
0&
0%
0$
1)
#320000
b0 !
01
02
#325000
b1 !
11
12
16
1C
1@
1?
1>
17
04
1(
1'
1&
1#
#330000
b0 !
01
02
#335000
b1 !
11
12
18
06
1=
0C
1A
0@
0?
14
0'
0&
1%
0#
0)
#340000
b0 !
01
02
#345000
b1 !
11
12
16
0A
1?
19
07
04
1'
0%
#350000
b0 !
01
02
#355000
b1 !
11
12
1:
08
06
1C
1@
0>
14
0(
1&
1#
#360000
b0 !
01
02
#365000
b1 !
11
12
16
0C
1B
0@
17
04
0&
1$
0#
#370000
b0 !
01
02
#375000
b1 !
11
12
18
06
0?
14
0'
#380000
b0 !
01
02
#385000
b1 !
11
12
16
0=
0B
1@
1?
1>
1;
09
07
04
1(
1'
1&
0$
1)
#390000
b0 !
01
02
#395000
b1 !
11
12
1<
0:
08
06
1=
0@
0?
0>
14
0(
0'
0&
0)
#400000
b0 !
01
02
#405000
b1 !
11
12
16
1?
17
04
1'
#410000
b0 !
01
02
#415000
b1 !
11
12
18
06
1@
0?
14
0'
1&
#420000
b0 !
01
02
#425000
b1 !
11
12
16
1C
1B
0@
19
07
04
0&
1$
1#
#430000
b0 !
01
02
#435000
b1 !
11
12
1:
08
06
0=
0C
1A
14
1%
0#
1)
#440000
b0 !
01
02
#445000
b1 !
11
12
16
1=
1C
0B
0A
1>
17
04
1(
0%
0$
1#
0)
#450000
b0 !
01
02
#455000
b1 !
11
12
18
06
0C
1B
1A
0>
14
0(
1%
1$
0#
#460000
b0 !
01
02
#465000
b1 !
11
12
16
1@
0;
09
07
04
1&
#470000
b0 !
01
02
#475000
b1 !
11
12
0<
0:
08
06
0=
0B
0A
0@
14
0&
0%
0$
1)
#480000
b0 !
01
02
#485000
b1 !
11
12
16
1C
1@
1?
1>
17
04
1(
1'
1&
1#
#490000
b0 !
01
02
#495000
b1 !
11
12
18
06
1=
0C
1A
0@
0?
14
0'
0&
1%
0#
0)
#500000
b0 !
01
02
#505000
b1 !
11
12
16
0A
1?
19
07
04
1'
0%
#510000
b0 !
01
02
#515000
b1 !
11
12
1:
08
06
1C
1@
0>
14
0(
1&
1#
#520000
b0 !
01
02
#525000
b1 !
11
12
16
0C
1B
0@
17
04
0&
1$
0#
#530000
b0 !
01
02
#535000
b1 !
11
12
18
06
0?
14
0'
#540000
b0 !
01
02
#545000
b1 !
11
12
16
0=
0B
1@
1?
1>
1;
09
07
04
1(
1'
1&
0$
1)
#550000
b0 !
01
02
#555000
b1 !
11
12
1<
0:
08
06
1=
0@
0?
0>
14
0(
0'
0&
0)
#560000
b0 !
01
02
#565000
b1 !
11
12
16
1?
17
04
1'
#570000
b0 !
01
02
#575000
b1 !
11
12
18
06
1@
0?
14
0'
1&
#580000
b0 !
01
02
#585000
b1 !
11
12
16
1C
1B
0@
19
07
04
0&
1$
1#
#590000
b0 !
01
02
#595000
b1 !
11
12
1:
08
06
0=
0C
1A
14
1%
0#
1)
#600000
b0 !
01
02
#605000
b1 !
11
12
16
1=
1C
0B
0A
1>
17
04
1(
0%
0$
1#
0)
#610000
b0 !
01
02
#615000
b1 !
11
12
18
06
0C
1B
1A
0>
14
0(
1%
1$
0#
#620000
b0 !
01
02
#625000
b1 !
11
12
16
1@
0;
09
07
04
1&
#630000
b0 !
01
02
#635000
b1 !
11
12
0<
0:
08
06
0=
0B
0A
0@
14
0&
0%
0$
1)
#640000
b0 !
01
02
#645000
b1 !
11
12
16
1C
1@
1?
1>
17
04
1(
1'
1&
1#
#650000
b0 !
01
02
#655000
b1 !
11
12
18
06
1=
0C
1A
0@
0?
14
0'
0&
1%
0#
0)
#660000
b0 !
01
02
#665000
b1 !
11
12
16
0A
1?
19
07
04
1'
0%
#670000
b0 !
01
02
#675000
b1 !
11
12
1:
08
06
1C
1@
0>
14
0(
1&
1#
#680000
b0 !
01
02
#685000
b1 !
11
12
16
0C
1B
0@
17
04
0&
1$
0#
#690000
b0 !
01
02
#695000
b1 !
11
12
18
06
0?
14
0'
#700000
b0 !
01
02
#705000
b1 !
11
12
16
0=
0B
1@
1?
1>
1;
09
07
04
1(
1'
1&
0$
1)
#710000
b0 !
01
02
#715000
b1 !
11
12
1<
0:
08
06
1=
0@
0?
0>
14
0(
0'
0&
0)
#720000
b0 !
01
02
#725000
b1 !
11
12
16
1?
17
04
1'
#730000
b0 !
01
02
#735000
b1 !
11
12
18
06
1@
0?
14
0'
1&
#740000
b0 !
01
02
#745000
b1 !
11
12
16
1C
1B
0@
19
07
04
0&
1$
1#
#750000
b0 !
01
02
#755000
b1 !
11
12
1:
08
06
0=
0C
1A
14
1%
0#
1)
#760000
b0 !
01
02
#765000
b1 !
11
12
16
1=
1C
0B
0A
1>
17
04
1(
0%
0$
1#
0)
#770000
b0 !
01
02
#775000
b1 !
11
12
18
06
0C
1B
1A
0>
14
0(
1%
1$
0#
#780000
b0 !
01
02
#785000
b1 !
11
12
16
1@
0;
09
07
04
1&
#790000
b0 !
01
02
#795000
b1 !
11
12
0<
0:
08
06
0=
0B
0A
0@
14
0&
0%
0$
1)
#800000
b0 !
01
02
#805000
b1 !
11
12
16
1C
1@
1?
1>
17
04
1(
1'
1&
1#
#810000
b0 !
01
02
#815000
b1 !
11
12
18
06
1=
0C
1A
0@
0?
14
0'
0&
1%
0#
0)
#820000
b0 !
01
02
#825000
b1 !
11
12
16
0A
1?
19
07
04
1'
0%
#830000
b0 !
01
02
#835000
b1 !
11
12
1:
08
06
1C
1@
0>
14
0(
1&
1#
#840000
b0 !
01
02
#845000
b1 !
11
12
16
0C
1B
0@
17
04
0&
1$
0#
#850000
b0 !
01
02
#855000
b1 !
11
12
18
06
0?
14
0'
#860000
b0 !
01
02
#865000
b1 !
11
12
16
0=
0B
1@
1?
1>
1;
09
07
04
1(
1'
1&
0$
1)
#870000
b0 !
01
02
#875000
b1 !
11
12
1<
0:
08
06
1=
0@
0?
0>
14
0(
0'
0&
0)
#880000
b0 !
01
02
#885000
b1 !
11
12
16
1?
17
04
1'
#890000
b0 !
01
02
#895000
b1 !
11
12
18
06
1@
0?
14
0'
1&
#900000
b0 !
01
02
#905000
b1 !
11
12
16
1C
1B
0@
19
07
04
0&
1$
1#
#910000
b0 !
01
02
#915000
b1 !
11
12
1:
08
06
0=
0C
1A
14
1%
0#
1)
#920000
b0 !
01
02
#925000
b1 !
11
12
16
1=
1C
0B
0A
1>
17
04
1(
0%
0$
1#
0)
#930000
b0 !
01
02
#935000
b1 !
11
12
18
06
0C
1B
1A
0>
14
0(
1%
1$
0#
#940000
b0 !
01
02
#945000
b1 !
11
12
16
1@
0;
09
07
04
1&
#950000
b0 !
01
02
#955000
b1 !
11
12
0<
0:
08
06
0=
0B
0A
0@
14
0&
0%
0$
1)
#960000
b0 !
01
02
#965000
b1 !
11
12
16
1C
1@
1?
1>
17
04
1(
1'
1&
1#
#970000
b0 !
01
02
#975000
b1 !
11
12
18
06
1=
0C
1A
0@
0?
14
0'
0&
1%
0#
0)
#980000
b0 !
01
02
#985000
b1 !
11
12
16
0A
1?
19
07
04
1'
0%
#990000
b0 !
01
02
#995000
b1 !
11
12
1:
08
06
1C
1@
0>
14
0(
1&
1#
