ps3/zad3VER2/binary_BCD_4_bits_board/simulation/qsim/binary_BCD_4_bits_board.msim.vcd
$comment
	File created using the following command:
		vcd file binary_BCD_4_bits_board.msim.vcd -direction
$end
$date
	Wed Mar 20 19:40:15 2019
$end
$version
	ModelSim Version 10.5b
$end
$timescale
	1ps
$end

$scope module binary_BCD_4_bits_board_vlg_vec_tst $end
$var reg 4 ! SW [3:0] $end
$var wire 1 " HEX0 [0] $end
$var wire 1 # HEX0 [1] $end
$var wire 1 $ HEX0 [2] $end
$var wire 1 % HEX0 [3] $end
$var wire 1 & HEX0 [4] $end
$var wire 1 ' HEX0 [5] $end
$var wire 1 ( HEX0 [6] $end
$var wire 1 ) HEX1 [0] $end
$var wire 1 * HEX1 [1] $end
$var wire 1 + HEX1 [2] $end
$var wire 1 , HEX1 [3] $end
$var wire 1 - HEX1 [4] $end
$var wire 1 . HEX1 [5] $end
$var wire 1 / HEX1 [6] $end
$var wire 1 0 LEDR [3] $end
$var wire 1 1 LEDR [2] $end
$var wire 1 2 LEDR [1] $end
$var wire 1 3 LEDR [0] $end

$scope module i1 $end
$var wire 1 4 gnd $end
$var wire 1 5 vcc $end
$var wire 1 6 unknown $end
$var tri1 1 7 devclrn $end
$var tri1 1 8 devpor $end
$var tri1 1 9 devoe $end
$var wire 1 : ~QUARTUS_CREATED_GND~I_combout $end
$var wire 1 ; SW[0]~input_o $end
$var wire 1 < SW[1]~input_o $end
$var wire 1 = SW[2]~input_o $end
$var wire 1 > SW[3]~input_o $end
$var wire 1 ? ex5|WideOr6~0_combout $end
$var wire 1 @ ex5|WideOr5~0_combout $end
$var wire 1 A ex5|WideOr4~0_combout $end
$var wire 1 B ex5|WideOr3~0_combout $end
$var wire 1 C ex5|WideOr2~0_combout $end
$var wire 1 D ex5|WideOr1~0_combout $end
$var wire 1 E ex5|WideOr0~0_combout $end
$var wire 1 F e2|LessThan0~0_combout $end
$upscope $end
$upscope $end
$enddefinitions $end
#0
$dumpvars
b0 !
1(
0'
0&
0%
0$
0#
0"
1/
0.
0-
0,
0+
0*
0)
03
02
01
00
04
15
x6
17
18
19
0:
0;
0<
0=
0>
0?
0@
0A
0B
0C
0D
0E
0F
$end
#10000
b1 !
1;
13
1E
1B
1A
1@
1'
1&
1%
1"
#20000
b11 !
b10 !
0;
1<
12
03
1?
0E
1C
0B
0A
0&
0%
1$
0"
0(
#30000
b11 !
1;
13
0C
1A
1&
0$
#40000
b111 !
b101 !
b100 !
0;
0<
1=
11
02
03
1E
1B
0@
0'
1%
1"
#50000
b101 !
1;
13
0E
1D
0B
0%
1#
0"
#60000
b111 !
b110 !
0;
1<
12
03
0A
0&
#70000
b111 !
1;
13
0?
0D
1B
1A
1@
1'
1&
1%
0#
1(
#80000
b1111 !
b1011 !
b1001 !
b1000 !
0;
0<
0=
1>
10
01
02
03
1?
0B
0A
0@
0'
0&
0%
0(
#90000
b1001 !
1;
13
1A
1&
#100000
b1011 !
b1010 !
0;
1<
12
03
0?
1F
0A
0&
1.
1-
1,
1)
1(
#110000
b1011 !
1;
13
1E
1B
1A
1@
1'
1&
1%
1"
#120000
b1111 !
b1101 !
b1100 !
0;
0<
1=
11
02
03
1?
0E
1C
0B
0A
0&
0%
1$
0"
0(
#130000
b1101 !
1;
13
0C
1A
1&
0$
#140000
b1111 !
b1110 !
0;
1<
12
03
1E
1B
0@
0'
1%
1"
#150000
b1111 !
1;
13
0E
1D
0B
0%
1#
0"
#160000
b111 !
b11 !
b1 !
b0 !
0;
0<
0=
0>
00
01
02
03
0?
0F
0D
0A
0&
0#
0.
0-
0,
0)
1(
#170000
b1 !
1;
13
1E
1B
1A
1@
1'
1&
1%
1"
#180000
b11 !
b10 !
0;
1<
12
03
1?
0E
1C
0B
0A
0&
0%
1$
0"
0(
#190000
b11 !
1;
13
0C
1A
1&
0$
#200000
b111 !
b101 !
b100 !
0;
0<
1=
11
02
03
1E
1B
0@
0'
1%
1"
#210000
b101 !
1;
13
0E
1D
0B
0%
1#
0"
#220000
b111 !
b110 !
0;
1<
12
03
0A
0&
#230000
b111 !
1;
13
0?
0D
1B
1A
1@
1'
1&
1%
0#
1(
#240000
b1111 !
b1011 !
b1001 !
b1000 !
0;
0<
0=
1>
10
01
02
03
1?
0B
0A
0@
0'
0&
0%
0(
#250000
b1001 !
1;
13
1A
1&
#260000
b1011 !
b1010 !
0;
1<
12
03
0?
1F
0A
0&
1.
1-
1,
1)
1(
#270000
b1011 !
1;
13
1E
1B
1A
1@
1'
1&
1%
1"
#280000
b1111 !
b1101 !
b1100 !
0;
0<
1=
11
02
03
1?
0E
1C
0B
0A
0&
0%
1$
0"
0(
#290000
b1101 !
1;
13
0C
1A
1&
0$
#300000
b1111 !
b1110 !
0;
1<
12
03
1E
1B
0@
0'
1%
1"
#310000
b1111 !
1;
13
0E
1D
0B
0%
1#
0"
#320000
b111 !
b11 !
b1 !
b0 !
0;
0<
0=
0>
00
01
02
03
0?
0F
0D
0A
0&
0#
0.
0-
0,
0)
1(
#330000
b1 !
1;
13
1E
1B
1A
1@
1'
1&
1%
1"
#340000
b11 !
b10 !
0;
1<
12
03
1?
0E
1C
0B
0A
0&
0%
1$
0"
0(
#350000
b11 !
1;
13
0C
1A
1&
0$
#360000
b111 !
b101 !
b100 !
0;
0<
1=
11
02
03
1E
1B
0@
0'
1%
1"
#370000
b101 !
1;
13
0E
1D
0B
0%
1#
0"
#380000
b111 !
b110 !
0;
1<
12
03
0A
0&
#390000
b111 !
1;
13
0?
0D
1B
1A
1@
1'
1&
1%
0#
1(
#400000
b1111 !
b1011 !
b1001 !
b1000 !
0;
0<
0=
1>
10
01
02
03
1?
0B
0A
0@
0'
0&
0%
0(
#410000
b1001 !
1;
13
1A
1&
#420000
b1011 !
b1010 !
0;
1<
12
03
0?
1F
0A
0&
1.
1-
1,
1)
1(
#430000
b1011 !
1;
13
1E
1B
1A
1@
1'
1&
1%
1"
#440000
b1111 !
b1101 !
b1100 !
0;
0<
1=
11
02
03
1?
0E
1C
0B
0A
0&
0%
1$
0"
0(
#450000
b1101 !
1;
13
0C
1A
1&
0$
#460000
b1111 !
b1110 !
0;
1<
12
03
1E
1B
0@
0'
1%
1"
#470000
b1111 !
1;
13
0E
1D
0B
0%
1#
0"
#480000
b111 !
b11 !
b1 !
b0 !
0;
0<
0=
0>
00
01
02
03
0?
0F
0D
0A
0&
0#
0.
0-
0,
0)
1(
#490000
b1 !
1;
13
1E
1B
1A
1@
1'
1&
1%
1"
#500000
b11 !
b10 !
0;
1<
12
03
1?
0E
1C
0B
0A
0&
0%
1$
0"
0(
#510000
b11 !
1;
13
0C
1A
1&
0$
#520000
b111 !
b101 !
b100 !
0;
0<
1=
11
02
03
1E
1B
0@
0'
1%
1"
#530000
b101 !
1;
13
0E
1D
0B
0%
1#
0"
#540000
b111 !
b110 !
0;
1<
12
03
0A
0&
#550000
b111 !
1;
13
0?
0D
1B
1A
1@
1'
1&
1%
0#
1(
#560000
b1111 !
b1011 !
b1001 !
b1000 !
0;
0<
0=
1>
10
01
02
03
1?
0B
0A
0@
0'
0&
0%
0(
#570000
b1001 !
1;
13
1A
1&
#580000
b1011 !
b1010 !
0;
1<
12
03
0?
1F
0A
0&
1.
1-
1,
1)
1(
#590000
b1011 !
1;
13
1E
1B
1A
1@
1'
1&
1%
1"
#600000
b1111 !
b1101 !
b1100 !
0;
0<
1=
11
02
03
1?
0E
1C
0B
0A
0&
0%
1$
0"
0(
#610000
b1101 !
1;
13
0C
1A
1&
0$
#620000
b1111 !
b1110 !
0;
1<
12
03
1E
1B
0@
0'
1%
1"
#630000
b1111 !
1;
13
0E
1D
0B
0%
1#
0"
#640000
b111 !
b11 !
b1 !
b0 !
0;
0<
0=
0>
00
01
02
03
0?
0F
0D
0A
0&
0#
0.
0-
0,
0)
1(
#650000
b1 !
1;
13
1E
1B
1A
1@
1'
1&
1%
1"
#660000
b11 !
b10 !
0;
1<
12
03
1?
0E
1C
0B
0A
0&
0%
1$
0"
0(
#670000
b11 !
1;
13
0C
1A
1&
0$
#680000
b111 !
b101 !
b100 !
0;
0<
1=
11
02
03
1E
1B
0@
0'
1%
1"
#690000
b101 !
1;
13
0E
1D
0B
0%
1#
0"
#700000
b111 !
b110 !
0;
1<
12
03
0A
0&
#710000
b111 !
1;
13
0?
0D
1B
1A
1@
1'
1&
1%
0#
1(
#720000
b1111 !
b1011 !
b1001 !
b1000 !
0;
0<
0=
1>
10
01
02
03
1?
0B
0A
0@
0'
0&
0%
0(
#730000
b1001 !
1;
13
1A
1&
#740000
b1011 !
b1010 !
0;
1<
12
03
0?
1F
0A
0&
1.
1-
1,
1)
1(
#750000
b1011 !
1;
13
1E
1B
1A
1@
1'
1&
1%
1"
#760000
b1111 !
b1101 !
b1100 !
0;
0<
1=
11
02
03
1?
0E
1C
0B
0A
0&
0%
1$
0"
0(
#770000
b1101 !
1;
13
0C
1A
1&
0$
#780000
b1111 !
b1110 !
0;
1<
12
03
1E
1B
0@
0'
1%
1"
#790000
b1111 !
1;
13
0E
1D
0B
0%
1#
0"
#800000
b111 !
b11 !
b1 !
b0 !
0;
0<
0=
0>
00
01
02
03
0?
0F
0D
0A
0&
0#
0.
0-
0,
0)
1(
#810000
b1 !
1;
13
1E
1B
1A
1@
1'
1&
1%
1"
#820000
b11 !
b10 !
0;
1<
12
03
1?
0E
1C
0B
0A
0&
0%
1$
0"
0(
#830000
b11 !
1;
13
0C
1A
1&
0$
#840000
b111 !
b101 !
b100 !
0;
0<
1=
11
02
03
1E
1B
0@
0'
1%
1"
#850000
b101 !
1;
13
0E
1D
0B
0%
1#
0"
#860000
b111 !
b110 !
0;
1<
12
03
0A
0&
#870000
b111 !
1;
13
0?
0D
1B
1A
1@
1'
1&
1%
0#
1(
#880000
b1111 !
b1011 !
b1001 !
b1000 !
0;
0<
0=
1>
10
01
02
03
1?
0B
0A
0@
0'
0&
0%
0(
#890000
b1001 !
1;
13
1A
1&
#900000
b1011 !
b1010 !
0;
1<
12
03
0?
1F
0A
0&
1.
1-
1,
1)
1(
#910000
b1011 !
1;
13
1E
1B
1A
1@
1'
1&
1%
1"
#920000
b1111 !
b1101 !
b1100 !
0;
0<
1=
11
02
03
1?
0E
1C
0B
0A
0&
0%
1$
0"
0(
#930000
b1101 !
1;
13
0C
1A
1&
0$
#940000
b1111 !
b1110 !
0;
1<
12
03
1E
1B
0@
0'
1%
1"
#950000
b1111 !
1;
13
0E
1D
0B
0%
1#
0"
#960000
b111 !
b11 !
b1 !
b0 !
0;
0<
0=
0>
00
01
02
03
0?
0F
0D
0A
0&
0#
0.
0-
0,
0)
1(
#970000
b1 !
1;
13
1E
1B
1A
1@
1'
1&
1%
1"
#980000
b11 !
b10 !
0;
1<
12
03
1?
0E
1C
0B
0A
0&
0%
1$
0"
0(
#990000
b11 !
1;
13
0C
1A
1&
0$
