ps2/moje6/simulation/qsim/mux_4_1_1_bit.msim.vcd
$comment
	File created using the following command:
		vcd file mux_4_1_1_bit.msim.vcd -direction
$end
$date
	Thu Mar 07 08:47:42 2019
$end
$version
	ModelSim Version 10.5b
$end
$timescale
	1ps
$end

$scope module mux_4_1_1_bit_vlg_vec_tst $end
$var reg 1 ! S0 $end
$var reg 1 " S1 $end
$var reg 1 # u $end
$var reg 1 $ v $end
$var reg 1 % w $end
$var reg 1 & x $end
$var wire 1 ' m $end

$scope module i1 $end
$var wire 1 ( gnd $end
$var wire 1 ) vcc $end
$var wire 1 * unknown $end
$var tri1 1 + devclrn $end
$var tri1 1 , devpor $end
$var tri1 1 - devoe $end
$var wire 1 . ~QUARTUS_CREATED_GND~I_combout $end
$var wire 1 / S1~input_o $end
$var wire 1 0 u~input_o $end
$var wire 1 1 w~input_o $end
$var wire 1 2 x~input_o $end
$var wire 1 3 v~input_o $end
$var wire 1 4 S0~input_o $end
$var wire 1 5 m~0_combout $end
$upscope $end
$upscope $end
$enddefinitions $end
#0
$dumpvars
0!
0"
0#
0$
0%
0&
0'
0(
1)
x*
1+
1,
1-
0.
0/
00
01
02
03
04
05
$end
#5000
1!
14
#10000
1"
0!
1/
04
#15000
1!
14
#20000
1#
0"
0!
10
0/
04
15
1'
#25000
1!
14
05
0'
#30000
1"
0!
1/
04
#35000
1!
14
#40000
1$
0#
0"
0!
13
00
0/
04
#45000
1!
14
15
1'
#50000
1"
0!
1/
04
05
0'
#55000
1!
14
#60000
1#
0"
0!
10
0/
04
15
1'
#65000
1!
14
#70000
1"
0!
1/
04
05
0'
#75000
1!
14
#80000
1%
0$
0#
0"
0!
11
03
00
0/
04
#85000
1!
14
#90000
1"
0!
1/
04
15
1'
#95000
1!
14
05
0'
#100000
1#
0"
0!
10
0/
04
15
1'
#105000
1!
14
05
0'
#110000
1"
0!
1/
04
15
1'
#115000
1!
14
05
0'
#120000
1$
0#
0"
0!
13
00
0/
04
#125000
1!
14
15
1'
#130000
1"
0!
1/
04
#135000
1!
14
05
0'
#140000
1#
0"
0!
10
0/
04
15
1'
#145000
1!
14
#150000
1"
0!
1/
04
#155000
1!
14
05
0'
#160000
1&
0%
0$
0#
0"
0!
12
01
03
00
0/
04
#165000
1!
14
#170000
1"
0!
1/
04
#175000
1!
14
15
1'
#180000
1#
0"
0!
10
0/
04
#185000
1!
14
05
0'
#190000
1"
0!
1/
04
#195000
1!
14
15
1'
#200000
1$
0#
0"
0!
13
00
0/
04
05
0'
#205000
1!
14
15
1'
#210000
1"
0!
1/
04
05
0'
#215000
1!
14
15
1'
#220000
1#
0"
0!
10
0/
04
#225000
1!
14
#230000
1"
0!
1/
04
05
0'
#235000
1!
14
15
1'
#240000
1%
0$
0#
0"
0!
11
03
00
0/
04
05
0'
#245000
1!
14
#250000
1"
0!
1/
04
15
1'
#255000
1!
14
#260000
1#
0"
0!
10
0/
04
#265000
1!
14
05
0'
#270000
1"
0!
1/
04
15
1'
#275000
1!
14
#280000
1$
0#
0"
0!
13
00
0/
04
05
0'
#285000
1!
14
15
1'
#290000
1"
0!
1/
04
#295000
1!
14
#300000
1#
0"
0!
10
0/
04
#305000
1!
14
#310000
1"
0!
1/
04
#315000
1!
14
