ps3/zad5/simulation/qsim/zad5.msim.vcd
$comment
	File created using the following command:
		vcd file zad5.msim.vcd -direction
$end
$date
	Thu Mar 21 12:47:13 2019
$end
$version
	ModelSim Version 10.5b
$end
$timescale
	1ps
$end

$scope module zad5_vlg_vec_tst $end
$var reg 9 ! SW [8:0] $end
$var wire 1 " HEX0 [0] $end
$var wire 1 # HEX0 [1] $end
$var wire 1 $ HEX0 [2] $end
$var wire 1 % HEX0 [3] $end
$var wire 1 & HEX0 [4] $end
$var wire 1 ' HEX0 [5] $end
$var wire 1 ( HEX0 [6] $end
$var wire 1 ) HEX1 [0] $end
$var wire 1 * HEX1 [1] $end
$var wire 1 + HEX1 [2] $end
$var wire 1 , HEX1 [3] $end
$var wire 1 - HEX1 [4] $end
$var wire 1 . HEX1 [5] $end
$var wire 1 / HEX1 [6] $end
$var wire 1 0 HEX3 [0] $end
$var wire 1 1 HEX3 [1] $end
$var wire 1 2 HEX3 [2] $end
$var wire 1 3 HEX3 [3] $end
$var wire 1 4 HEX3 [4] $end
$var wire 1 5 HEX3 [5] $end
$var wire 1 6 HEX3 [6] $end
$var wire 1 7 HEX5 [0] $end
$var wire 1 8 HEX5 [1] $end
$var wire 1 9 HEX5 [2] $end
$var wire 1 : HEX5 [3] $end
$var wire 1 ; HEX5 [4] $end
$var wire 1 < HEX5 [5] $end
$var wire 1 = HEX5 [6] $end
$var wire 1 > LEDR [9] $end
$var wire 1 ? LEDR [8] $end
$var wire 1 @ LEDR [7] $end
$var wire 1 A LEDR [6] $end
$var wire 1 B LEDR [5] $end
$var wire 1 C LEDR [4] $end
$var wire 1 D LEDR [3] $end
$var wire 1 E LEDR [2] $end
$var wire 1 F LEDR [1] $end
$var wire 1 G LEDR [0] $end

$scope module i1 $end
$var wire 1 H gnd $end
$var wire 1 I vcc $end
$var wire 1 J unknown $end
$var tri1 1 K devclrn $end
$var tri1 1 L devpor $end
$var tri1 1 M devoe $end
$var wire 1 N ~QUARTUS_CREATED_GND~I_combout $end
$var wire 1 O SW[1]~input_o $end
$var wire 1 P SW[5]~input_o $end
$var wire 1 Q SW[0]~input_o $end
$var wire 1 R SW[4]~input_o $end
$var wire 1 S SW[8]~input_o $end
$var wire 1 T Add0~18_cout $end
$var wire 1 U Add0~2 $end
$var wire 1 V Add0~5_sumout $end
$var wire 1 W Add0~1_sumout $end
$var wire 1 X SW[2]~input_o $end
$var wire 1 Y SW[6]~input_o $end
$var wire 1 Z Add0~6 $end
$var wire 1 [ Add0~9_sumout $end
$var wire 1 \ SW[3]~input_o $end
$var wire 1 ] SW[7]~input_o $end
$var wire 1 ^ Add0~10 $end
$var wire 1 _ Add0~13_sumout $end
$var wire 1 ` comb_14|WideOr6~0_combout $end
$var wire 1 a comb_14|WideOr5~0_combout $end
$var wire 1 b comb_14|WideOr4~0_combout $end
$var wire 1 c comb_14|WideOr3~0_combout $end
$var wire 1 d comb_14|WideOr2~0_combout $end
$var wire 1 e comb_14|WideOr1~0_combout $end
$var wire 1 f comb_14|WideOr0~0_combout $end
$var wire 1 g LessThan0~0_combout $end
$var wire 1 h comb_17|WideOr6~0_combout $end
$var wire 1 i comb_17|WideOr5~0_combout $end
$var wire 1 j comb_17|WideOr4~0_combout $end
$var wire 1 k comb_17|WideOr3~0_combout $end
$var wire 1 l comb_17|WideOr2~0_combout $end
$var wire 1 m comb_17|WideOr1~0_combout $end
$var wire 1 n comb_17|WideOr0~0_combout $end
$var wire 1 o comb_16|WideOr6~0_combout $end
$var wire 1 p comb_16|WideOr5~0_combout $end
$var wire 1 q comb_16|WideOr4~0_combout $end
$var wire 1 r comb_16|WideOr3~0_combout $end
$var wire 1 s comb_16|WideOr2~0_combout $end
$var wire 1 t comb_16|WideOr1~0_combout $end
$var wire 1 u comb_16|WideOr0~0_combout $end
$upscope $end
$upscope $end
$enddefinitions $end
#0
$dumpvars
b0 !
1(
0'
0&
0%
0$
0#
0"
1/
0.
0-
0,
0+
0*
0)
16
05
04
03
02
01
00
1=
0<
0;
0:
09
08
07
0G
0F
0E
0D
0C
0B
0A
0@
0?
0>
0H
1I
xJ
1K
1L
1M
0N
0O
0P
0Q
0R
0S
0T
0U
0V
0W
0X
0Y
0Z
0[
0\
0]
0^
0_
0`
0a
0b
0c
0d
0e
0f
0g
0h
0i
0j
0k
0l
0m
0n
0o
0p
0q
0r
0s
0t
0u
$end
#5000
b1 !
1Q
1W
1n
1k
1j
1i
15
14
13
10
1f
1c
1b
1a
1'
1&
1%
1"
#10000
b11 !
b10 !
0Q
1O
1h
1V
0W
0n
1l
0k
0j
04
03
12
00
06
1`
0f
1d
0c
0b
0&
0%
1$
0"
0(
#15000
b11 !
1Q
1W
0l
1j
14
02
0d
1b
1&
0$
#20000
b111 !
b101 !
b100 !
0Q
0O
1X
1[
0V
0W
1n
1k
0i
05
13
10
1f
1c
0a
0'
1%
1"
#25000
b101 !
1Q
1W
0n
1m
0k
03
11
00
0f
1e
0c
0%
1#
0"
#30000
b111 !
b110 !
0Q
1O
1V
0W
0j
04
0b
0&
#35000
b111 !
1Q
0h
1W
0m
1k
1j
1i
15
14
13
01
16
0`
0e
1c
1b
1a
1'
1&
1%
0#
1(
#40000
b1111 !
b1011 !
b1001 !
b1000 !
0Q
0O
0X
1\
1h
1_
0[
0V
0W
0k
0j
0i
05
04
03
06
1`
0c
0b
0a
0'
0&
0%
0(
#45000
b1001 !
1Q
1W
1j
14
1b
1&
#50000
b1011 !
b1010 !
0Q
1O
0h
1V
0W
1n
1m
1l
1k
1i
15
13
12
11
10
16
0`
1f
1e
1d
1c
1a
1g
1.
1-
1,
1)
1'
1%
1$
1#
1"
1(
#55000
b1011 !
1Q
1W
#60000
b1111 !
b1101 !
b1100 !
0Q
0O
1X
1[
0V
0W
#65000
b1101 !
1Q
1W
#70000
b1111 !
b1110 !
0Q
1O
1V
0W
#75000
b1111 !
1Q
1W
#80000
b11111 !
b10111 !
b10011 !
b10001 !
b10000 !
0Q
0O
0X
0\
1R
0_
0[
0V
1u
1r
1q
1p
0n
0m
0l
0k
0j
0i
05
04
03
02
01
00
1<
1;
1:
17
0g
0e
0d
0$
0#
0.
0-
0,
0)
#85000
b10001 !
1Q
1U
0W
1n
1k
1j
1i
15
14
13
10
1V
0f
0c
0b
0a
0'
0&
0%
0"
1`
1d
1a
1'
1$
0(
#90000
b10011 !
b10010 !
0Q
1O
1h
1Z
0V
0U
1W
0n
1l
0k
0j
04
03
12
00
06
1[
0Z
1V
0`
1f
0d
1c
1b
1&
1%
0$
1"
1(
0[
0f
0"
1`
0c
0%
0(
#95000
b10011 !
1Q
1U
0W
0l
1j
14
02
1Z
0V
1d
0b
0&
1$
1[
0`
0d
0a
0'
0$
1(
1`
1f
1c
1b
1&
1%
1"
0(
#100000
b10111 !
b10101 !
b10100 !
0Q
0O
1X
1^
0[
0Z
1V
0U
1W
1n
1k
0i
05
13
10
1_
0^
1[
0V
0f
0c
1a
1'
0%
0"
0_
0`
1g
1f
1e
1d
1c
1%
1$
1#
1"
1.
1-
1,
1)
1(
1`
0g
0f
0d
0c
0a
0'
0%
0$
0"
0.
0-
0,
0)
0(
#105000
b10101 !
1Q
1U
0W
0n
1m
0k
03
11
00
1V
1f
0e
1c
1%
0#
1"
0f
1e
0c
0b
0&
0%
1#
0"
#110000
b10111 !
b10110 !
0Q
1O
1Z
0V
0U
1W
0j
04
1^
0[
0Z
1V
1b
1&
1_
0^
1[
0e
1a
1'
0#
0_
0`
1g
1f
1e
1d
1c
1%
1$
1#
1"
1.
1-
1,
1)
1(
0g
0f
0e
0d
0$
0#
0"
0.
0-
0,
0)
#115000
b10111 !
1Q
0h
1U
0W
0m
1k
1j
1i
15
14
13
01
16
1Z
0V
1`
1e
0c
0b
0a
0'
0&
0%
1#
0(
1^
0[
1f
0e
1c
1b
1&
1%
0#
1"
1_
0`
0f
0c
0b
0&
0%
0"
1(
1`
0(
#120000
b11111 !
b11011 !
b11001 !
b11000 !
0Q
0O
0X
1\
1h
0_
0^
1[
0Z
1V
0U
1W
0k
0j
0i
05
04
03
06
1_
0[
0V
0`
1c
1b
1a
1'
1&
1%
1(
1`
0c
0a
0'
0%
0(
#125000
b11001 !
1Q
1U
0W
1j
14
1V
0b
0&
0`
1g
1f
1e
1d
1c
1b
1a
1'
1&
1%
1$
1#
1"
1.
1-
1,
1)
1(
#130000
b11011 !
b11010 !
0Q
1O
0h
1Z
0V
0U
1W
1n
1m
1l
1k
1i
15
13
12
11
10
16
1[
0Z
1V
1`
0f
0e
0d
0c
0a
0g
0.
0-
0,
0)
0'
0%
0$
0#
0"
0(
0[
0`
1g
1f
1e
1d
1c
1a
1'
1%
1$
1#
1"
1.
1-
1,
1)
1(
#135000
b11011 !
1Q
1U
0W
1Z
0V
1[
1`
0g
0f
0e
0d
0c
0b
0a
0'
0&
0%
0$
0#
0"
0.
0-
0,
0)
0(
0`
1g
1f
1e
1d
1c
1b
1a
1'
1&
1%
1$
1#
1"
1.
1-
1,
1)
1(
#140000
b11111 !
b11101 !
b11100 !
0Q
0O
1X
1^
0[
0Z
1V
0U
1W
0_
0^
1[
0V
1_
1`
0g
0f
0d
0c
0a
0'
0%
0$
0"
0.
0-
0,
0)
0(
0`
1g
1f
1d
1c
1a
1'
1%
1$
1"
1.
1-
1,
1)
1(
#145000
b11101 !
1Q
1U
0W
1V
#150000
b11111 !
b11110 !
0Q
1O
1Z
0V
0U
1W
1^
0[
0Z
1V
0_
0^
1[
1_
0g
0f
0e
0d
0$
0#
0"
0.
0-
0,
0)
1g
1f
1e
1d
1$
1#
1"
1.
1-
1,
1)
#155000
b11111 !
1Q
1U
0W
1Z
0V
1^
0[
0_
1`
0g
0f
0e
0d
0c
0b
0a
0'
0&
0%
0$
0#
0"
0.
0-
0,
0)
0(
0`
1(
#160000
b111111 !
b101111 !
b100111 !
b100011 !
b100001 !
b100000 !
0Q
0O
0X
0\
0R
1P
1o
0U
1_
0^
1[
0u
1s
0r
0q
0n
0m
0l
0k
0j
0i
05
04
03
02
01
00
0;
0:
19
07
0=
0Z
1V
0_
1g
1f
1e
1d
1c
1b
1a
1'
1&
1%
1$
1#
1"
1.
1-
1,
1)
0[
1`
0g
0f
0d
0c
0b
0a
0'
0&
0%
0$
0"
0.
0-
0,
0)
0(
0e
1d
1a
1'
1$
0#
#165000
b100001 !
1Q
1W
1n
1k
1j
1i
15
14
13
10
0d
1b
1&
0$
#170000
b100011 !
b100010 !
0Q
1O
1h
1Z
0V
0W
0n
1l
0k
0j
04
03
12
00
06
1[
0`
0b
0a
0'
0&
1(
1`
1f
1c
1b
1&
1%
1"
0(
#175000
b100011 !
1Q
1W
0l
1j
14
02
0f
1e
0c
0%
1#
0"
#180000
b100111 !
b100101 !
b100100 !
0Q
0O
1X
1^
0[
0Z
1V
0W
1n
1k
0i
05
13
10
1_
0^
1[
0e
1d
0b
1a
1'
0&
1$
0#
0_
0`
1g
1f
1e
1c
1b
1&
1%
1#
1"
1.
1-
1,
1)
1(
1`
0g
0f
0d
0c
0b
0a
0'
0&
0%
0$
0"
0.
0-
0,
0)
0(
#185000
b100101 !
1Q
1W
0n
1m
0k
03
11
00
0`
0e
1c
1b
1a
1'
1&
1%
0#
1(
#190000
b100111 !
b100110 !
0Q
1O
1Z
0V
0W
0j
04
1^
0[
1`
1f
0a
0'
1"
0(
1_
0`
0f
0c
0b
0&
0%
0"
1(
1`
0(
#195000
b100111 !
1Q
0h
1W
0m
1k
1j
1i
15
14
13
01
16
1b
1&
#200000
b101111 !
b101011 !
b101001 !
b101000 !
0Q
0O
0X
1\
1h
0_
0^
1[
0Z
1V
0W
0k
0j
0i
05
04
03
06
1_
0[
1e
0b
0&
1#
0`
1g
1f
1d
1c
1b
1a
1'
1&
1%
1$
1"
1.
1-
1,
1)
1(
#205000
b101001 !
1Q
1W
1j
14
#210000
b101011 !
b101010 !
0Q
1O
0h
1Z
0V
0W
1n
1m
1l
1k
1i
15
13
12
11
10
16
1[
1`
0f
0e
0d
0c
0b
0a
0g
0.
0-
0,
0)
0'
0&
0%
0$
0#
0"
0(
0`
1g
1f
1e
1d
1c
1b
1a
1'
1&
1%
1$
1#
1"
1.
1-
1,
1)
1(
#215000
b101011 !
1Q
1W
#220000
b101111 !
b101101 !
b101100 !
0Q
0O
1X
1^
0[
0Z
1V
0W
0_
0^
1[
1_
1`
0g
0f
0d
0c
0b
0a
0'
0&
0%
0$
0"
0.
0-
0,
0)
0(
0`
1g
1f
1d
1c
1b
1a
1'
1&
1%
1$
1"
1.
1-
1,
1)
1(
#225000
b101101 !
1Q
1W
#230000
b101111 !
b101110 !
0Q
1O
1Z
0V
0W
1^
0[
0_
1`
0g
0f
0e
0d
0c
0b
0a
0'
0&
0%
0$
0#
0"
0.
0-
0,
0)
0(
0`
1(
#235000
b101111 !
1Q
1W
1f
1c
1b
1a
1'
1&
1%
1"
#240000
b111111 !
b110111 !
b110011 !
b110001 !
b110000 !
0Q
0O
0X
0\
1R
1_
0^
1[
0Z
1V
0s
1q
0n
0m
0l
0k
0j
0i
05
04
03
02
01
00
1;
09
0_
0[
1g
1e
1d
1$
1#
1.
1-
1,
1)
1`
0g
0f
0e
0d
0c
0%
0$
0#
0"
0.
0-
0,
0)
0(
#245000
b110001 !
1Q
1U
0W
1n
1k
1j
1i
15
14
13
10
1Z
0V
1d
0b
0&
1$
1[
0`
0d
0a
0'
0$
1(
1`
1f
1c
1b
1&
1%
1"
0(
#250000
b110011 !
b110010 !
0Q
1O
1h
1V
0U
1W
0n
1l
0k
0j
04
03
12
00
06
0V
0`
0f
1a
1'
0"
1(
1`
1e
0c
0a
0'
0%
1#
0(
#255000
b110011 !
1Q
1U
0W
0l
1j
14
02
1V
1f
0e
1c
1%
0#
1"
0f
1e
0c
0b
0&
0%
1#
0"
#260000
b110111 !
b110101 !
b110100 !
0Q
0O
1X
1^
0[
0V
0U
1W
1n
1k
0i
05
13
10
1_
0Z
1V
0`
1f
0e
1c
1b
1a
1'
1&
1%
0#
1"
1(
0^
1[
1g
1e
1d
1$
1#
1.
1-
1,
1)
0_
0g
0f
0e
0d
0$
0#
0"
0.
0-
0,
0)
#265000
b110101 !
1Q
1U
0W
0n
1m
0k
03
11
00
1Z
0V
1`
1e
0c
0b
0a
0'
0&
0%
1#
0(
1^
0[
1f
0e
1c
1b
1&
1%
0#
1"
1_
0`
0f
0c
0b
0&
0%
0"
1(
1`
0(
#270000
b110111 !
b110110 !
0Q
1O
1V
0U
1W
0j
04
0V
0`
1f
1e
1d
1c
1b
1a
1g
1.
1-
1,
1)
1'
1&
1%
1$
1#
1"
1(
1`
0g
0f
0e
0d
0c
0a
0'
0%
0$
0#
0"
0.
0-
0,
0)
0(
#275000
b110111 !
1Q
0h
1U
0W
0m
1k
1j
1i
15
14
13
01
16
1V
0b
0&
0`
1g
1f
1e
1d
1c
1b
1a
1'
1&
1%
1$
1#
1"
1.
1-
1,
1)
1(
#280000
b111111 !
b111011 !
b111001 !
b111000 !
0Q
0O
0X
1\
1h
0_
0^
1[
0V
0U
1W
0k
0j
0i
05
04
03
06
1_
0Z
1V
1`
0f
0d
0c
0a
0g
0.
0-
0,
0)
0'
0%
0$
0"
0(
0[
0`
1g
1f
1d
1c
1a
1'
1%
1$
1"
1.
1-
1,
1)
1(
#285000
b111001 !
1Q
1U
0W
1j
14
1Z
0V
1[
1`
0g
0f
0e
0d
0c
0b
0a
0'
0&
0%
0$
0#
0"
0.
0-
0,
0)
0(
0`
1g
1f
1e
1d
1c
1b
1a
1'
1&
1%
1$
1#
1"
1.
1-
1,
1)
1(
#290000
b111011 !
b111010 !
0Q
1O
0h
1V
0U
1W
1n
1m
1l
1k
1i
15
13
12
11
10
16
0V
#295000
b111011 !
1Q
1U
0W
1V
#300000
b111111 !
b111101 !
b111100 !
0Q
0O
1X
1^
0[
0V
0U
1W
0_
0Z
1V
1`
0f
0e
0d
0c
0a
0g
0.
0-
0,
0)
0'
0%
0$
0#
0"
0(
0^
1[
1a
1'
1_
0`
1c
1%
1(
1g
1f
1e
1d
1$
1#
1"
1.
1-
1,
1)
#305000
b111101 !
1Q
1U
0W
1Z
0V
1^
0[
0_
1`
0g
0f
0e
0d
0c
0b
0a
0'
0&
0%
0$
0#
0"
0.
0-
0,
0)
0(
0`
1(
#310000
b111111 !
b111110 !
0Q
1O
1V
0U
1W
0V
1`
1b
1a
1'
1&
0(
0`
1f
1c
1%
1"
1(
#315000
b111111 !
1Q
1U
0W
1V
0f
0c
0b
0a
0'
0&
0%
0"
1`
1d
1a
1'
1$
0(
#320000
b1111111 !
b1011111 !
b1001111 !
b1000111 !
b1000011 !
b1000001 !
b1000000 !
0Q
0O
0X
0\
0R
0P
1Y
0Z
0U
1_
1u
1r
0p
0n
0m
0l
0k
0j
0i
05
04
03
02
01
00
0<
1:
17
0^
1[
0V
0`
1g
1f
1e
1c
1b
1&
1%
1#
1"
1.
1-
1,
1)
1(
0_
1`
0g
0e
0d
0a
0'
0$
0#
0.
0-
0,
0)
0(
#325000
b1000001 !
1Q
1W
1n
1k
1j
1i
15
14
13
10
0f
1e
0c
0%
1#
0"
#330000
b1000011 !
b1000010 !
0Q
1O
1h
1V
0W
0n
1l
0k
0j
04
03
12
00
06
0b
0&
#335000
b1000011 !
1Q
1W
0l
1j
14
02
0`
0e
1c
1b
1a
1'
1&
1%
0#
1(
#340000
b1000111 !
b1000101 !
b1000100 !
0Q
0O
1X
1^
0[
0V
0W
1n
1k
0i
05
13
10
1_
0c
0b
0a
0'
0&
0%
1`
0(
#345000
b1000101 !
1Q
1W
0n
1m
0k
03
11
00
1b
1&
#350000
b1000111 !
b1000110 !
0Q
1O
1V
0W
0j
04
0`
1f
1e
1d
1c
1a
1g
1.
1-
1,
1)
1'
1%
1$
1#
1"
1(
#355000
b1000111 !
1Q
0h
1W
0m
1k
1j
1i
15
14
13
01
16
#360000
b1001111 !
b1001011 !
b1001001 !
b1001000 !
0Q
0O
0X
1\
1h
0_
0^
1[
0V
0W
0k
0j
0i
05
04
03
06
1_
1`
0e
0d
0a
0g
0.
0-
0,
0)
0'
0$
0#
0(
0`
1g
1e
1d
1a
1'
1$
1#
1.
1-
1,
1)
1(
#365000
b1001001 !
1Q
1W
1j
14
#370000
b1001011 !
b1001010 !
0Q
1O
0h
1V
0W
1n
1m
1l
1k
1i
15
13
12
11
10
16
#375000
b1001011 !
1Q
1W
#380000
b1001111 !
b1001101 !
b1001100 !
0Q
0O
1X
1^
0[
0V
0W
0_
1`
0f
0e
0d
0c
0b
0a
0g
0.
0-
0,
0)
0'
0&
0%
0$
0#
0"
0(
0`
1(
#385000
b1001101 !
1Q
1W
1f
1c
1b
1a
1'
1&
1%
1"
#390000
b1001111 !
b1001110 !
0Q
1O
1V
0W
1`
0f
1d
0c
0b
0&
0%
1$
0"
0(
#395000
b1001111 !
1Q
1W
0d
1b
1&
0$
#400000
b1011111 !
b1010111 !
b1010011 !
b1010001 !
b1010000 !
0Q
0O
0X
0\
1R
1_
0^
1[
0V
0u
1t
0r
0n
0m
0l
0k
0j
0i
05
04
03
02
01
00
0:
18
07
0_
0`
1g
1f
1e
1d
1c
1%
1$
1#
1"
1.
1-
1,
1)
1(
1`
0g
0f
0d
0c
0a
0'
0%
0$
0"
0.
0-
0,
0)
0(
#405000
b1010001 !
1Q
1U
0W
1n
1k
1j
1i
15
14
13
10
1V
1f
0e
1c
1%
0#
1"
0f
1e
0c
0b
0&
0%
1#
0"
#410000
b1010011 !
b1010010 !
0Q
1O
1h
1Z
0V
0U
1W
0n
1l
0k
0j
04
03
12
00
06
1^
0[
0Z
1V
1b
1&
1_
0^
1[
0e
1a
1'
0#
0_
0`
1g
1f
1e
1d
1c
1%
1$
1#
1"
1.
1-
1,
1)
1(
0g
0f
0e
0d
0$
0#
0"
0.
0-
0,
0)
#415000
b1010011 !
1Q
1U
0W
0l
1j
14
02
1Z
0V
1`
1e
0c
0b
0a
0'
0&
0%
1#
0(
1^
0[
1f
0e
1c
1b
1&
1%
0#
1"
1_
0`
0f
0c
0b
0&
0%
0"
1(
1`
0(
#420000
b1010111 !
b1010101 !
b1010100 !
0Q
0O
1X
1[
0Z
1V
0U
1W
1n
1k
0i
05
13
10
0[
0V
0`
1f
1e
1d
1c
1b
1a
1g
1.
1-
1,
1)
1'
1&
1%
1$
1#
1"
1(
1`
0g
0f
0e
0d
0c
0a
0'
0%
0$
0#
0"
0.
0-
0,
0)
0(
#425000
b1010101 !
1Q
1U
0W
0n
1m
0k
03
11
00
1V
0b
0&
0`
1g
1f
1e
1d
1c
1b
1a
1'
1&
1%
1$
1#
1"
1.
1-
1,
1)
1(
#430000
b1010111 !
b1010110 !
0Q
1O
1Z
0V
0U
1W
0j
04
1[
0Z
1V
1`
0f
0e
0d
0c
0a
0g
0.
0-
0,
0)
0'
0%
0$
0#
0"
0(
0[
0`
1g
1f
1e
1d
1c
1a
1'
1%
1$
1#
1"
1.
1-
1,
1)
1(
#435000
b1010111 !
1Q
0h
1U
0W
0m
1k
1j
1i
15
14
13
01
16
1Z
0V
1[
1`
0g
0f
0e
0d
0c
0b
0a
0'
0&
0%
0$
0#
0"
0.
0-
0,
0)
0(
0`
1g
1f
1e
1d
1c
1b
1a
1'
1&
1%
1$
1#
1"
1.
1-
1,
1)
1(
#440000
b1011111 !
b1011011 !
b1011001 !
b1011000 !
0Q
0O
0X
1\
1h
0_
0[
0Z
1V
0U
1W
0k
0j
0i
05
04
03
06
0^
1[
0V
1`
0f
0e
0d
0c
0g
0.
0-
0,
0)
0%
0$
0#
0"
0(
1_
1e
0a
0'
1#
0`
1g
1f
1d
1c
1a
1'
1%
1$
1"
1.
1-
1,
1)
1(
#445000
b1011001 !
1Q
1U
0W
1j
14
1V
#450000
b1011011 !
b1011010 !
0Q
1O
0h
1Z
0V
0U
1W
1n
1m
1l
1k
1i
15
13
12
11
10
16
1^
0[
0Z
1V
0_
0^
1[
1_
0g
0f
0e
0d
0$
0#
0"
0.
0-
0,
0)
1g
1f
1e
1d
1$
1#
1"
1.
1-
1,
1)
#455000
b1011011 !
1Q
1U
0W
1Z
0V
1^
0[
0_
1`
0g
0f
0e
0d
0c
0b
0a
0'
0&
0%
0$
0#
0"
0.
0-
0,
0)
0(
0`
1(
#460000
b1011111 !
b1011101 !
b1011100 !
0Q
0O
1X
1[
0Z
1V
0U
1W
0[
0V
1c
1b
1a
1'
1&
1%
1f
1"
#465000
b1011101 !
1Q
1U
0W
1V
0f
0c
0b
0a
0'
0&
0%
0"
1`
1d
1a
1'
1$
0(
#470000
b1011111 !
b1011110 !
0Q
1O
1Z
0V
0U
1W
1[
0Z
1V
0`
1f
0d
1c
1b
1&
1%
0$
1"
1(
0[
0f
0"
1`
0c
0%
0(
#475000
b1011111 !
1Q
1U
0W
1Z
0V
1d
0b
0&
1$
1[
0`
0d
0a
0'
0$
1(
1`
1f
1c
1b
1&
1%
1"
0(
#480000
b1111111 !
b1101111 !
b1100111 !
b1100011 !
b1100001 !
b1100000 !
0Q
0O
0X
0\
0R
1P
0U
1_
0[
0q
0n
0m
0l
0k
0j
0i
05
04
03
02
01
00
0;
0Z
1V
0f
0c
0b
0&
0%
0"
0^
1[
0`
1g
1f
1e
1d
1c
1b
1a
1'
1&
1%
1$
1#
1"
1.
1-
1,
1)
1(
0_
1`
0g
0f
0d
0c
0b
0a
0'
0&
0%
0$
0"
0.
0-
0,
0)
0(
#485000
b1100001 !
1Q
1W
1n
1k
1j
1i
15
14
13
10
0`
0e
1c
1b
1a
1'
1&
1%
0#
1(
#490000
b1100011 !
b1100010 !
0Q
1O
1h
1Z
0V
0W
0n
1l
0k
0j
04
03
12
00
06
1^
0[
1`
1f
0a
0'
1"
0(
1_
0`
0f
0c
0b
0&
0%
0"
1(
1`
0(
#495000
b1100011 !
1Q
1W
0l
1j
14
02
1b
1&
#500000
b1100111 !
b1100101 !
b1100100 !
0Q
0O
1X
1[
0Z
1V
0W
1n
1k
0i
05
13
10
0[
0`
1f
1e
1d
1c
1a
1g
1.
1-
1,
1)
1'
1%
1$
1#
1"
1(
#505000
b1100101 !
1Q
1W
0n
1m
0k
03
11
00
#510000
b1100111 !
b1100110 !
0Q
1O
1Z
0V
0W
0j
04
1[
1`
0f
0e
0d
0c
0b
0a
0g
0.
0-
0,
0)
0'
0&
0%
0$
0#
0"
0(
0`
1g
1f
1e
1d
1c
1b
1a
1'
1&
1%
1$
1#
1"
1.
1-
1,
1)
1(
#515000
b1100111 !
1Q
0h
1W
0m
1k
1j
1i
15
14
13
01
16
#520000
b1101111 !
b1101011 !
b1101001 !
b1101000 !
0Q
0O
0X
1\
1h
0_
0[
0Z
1V
0W
0k
0j
0i
05
04
03
06
0^
1[
1`
0f
0e
0c
0b
0g
0.
0-
0,
0)
0&
0%
0#
0"
0(
1_
1e
0d
0a
0'
0$
1#
0`
1g
1f
1d
1c
1b
1a
1'
1&
1%
1$
1"
1.
1-
1,
1)
1(
#525000
b1101001 !
1Q
1W
1j
14
#530000
b1101011 !
b1101010 !
0Q
1O
0h
1Z
0V
0W
1n
1m
1l
1k
1i
15
13
12
11
10
16
1^
0[
0_
1`
0g
0f
0e
0d
0c
0b
0a
0'
0&
0%
0$
0#
0"
0.
0-
0,
0)
0(
0`
1(
#535000
b1101011 !
1Q
1W
1f
1c
1b
1a
1'
1&
1%
1"
#540000
b1101111 !
b1101101 !
b1101100 !
0Q
0O
1X
1[
0Z
1V
0W
0[
1`
0f
1e
0c
0b
0a
0'
0&
0%
1#
0"
0(
0e
1d
1a
1'
1$
0#
#545000
b1101101 !
1Q
1W
0d
1b
1&
0$
#550000
b1101111 !
b1101110 !
0Q
1O
1Z
0V
0W
1[
0`
0b
0a
0'
0&
1(
1`
1f
1c
1b
1&
1%
1"
0(
#555000
b1101111 !
1Q
1W
0f
1e
0c
0%
1#
0"
#560000
b1111111 !
b1110111 !
b1110011 !
b1110001 !
b1110000 !
0Q
0O
0X
0\
1R
0o
1_
0[
0Z
1V
0t
1r
1q
1p
0n
0m
0l
0k
0j
0i
05
04
03
02
01
00
1<
1;
1:
08
1=
0^
1[
0`
1g
1f
1d
1c
1a
1'
1%
1$
1"
1.
1-
1,
1)
1(
0_
0g
0f
0e
0d
0$
0#
0"
0.
0-
0,
0)
#565000
b1110001 !
1Q
1U
0W
1n
1k
1j
1i
15
14
13
10
1Z
0V
1`
1e
0c
0b
0a
0'
0&
0%
1#
0(
1^
0[
1f
0e
1c
1b
1&
1%
0#
1"
1_
0`
0f
0c
0b
0&
0%
0"
1(
1`
0(
#570000
b1110011 !
b1110010 !
0Q
1O
1h
1V
0U
1W
0n
1l
0k
0j
04
03
12
00
06
0V
0`
1f
1e
1d
1c
1b
1a
1g
1.
1-
1,
1)
1'
1&
1%
1$
1#
1"
1(
1`
0g
0f
0e
0d
0c
0a
0'
0%
0$
0#
0"
0.
0-
0,
0)
0(
#575000
b1110011 !
1Q
1U
0W
0l
1j
14
02
1V
0b
0&
0`
1g
1f
1e
1d
1c
1b
1a
1'
1&
1%
1$
1#
1"
1.
1-
1,
1)
1(
#580000
b1110111 !
b1110101 !
b1110100 !
0Q
0O
1X
1[
0V
0U
1W
1n
1k
0i
05
13
10
0Z
1V
0[
#585000
b1110101 !
1Q
1U
0W
0n
1m
0k
03
11
00
1Z
0V
1[
1`
0g
0f
0e
0d
0c
0b
0a
0'
0&
0%
0$
0#
0"
0.
0-
0,
0)
0(
0`
1g
1f
1e
1d
1c
1b
1a
1'
1&
1%
1$
1#
1"
1.
1-
1,
1)
1(
#590000
b1110111 !
b1110110 !
0Q
1O
1V
0U
1W
0j
04
0V
#595000
b1110111 !
1Q
0h
1U
0W
0m
1k
1j
1i
15
14
13
01
16
1V
#600000
b1111111 !
b1111011 !
b1111001 !
b1111000 !
0Q
0O
0X
1\
1h
0_
0[
0V
0U
1W
0k
0j
0i
05
04
03
06
0Z
1V
0e
0d
0g
0.
0-
0,
0)
0$
0#
0^
1[
1`
0f
0c
0%
0"
0(
1_
0`
1c
1%
1(
1g
1f
1e
1d
1$
1#
1"
1.
1-
1,
1)
#605000
b1111001 !
1Q
1U
0W
1j
14
1Z
0V
1^
0[
0_
1`
0g
0f
0e
0d
0c
0b
0a
0'
0&
0%
0$
0#
0"
0.
0-
0,
0)
0(
0`
1(
#610000
b1111011 !
b1111010 !
0Q
1O
0h
1V
0U
1W
1n
1m
1l
1k
1i
15
13
12
11
10
16
0V
1`
1b
1a
1'
1&
0(
0`
1f
1c
1%
1"
1(
#615000
b1111011 !
1Q
1U
0W
1V
0f
0c
0b
0a
0'
0&
0%
0"
1`
1d
1a
1'
1$
0(
#620000
b1111111 !
b1111101 !
b1111100 !
0Q
0O
1X
1[
0V
0U
1W
0Z
1V
1e
0d
1b
0a
0'
1&
0$
1#
0[
0`
0e
1c
1a
1'
1%
0#
1(
1`
0c
0%
0(
#625000
b1111101 !
1Q
1U
0W
1Z
0V
1d
0b
0&
1$
1[
0`
0d
0a
0'
0$
1(
1`
1f
1c
1b
1&
1%
1"
0(
#630000
b1111111 !
b1111110 !
0Q
1O
1V
0U
1W
0V
0`
0f
1a
1'
0"
1(
1`
1e
0c
0a
0'
0%
1#
0(
#635000
b1111111 !
1Q
1U
0W
1V
1f
0e
1c
1%
0#
1"
0f
1e
0c
0b
0&
0%
1#
0"
#640000
b11111111 !
b10111111 !
b10011111 !
b10001111 !
b10000111 !
b10000011 !
b10000001 !
b10000000 !
0Q
0O
0X
0\
0R
0P
0Y
1]
1o
0^
0Z
0U
0r
0q
0p
0n
0m
0l
0k
0j
0i
05
04
03
02
01
00
0<
0;
0:
0=
1_
0[
0V
0e
0#
