ps4/adder_A_B_8_bits_board/simulation/qsim/adder_A_B_8_bits_board.msim.vcd
$comment
	File created using the following command:
		vcd file adder_A_B_8_bits_board.msim.vcd -direction
$end
$date
	Mon Mar 25 11:06:13 2019
$end
$version
	ModelSim Version 10.5b
$end
$timescale
	1ps
$end

$scope module adder_A_B_8_bits_board_vlg_vec_tst $end
$var reg 2 ! KEY [1:0] $end
$var reg 8 " SW [7:0] $end
$var wire 1 # HEX0 [0] $end
$var wire 1 $ HEX0 [1] $end
$var wire 1 % HEX0 [2] $end
$var wire 1 & HEX0 [3] $end
$var wire 1 ' HEX0 [4] $end
$var wire 1 ( HEX0 [5] $end
$var wire 1 ) HEX0 [6] $end
$var wire 1 * HEX1 [0] $end
$var wire 1 + HEX1 [1] $end
$var wire 1 , HEX1 [2] $end
$var wire 1 - HEX1 [3] $end
$var wire 1 . HEX1 [4] $end
$var wire 1 / HEX1 [5] $end
$var wire 1 0 HEX1 [6] $end
$var wire 1 1 HEX2 [0] $end
$var wire 1 2 HEX2 [1] $end
$var wire 1 3 HEX2 [2] $end
$var wire 1 4 HEX2 [3] $end
$var wire 1 5 HEX2 [4] $end
$var wire 1 6 HEX2 [5] $end
$var wire 1 7 HEX2 [6] $end
$var wire 1 8 HEX3 [0] $end
$var wire 1 9 HEX3 [1] $end
$var wire 1 : HEX3 [2] $end
$var wire 1 ; HEX3 [3] $end
$var wire 1 < HEX3 [4] $end
$var wire 1 = HEX3 [5] $end
$var wire 1 > HEX3 [6] $end
$var wire 1 ? HEX4 [0] $end
$var wire 1 @ HEX4 [1] $end
$var wire 1 A HEX4 [2] $end
$var wire 1 B HEX4 [3] $end
$var wire 1 C HEX4 [4] $end
$var wire 1 D HEX4 [5] $end
$var wire 1 E HEX4 [6] $end
$var wire 1 F HEX5 [0] $end
$var wire 1 G HEX5 [1] $end
$var wire 1 H HEX5 [2] $end
$var wire 1 I HEX5 [3] $end
$var wire 1 J HEX5 [4] $end
$var wire 1 K HEX5 [5] $end
$var wire 1 L HEX5 [6] $end
$var wire 1 M LEDR [0] $end

$scope module i1 $end
$var wire 1 N gnd $end
$var wire 1 O vcc $end
$var wire 1 P unknown $end
$var tri1 1 Q devclrn $end
$var tri1 1 R devpor $end
$var tri1 1 S devoe $end
$var wire 1 T ~QUARTUS_CREATED_GND~I_combout $end
$var wire 1 U SW[2]~input_o $end
$var wire 1 V KEY[0]~input_o $end
$var wire 1 W KEY[1]~input_o $end
$var wire 1 X SW[1]~input_o $end
$var wire 1 Y SW[0]~input_o $end
$var wire 1 Z ex6|Add0~2 $end
$var wire 1 [ ex6|Add0~6 $end
$var wire 1 \ ex6|Add0~9_sumout $end
$var wire 1 ] SW[3]~input_o $end
$var wire 1 ^ ex6|Add0~10 $end
$var wire 1 _ ex6|Add0~13_sumout $end
$var wire 1 ` ex6|Add0~1_sumout $end
$var wire 1 a ex6|Add0~5_sumout $end
$var wire 1 b ex6|ex1|WideOr6~0_combout $end
$var wire 1 c ex6|ex1|WideOr5~0_combout $end
$var wire 1 d ex6|ex1|WideOr4~0_combout $end
$var wire 1 e ex6|ex1|WideOr3~0_combout $end
$var wire 1 f ex6|ex1|WideOr2~0_combout $end
$var wire 1 g ex6|ex1|WideOr1~0_combout $end
$var wire 1 h ex6|ex1|WideOr0~0_combout $end
$var wire 1 i SW[5]~input_o $end
$var wire 1 j SW[4]~input_o $end
$var wire 1 k ex6|Add0~14 $end
$var wire 1 l ex6|Add0~18 $end
$var wire 1 m ex6|Add0~21_sumout $end
$var wire 1 n SW[6]~input_o $end
$var wire 1 o ex6|Add0~22 $end
$var wire 1 p ex6|Add0~25_sumout $end
$var wire 1 q SW[7]~input_o $end
$var wire 1 r ex6|Add0~26 $end
$var wire 1 s ex6|Add0~29_sumout $end
$var wire 1 t ex6|Add0~17_sumout $end
$var wire 1 u ex6|ex2|WideOr6~0_combout $end
$var wire 1 v ex6|ex2|WideOr5~0_combout $end
$var wire 1 w ex6|ex2|WideOr4~0_combout $end
$var wire 1 x ex6|ex2|WideOr3~0_combout $end
$var wire 1 y ex6|ex2|WideOr2~0_combout $end
$var wire 1 z ex6|ex2|WideOr1~0_combout $end
$var wire 1 { ex6|ex2|WideOr0~0_combout $end
$var wire 1 | ex2|WideOr6~0_combout $end
$var wire 1 } ex2|WideOr5~0_combout $end
$var wire 1 ~ ex2|WideOr4~0_combout $end
$var wire 1 !! ex2|WideOr3~0_combout $end
$var wire 1 "! ex2|WideOr2~0_combout $end
$var wire 1 #! ex2|WideOr1~0_combout $end
$var wire 1 $! ex2|WideOr0~0_combout $end
$var wire 1 %! ex3|WideOr6~0_combout $end
$var wire 1 &! ex3|WideOr5~0_combout $end
$var wire 1 '! ex3|WideOr4~0_combout $end
$var wire 1 (! ex3|WideOr3~0_combout $end
$var wire 1 )! ex3|WideOr2~0_combout $end
$var wire 1 *! ex3|WideOr1~0_combout $end
$var wire 1 +! ex3|WideOr0~0_combout $end
$var wire 1 ,! ex4|WideOr6~0_combout $end
$var wire 1 -! ex4|WideOr5~0_combout $end
$var wire 1 .! ex4|WideOr4~0_combout $end
$var wire 1 /! ex4|WideOr3~0_combout $end
$var wire 1 0! ex4|WideOr2~0_combout $end
$var wire 1 1! ex4|WideOr1~0_combout $end
$var wire 1 2! ex4|WideOr0~0_combout $end
$var wire 1 3! ex5|WideOr6~0_combout $end
$var wire 1 4! ex5|WideOr5~0_combout $end
$var wire 1 5! ex5|WideOr4~0_combout $end
$var wire 1 6! ex5|WideOr3~0_combout $end
$var wire 1 7! ex5|WideOr2~0_combout $end
$var wire 1 8! ex5|WideOr1~0_combout $end
$var wire 1 9! ex5|WideOr0~0_combout $end
$var wire 1 :! ex6|Add0~30 $end
$var wire 1 ;! ex6|Add0~33_sumout $end
$var wire 1 <! ex1|Q [7] $end
$var wire 1 =! ex1|Q [6] $end
$var wire 1 >! ex1|Q [5] $end
$var wire 1 ?! ex1|Q [4] $end
$var wire 1 @! ex1|Q [3] $end
$var wire 1 A! ex1|Q [2] $end
$var wire 1 B! ex1|Q [1] $end
$var wire 1 C! ex1|Q [0] $end
$upscope $end
$upscope $end
$enddefinitions $end
#0
$dumpvars
b0 !
b0 "
1)
0(
0'
0&
0%
0$
0#
10
0/
0.
0-
0,
0+
0*
17
06
05
04
03
02
01
1>
0=
0<
0;
0:
09
08
1E
0D
0C
0B
0A
0@
0?
1L
0K
0J
0I
0H
0G
0F
0M
0N
1O
xP
1Q
1R
1S
0T
0U
0V
0W
0X
0Y
0Z
0[
0\
0]
0^
0_
0`
0a
0b
0c
0d
0e
0f
0g
0h
0i
0j
0k
0l
0m
0n
0o
0p
0q
0r
0s
0t
0u
0v
0w
0x
0y
0z
0{
0|
0}
0~
0!!
0"!
0#!
0$!
0%!
0&!
0'!
0(!
0)!
0*!
0+!
0,!
0-!
0.!
0/!
00!
01!
02!
03!
04!
05!
06!
07!
08!
09!
0:!
0;!
0C!
0B!
0A!
0@!
0?!
0>!
0=!
0<!
$end
#10000
b1 "
1Y
1`
12!
1/!
1.!
1-!
1D
1C
1B
1?
1h
1e
1d
1c
1(
1'
1&
1#
#20000
b11 "
b10 "
0Y
1X
1,!
1a
0`
02!
10!
0/!
0.!
0C
0B
1A
0?
0E
1b
0h
1f
0e
0d
0'
0&
1%
0#
0)
#30000
b11 "
1Y
1`
00!
1.!
1C
0A
0f
1d
1'
0%
#40000
b111 "
b101 "
b100 "
0Y
0X
1U
1\
0a
0`
12!
1/!
0-!
0D
1B
1?
1h
1e
0c
0(
1&
1#
#50000
b101 "
1Y
1`
02!
11!
0/!
0B
1@
0?
0h
1g
0e
0&
1$
0#
#60000
b111 "
b110 "
0Y
1X
1a
0`
0.!
0C
0d
0'
#70000
b111 "
1Y
0,!
1`
01!
1/!
1.!
1-!
1D
1C
1B
0@
1E
0b
0g
1e
1d
1c
1(
1'
1&
0$
1)
#80000
b1111 "
b1011 "
b1001 "
b1000 "
0Y
0X
0U
1]
1,!
1_
0\
0a
0`
0/!
0.!
0-!
0D
0C
0B
0E
1b
0e
0d
0c
0(
0'
0&
0)
#90000
b1001 "
1Y
1`
1.!
1C
1d
1'
#100000
b1011 "
b1010 "
0Y
1X
1a
0`
1/!
0.!
0C
1B
1e
0d
0'
1&
#110000
b1011 "
1Y
1`
12!
11!
0/!
0B
1@
1?
1h
1g
0e
0&
1$
1#
#120000
b1111 "
b1101 "
b1100 "
0Y
0X
1U
0,!
1\
0a
0`
02!
10!
1A
0?
1E
0b
0h
1f
1%
0#
1)
#130000
b1101 "
1Y
1,!
1`
12!
01!
00!
1-!
1D
0A
0@
1?
0E
1b
1h
0g
0f
1c
1(
0%
0$
1#
0)
#140000
b1111 "
b1110 "
0Y
1X
1a
0`
02!
11!
10!
0-!
0D
1A
1@
0?
0h
1g
1f
0c
0(
1%
1$
0#
#150000
b1111 "
1Y
1`
1/!
1B
1e
1&
#160000
b1 !
b11111 "
b10111 "
b10011 "
b10001 "
b10000 "
0Y
0X
0U
0]
1j
1V
1?!
1t
0,!
0_
0\
0a
0`
19!
16!
15!
14!
01!
00!
0/!
0B
0A
0@
1K
1J
1I
1F
1E
0b
1l
0t
0g
0f
0e
1{
1x
1w
1v
1+!
1(!
1'!
1&!
1=
1<
1;
18
1/
1.
1-
1*
0&
0%
0$
1)
1m
0{
0x
0w
0v
0/
0.
0-
0*
1u
1y
1v
1/
1,
00
#170000
b10001 "
1Y
1`
1C!
12!
1/!
1.!
1-!
1D
1C
1B
1?
1Z
0`
1$!
1!!
1~
1}
1h
1e
1d
1c
1(
1'
1&
1#
16
15
14
11
1a
0h
0e
0d
0c
0(
0'
0&
0#
1b
1f
1c
1(
1%
0)
#180000
b10011 "
b10010 "
0Y
1X
1,!
1[
0a
1B!
0Z
1`
0C!
02!
10!
0/!
0.!
0C
0B
1A
0?
0E
1\
1|
0`
0b
0$!
1"!
0!!
0~
1h
0f
1e
1d
1'
1&
0%
1#
05
04
13
01
1)
07
1b
0c
0(
0)
#190000
b10011 "
1Y
1`
1C!
00!
1.!
1C
0A
1Z
0`
0"!
1~
0h
1g
0e
0&
1$
0#
15
03
1a
1h
0g
1e
1&
0$
1#
0h
1g
0e
0d
0'
0&
1$
0#
#200000
b10111 "
b10101 "
b10100 "
0Y
0X
1U
1^
0\
1A!
0a
0B!
0Z
1`
0C!
12!
1/!
0-!
0D
1B
1?
1_
0[
0`
0b
1\
1$!
1!!
0}
1h
0g
1e
1d
1c
1(
1'
1&
0$
1#
06
14
11
1)
0\
0h
1g
1f
0e
0d
0c
0(
0'
0&
1%
1$
0#
1b
0g
0f
0%
0$
0)
#210000
b10101 "
1Y
1`
1C!
02!
11!
0/!
0B
1@
0?
1Z
0`
0$!
1#!
0!!
1d
1'
04
12
01
1a
0d
0'
1e
1&
#220000
b10111 "
b10110 "
0Y
1X
1[
0a
1B!
0Z
1`
0C!
0.!
0C
1\
0`
0~
0e
1d
1'
0&
05
0b
1g
1f
0d
0'
1%
1$
1)
#230000
b10111 "
1Y
0,!
1`
1C!
01!
1/!
1.!
1-!
1D
1C
1B
0@
1E
0|
1Z
0`
1b
0#!
1!!
1~
1}
1h
0g
0f
1c
1(
0%
0$
1#
16
15
14
02
0)
17
1a
0b
0h
1g
1f
0c
0(
1%
1$
0#
1)
1b
0)
#240000
b11111 "
b11011 "
b11001 "
b11000 "
0Y
0X
0U
1]
1,!
1k
0_
1@!
0\
0A!
0a
0B!
0Z
1`
0C!
0/!
0.!
0-!
0D
0C
0B
0E
1t
0[
1|
0`
0b
0^
1\
1_
0!!
0~
0}
1h
0g
0f
1e
1d
1c
1(
1'
1&
0%
0$
1#
06
05
04
1)
07
0\
0_
0h
1g
1f
0e
0d
0c
0y
1w
1.
0,
0(
0'
0&
1%
1$
0#
0g
0f
0%
0$
#250000
b11001 "
1Y
1`
1C!
1.!
1C
1Z
0`
1~
1h
1e
1d
1c
1(
1'
1&
1#
15
1a
0h
0e
0d
0c
0(
0'
0&
0#
1b
1f
1c
1(
1%
0)
#260000
b11011 "
b11010 "
0Y
1X
1[
0a
1B!
0Z
1`
0C!
1/!
0.!
0C
1B
1\
0`
0b
1!!
0~
1h
0f
1e
1d
1'
1&
0%
1#
05
14
1)
1b
0c
0(
0)
#270000
b11011 "
1Y
1`
1C!
12!
11!
0/!
0B
1@
1?
1Z
0`
1$!
1#!
0!!
0h
1g
0e
0&
1$
0#
04
12
11
1a
1h
0g
1e
1&
0$
1#
0h
1g
0e
0d
0'
0&
1$
0#
#280000
b11111 "
b11101 "
b11100 "
0Y
0X
1U
0,!
1^
0\
1A!
0a
0B!
0Z
1`
0C!
02!
10!
1A
0?
1E
1_
0[
0|
0`
0b
1\
0$!
1"!
1h
0g
1e
1d
1c
1(
1'
1&
0$
1#
13
01
1)
17
0\
0h
1g
1f
0e
0d
0c
0(
0'
0&
1%
1$
0#
1b
0g
0f
0%
0$
0)
#290000
b11101 "
1Y
1,!
1`
1C!
12!
01!
00!
1-!
1D
0A
0@
1?
0E
1|
1Z
0`
1$!
0#!
0"!
1}
1d
1'
16
03
02
11
07
1a
0d
0'
1e
1&
#300000
b11111 "
b11110 "
0Y
1X
1[
0a
1B!
0Z
1`
0C!
02!
11!
10!
0-!
0D
1A
1@
0?
1\
0`
0$!
1#!
1"!
0}
0e
1d
1'
0&
06
13
12
01
0b
1g
1f
0d
0'
1%
1$
1)
#310000
b11111 "
1Y
1`
1C!
1/!
1B
1Z
0`
1b
1!!
1h
0g
0f
1c
1(
0%
0$
1#
14
0)
1a
0b
0h
1g
1f
0c
0(
1%
1$
0#
1)
1b
0)
#320000
b10011111 "
b10111111 "
b0 !
b10101111 "
b10100111 "
b10100011 "
b10100001 "
b10100000 "
0V
0Y
0X
0U
0]
0j
1i
1q
13!
1s
1o
0m
0t
0?!
0,!
0_
0@!
0\
0A!
0a
0B!
0Z
1`
0C!
09!
05!
04!
01!
00!
0/!
0B
0A
0@
0K
0J
0F
1E
0L
1p
0[
0|
0`
0b
0^
1\
0k
1_
0l
1t
0#!
0"!
0!!
1h
0g
0f
1e
1d
1c
0+!
0(!
0'!
0&!
0w
0v
0/
0.
0=
0<
0;
08
1(
1'
1&
0%
0$
1#
04
03
02
1)
17
0\
0_
0t
0o
1m
1{
1v
0h
1g
1f
0e
0d
0c
0(
0'
0&
1%
1$
0#
1/
1*
0p
0{
1z
1y
0v
0g
0f
0%
0$
0/
1,
1+
0*
0z
0y
1x
1-
0,
0+
#330000
b10100001 "
1Y
1`
12!
1/!
1.!
1-!
1D
1C
1B
1?
1h
1e
1d
1c
1(
1'
1&
1#
#340000
b10100011 "
b10100010 "
0Y
1X
1,!
1a
0`
02!
10!
0/!
0.!
0C
0B
1A
0?
0E
1b
0h
1f
0e
0d
0'
0&
1%
0#
0)
#350000
b10100011 "
1Y
1`
00!
1.!
1C
0A
0f
1d
1'
0%
#360000
b10100111 "
b10100101 "
b10100100 "
0Y
0X
1U
1\
0a
0`
12!
1/!
0-!
0D
1B
1?
1h
1e
0c
0(
1&
1#
#370000
b10100101 "
1Y
1`
02!
11!
0/!
0B
1@
0?
0h
1g
0e
0&
1$
0#
#380000
b10100111 "
b10100110 "
0Y
1X
1a
0`
0.!
0C
0d
0'
#390000
b10100111 "
1Y
0,!
1`
01!
1/!
1.!
1-!
1D
1C
1B
0@
1E
0b
0g
1e
1d
1c
1(
1'
1&
0$
1)
#400000
b10101111 "
b10101011 "
b10101001 "
b10101000 "
0Y
0X
0U
1]
1,!
1_
0\
0a
0`
0/!
0.!
0-!
0D
0C
0B
0E
1b
0e
0d
0c
0(
0'
0&
0)
#410000
b10101001 "
1Y
1`
1.!
1C
1d
1'
#420000
b10101011 "
b10101010 "
0Y
1X
1a
0`
1/!
0.!
0C
1B
1e
0d
0'
1&
#430000
b10101011 "
1Y
1`
12!
11!
0/!
0B
1@
1?
1h
1g
0e
0&
1$
1#
#440000
b10101111 "
b10101101 "
b10101100 "
0Y
0X
1U
0,!
1\
0a
0`
02!
10!
1A
0?
1E
0b
0h
1f
1%
0#
1)
#450000
b10101101 "
1Y
1,!
1`
12!
01!
00!
1-!
1D
0A
0@
1?
0E
1b
1h
0g
0f
1c
1(
0%
0$
1#
0)
#460000
b10101111 "
b10101110 "
0Y
1X
1a
0`
02!
11!
10!
0-!
0D
1A
1@
0?
0h
1g
1f
0c
0(
1%
1$
0#
#470000
b10101111 "
1Y
1`
1/!
1B
1e
1&
#480000
b1 !
b10111111 "
b10110111 "
b10110011 "
b10110001 "
b10110000 "
0Y
0X
0U
0]
1j
1V
1<!
1?!
1>!
1t
0,!
0_
0\
0a
0`
19!
18!
06!
01!
00!
0/!
0B
0A
0@
0I
1G
1F
1E
0b
1%!
1o
0m
1l
0t
1:!
0s
0g
0f
0e
1{
1z
0x
1+!
1*!
19
18
0-
1+
1*
0&
0%
0$
0>
1)
1p
1m
0u
1;!
0{
0z
0+
0*
1M
10
1u
1z
1+
00
#490000
b10110001 "
1Y
1`
1C!
12!
1/!
1.!
1-!
1D
1C
1B
1?
1Z
0`
1$!
1!!
1~
1}
1h
1e
1d
1c
1(
1'
1&
1#
16
15
14
11
1a
0h
0e
0d
0c
0(
0'
0&
0#
1b
1f
1c
1(
1%
0)
#500000
b10110011 "
b10110010 "
0Y
1X
1,!
1[
0a
1B!
0Z
1`
0C!
02!
10!
0/!
0.!
0C
0B
1A
0?
0E
1\
1|
0`
0b
0$!
1"!
0!!
0~
1h
0f
1e
1d
1'
1&
0%
1#
05
04
13
01
1)
07
1b
0c
0(
0)
#510000
b10110011 "
1Y
1`
1C!
00!
1.!
1C
0A
1Z
0`
0"!
1~
0h
1g
0e
0&
1$
0#
15
03
1a
1h
0g
1e
1&
0$
1#
0h
1g
0e
0d
0'
0&
1$
0#
#520000
b10110111 "
b10110101 "
b10110100 "
0Y
0X
1U
1^
0\
1A!
0a
0B!
0Z
1`
0C!
12!
1/!
0-!
0D
1B
1?
1_
0[
0`
0b
1\
1$!
1!!
0}
1h
0g
1e
1d
1c
1(
1'
1&
0$
1#
06
14
11
1)
0\
0h
1g
1f
0e
0d
0c
0(
0'
0&
1%
1$
0#
1b
0g
0f
0%
0$
0)
#530000
b10110101 "
1Y
1`
1C!
02!
11!
0/!
0B
1@
0?
1Z
0`
0$!
1#!
0!!
1d
1'
04
12
01
1a
0d
0'
1e
1&
#540000
b10110111 "
b10110110 "
0Y
1X
1[
0a
1B!
0Z
1`
0C!
0.!
0C
1\
0`
0~
0e
1d
1'
0&
05
0b
1g
1f
0d
0'
1%
1$
1)
#550000
b10110111 "
1Y
0,!
1`
1C!
01!
1/!
1.!
1-!
1D
1C
1B
0@
1E
0|
1Z
0`
1b
0#!
1!!
1~
1}
1h
0g
0f
1c
1(
0%
0$
1#
16
15
14
02
0)
17
1a
0b
0h
1g
1f
0c
0(
1%
1$
0#
1)
1b
0)
#560000
b10111111 "
b10111011 "
b10111001 "
b10111000 "
0Y
0X
0U
1]
1,!
1k
0_
1@!
0\
0A!
0a
0B!
0Z
1`
0C!
0/!
0.!
0-!
0D
0C
0B
0E
1t
0[
1|
0`
0b
0^
1\
1_
0!!
0~
0}
1h
0g
0f
1e
1d
1c
1(
1'
1&
0%
0$
1#
06
05
04
1)
07
0\
0_
0u
0h
1g
1f
0e
0d
0c
0z
1x
1w
1v
1/
1.
1-
0+
0(
0'
0&
1%
1$
0#
10
0g
0f
0%
0$
#570000
b10111001 "
1Y
1`
1C!
1.!
1C
1Z
0`
1~
1h
1e
1d
1c
1(
1'
1&
1#
15
1a
0h
0e
0d
0c
0(
0'
0&
0#
1b
1f
1c
1(
1%
0)
#580000
b10111011 "
b10111010 "
0Y
1X
1[
0a
1B!
0Z
1`
0C!
1/!
0.!
0C
1B
1\
0`
0b
1!!
0~
1h
0f
1e
1d
1'
1&
0%
1#
05
14
1)
1b
0c
0(
0)
#590000
b10111011 "
1Y
1`
1C!
12!
11!
0/!
0B
1@
1?
1Z
0`
1$!
1#!
0!!
0h
1g
0e
0&
1$
0#
04
12
11
1a
1h
0g
1e
1&
0$
1#
0h
1g
0e
0d
0'
0&
1$
0#
#600000
b10111111 "
b10111101 "
b10111100 "
0Y
0X
1U
0,!
1^
0\
1A!
0a
0B!
0Z
1`
0C!
02!
10!
1A
0?
1E
1_
0[
0|
0`
0b
1\
0$!
1"!
1h
0g
1e
1d
1c
1(
1'
1&
0$
1#
13
01
1)
17
0\
0h
1g
1f
0e
0d
0c
0(
0'
0&
1%
1$
0#
1b
0g
0f
0%
0$
0)
#610000
b10111101 "
1Y
1,!
1`
1C!
12!
01!
00!
1-!
1D
0A
0@
1?
0E
1|
1Z
0`
1$!
0#!
0"!
1}
1d
1'
16
03
02
11
07
1a
0d
0'
1e
1&
#620000
b10111111 "
b10111110 "
0Y
1X
1[
0a
1B!
0Z
1`
0C!
02!
11!
10!
0-!
0D
1A
1@
0?
1\
0`
0$!
1#!
1"!
0}
0e
1d
1'
0&
06
13
12
01
0b
1g
1f
0d
0'
1%
1$
1)
#630000
b10111111 "
1Y
1`
1C!
1/!
1B
1Z
0`
1b
1!!
1h
0g
0f
1c
1(
0%
0$
1#
14
0)
1a
0b
0h
1g
1f
0c
0(
1%
1$
0#
1)
1b
0)
#640000
b11111111 "
b1111111 "
b1011111 "
b0 !
b1001111 "
b1000111 "
b1000011 "
b1000001 "
b1000000 "
0V
0Y
0X
0U
0]
0j
0i
1n
0q
0:!
1s
0<!
1r
0p
0m
0>!
0t
0?!
0,!
0_
0@!
0\
0A!
0a
0B!
0Z
1`
0C!
08!
16!
15!
01!
00!
0/!
0B
0A
0@
1J
1I
0G
1E
0[
0|
0`
0b
0^
1\
0k
1_
0%!
0l
1t
1u
0o
1m
0;!
0#!
0"!
0!!
1h
0g
0f
1e
1d
1c
0+!
0*!
0x
0w
0v
0/
0.
0-
09
08
1(
1'
1&
0%
0$
1#
04
03
02
0M
00
1>
1)
17
0\
0_
0t
0m
0r
1p
1{
1z
0h
1g
1f
0e
0d
0c
0(
0'
0&
1%
1$
0#
1+
1*
0s
0u
0{
1y
0g
0f
0%
0$
1,
0*
10
1u
1{
0z
0y
1x
1w
1.
1-
0,
0+
1*
00
#650000
b1000001 "
1Y
1`
12!
1/!
1.!
1-!
1D
1C
1B
1?
1h
1e
1d
1c
1(
1'
1&
1#
#660000
b1000011 "
b1000010 "
0Y
1X
1,!
1a
0`
02!
10!
0/!
0.!
0C
0B
1A
0?
0E
1b
0h
1f
0e
0d
0'
0&
1%
0#
0)
#670000
b1000011 "
1Y
1`
00!
1.!
1C
0A
0f
1d
1'
0%
#680000
b1000111 "
b1000101 "
b1000100 "
0Y
0X
1U
1\
0a
0`
12!
1/!
0-!
0D
1B
1?
1h
1e
0c
0(
1&
1#
#690000
b1000101 "
1Y
1`
02!
11!
0/!
0B
1@
0?
0h
1g
0e
0&
1$
0#
#700000
b1000111 "
b1000110 "
0Y
1X
1a
0`
0.!
0C
0d
0'
#710000
b1000111 "
1Y
0,!
1`
01!
1/!
1.!
1-!
1D
1C
1B
0@
1E
0b
0g
1e
1d
1c
1(
1'
1&
0$
1)
#720000
b1001111 "
b1001011 "
b1001001 "
b1001000 "
0Y
0X
0U
1]
1,!
1_
0\
0a
0`
0/!
0.!
0-!
0D
0C
0B
0E
1b
0e
0d
0c
0(
0'
0&
0)
#730000
b1001001 "
1Y
1`
1.!
1C
1d
1'
#740000
b1001011 "
b1001010 "
0Y
1X
1a
0`
1/!
0.!
0C
1B
1e
0d
0'
1&
#750000
b1001011 "
1Y
1`
12!
11!
0/!
0B
1@
1?
1h
1g
0e
0&
1$
1#
#760000
b1001111 "
b1001101 "
b1001100 "
0Y
0X
1U
0,!
1\
0a
0`
02!
10!
1A
0?
1E
0b
0h
1f
1%
0#
1)
#770000
b1001101 "
1Y
1,!
1`
12!
01!
00!
1-!
1D
0A
0@
1?
0E
1b
1h
0g
0f
1c
1(
0%
0$
1#
0)
#780000
b1001111 "
b1001110 "
0Y
1X
1a
0`
02!
11!
10!
0-!
0D
1A
1@
0?
0h
1g
1f
0c
0(
1%
1$
0#
#790000
b1001111 "
1Y
1`
1/!
1B
1e
1&
#800000
b1 !
b1011111 "
b1010111 "
b1010011 "
b1010001 "
b1010000 "
0Y
0X
0U
0]
1j
1V
1=!
1?!
1t
0,!
0_
0\
0a
0`
09!
18!
06!
01!
00!
0/!
0B
0A
0@
0I
1G
0F
1E
0b
1%!
1l
0t
1r
0p
0g
0f
0e
0{
1z
0x
1*!
1'!
1<
19
0-
1+
0*
0&
0%
0$
0>
1)
1m
1s
0u
0z
0w
0.
0+
10
1u
1x
1-
00
#810000
b1010001 "
1Y
1`
1C!
12!
1/!
1.!
1-!
1D
1C
1B
1?
1Z
0`
1$!
1!!
1~
1}
1h
1e
1d
1c
1(
1'
1&
1#
16
15
14
11
1a
0h
0e
0d
0c
0(
0'
0&
0#
1b
1f
1c
1(
1%
0)
#820000
b1010011 "
b1010010 "
0Y
1X
1,!
1[
0a
1B!
0Z
1`
0C!
02!
10!
0/!
0.!
0C
0B
1A
0?
0E
1\
1|
0`
0b
0$!
1"!
0!!
0~
1h
0f
1e
1d
1'
1&
0%
1#
05
04
13
01
1)
07
1b
0c
0(
0)
#830000
b1010011 "
1Y
1`
1C!
00!
1.!
1C
0A
1Z
0`
0"!
1~
0h
1g
0e
0&
1$
0#
15
03
1a
1h
0g
1e
1&
0$
1#
0h
1g
0e
0d
0'
0&
1$
0#
#840000
b1010111 "
b1010101 "
b1010100 "
0Y
0X
1U
1^
0\
1A!
0a
0B!
0Z
1`
0C!
12!
1/!
0-!
0D
1B
1?
1_
0[
0`
0b
1\
1$!
1!!
0}
1h
0g
1e
1d
1c
1(
1'
1&
0$
1#
06
14
11
1)
0\
0h
1g
1f
0e
0d
0c
0(
0'
0&
1%
1$
0#
1b
0g
0f
0%
0$
0)
#850000
b1010101 "
1Y
1`
1C!
02!
11!
0/!
0B
1@
0?
1Z
0`
0$!
1#!
0!!
1d
1'
04
12
01
1a
0d
0'
1e
1&
#860000
b1010111 "
b1010110 "
0Y
1X
1[
0a
1B!
0Z
1`
0C!
0.!
0C
1\
0`
0~
0e
1d
1'
0&
05
0b
1g
1f
0d
0'
1%
1$
1)
#870000
b1010111 "
1Y
0,!
1`
1C!
01!
1/!
1.!
1-!
1D
1C
1B
0@
1E
0|
1Z
0`
1b
0#!
1!!
1~
1}
1h
0g
0f
1c
1(
0%
0$
1#
16
15
14
02
0)
17
1a
0b
0h
1g
1f
0c
0(
1%
1$
0#
1)
1b
0)
#880000
b1011111 "
b1011011 "
b1011001 "
b1011000 "
0Y
0X
0U
1]
1,!
1k
0_
1@!
0\
0A!
0a
0B!
0Z
1`
0C!
0/!
0.!
0-!
0D
0C
0B
0E
1t
0[
1|
0`
0b
0^
1\
1_
0!!
0~
0}
1h
0g
0f
1e
1d
1c
1(
1'
1&
0%
0$
1#
06
05
04
1)
07
0\
0_
0h
1g
1f
0e
0d
0c
1{
1z
0x
0-
1+
1*
0(
0'
0&
1%
1$
0#
0g
0f
0%
0$
#890000
b1011001 "
1Y
1`
1C!
1.!
1C
1Z
0`
1~
1h
1e
1d
1c
1(
1'
1&
1#
15
1a
0h
0e
0d
0c
0(
0'
0&
0#
1b
1f
1c
1(
1%
0)
#900000
b1011011 "
b1011010 "
0Y
1X
1[
0a
1B!
0Z
1`
0C!
1/!
0.!
0C
1B
1\
0`
0b
1!!
0~
1h
0f
1e
1d
1'
1&
0%
1#
05
14
1)
1b
0c
0(
0)
#910000
b1011011 "
1Y
1`
1C!
12!
11!
0/!
0B
1@
1?
1Z
0`
1$!
1#!
0!!
0h
1g
0e
0&
1$
0#
04
12
11
1a
1h
0g
1e
1&
0$
1#
0h
1g
0e
0d
0'
0&
1$
0#
#920000
b1011111 "
b1011101 "
b1011100 "
0Y
0X
1U
0,!
1^
0\
1A!
0a
0B!
0Z
1`
0C!
02!
10!
1A
0?
1E
1_
0[
0|
0`
0b
1\
0$!
1"!
1h
0g
1e
1d
1c
1(
1'
1&
0$
1#
13
01
1)
17
0\
0h
1g
1f
0e
0d
0c
0(
0'
0&
1%
1$
0#
1b
0g
0f
0%
0$
0)
#930000
b1011101 "
1Y
1,!
1`
1C!
12!
01!
00!
1-!
1D
0A
0@
1?
0E
1|
1Z
0`
1$!
0#!
0"!
1}
1d
1'
16
03
02
11
07
1a
0d
0'
1e
1&
#940000
b1011111 "
b1011110 "
0Y
1X
1[
0a
1B!
0Z
1`
0C!
02!
11!
10!
0-!
0D
1A
1@
0?
1\
0`
0$!
1#!
1"!
0}
0e
1d
1'
0&
06
13
12
01
0b
1g
1f
0d
0'
1%
1$
1)
#950000
b1011111 "
1Y
1`
1C!
1/!
1B
1Z
0`
1b
1!!
1h
0g
0f
1c
1(
0%
0$
1#
14
0)
1a
0b
0h
1g
1f
0c
0(
1%
1$
0#
1)
1b
0)
