ps4/zad6/simulation/qsim/subtractor_A_B_8_bits_board.msim.vcd
$comment
	File created using the following command:
		vcd file subtractor_A_B_8_bits_board.msim.vcd -direction
$end
$date
	Tue Mar 26 10:43:39 2019
$end
$version
	ModelSim Version 10.5b
$end
$timescale
	1ps
$end

$scope module subtractor_A_B_8_bits_board_vlg_vec_tst $end
$var reg 2 ! KEY [1:0] $end
$var reg 8 " SW [7:0] $end
$var wire 1 # HEX0 [0] $end
$var wire 1 $ HEX0 [1] $end
$var wire 1 % HEX0 [2] $end
$var wire 1 & HEX0 [3] $end
$var wire 1 ' HEX0 [4] $end
$var wire 1 ( HEX0 [5] $end
$var wire 1 ) HEX0 [6] $end
$var wire 1 * HEX1 [0] $end
$var wire 1 + HEX1 [1] $end
$var wire 1 , HEX1 [2] $end
$var wire 1 - HEX1 [3] $end
$var wire 1 . HEX1 [4] $end
$var wire 1 / HEX1 [5] $end
$var wire 1 0 HEX1 [6] $end
$var wire 1 1 HEX2 [0] $end
$var wire 1 2 HEX2 [1] $end
$var wire 1 3 HEX2 [2] $end
$var wire 1 4 HEX2 [3] $end
$var wire 1 5 HEX2 [4] $end
$var wire 1 6 HEX2 [5] $end
$var wire 1 7 HEX2 [6] $end
$var wire 1 8 HEX3 [0] $end
$var wire 1 9 HEX3 [1] $end
$var wire 1 : HEX3 [2] $end
$var wire 1 ; HEX3 [3] $end
$var wire 1 < HEX3 [4] $end
$var wire 1 = HEX3 [5] $end
$var wire 1 > HEX3 [6] $end
$var wire 1 ? HEX4 [0] $end
$var wire 1 @ HEX4 [1] $end
$var wire 1 A HEX4 [2] $end
$var wire 1 B HEX4 [3] $end
$var wire 1 C HEX4 [4] $end
$var wire 1 D HEX4 [5] $end
$var wire 1 E HEX4 [6] $end
$var wire 1 F HEX5 [0] $end
$var wire 1 G HEX5 [1] $end
$var wire 1 H HEX5 [2] $end
$var wire 1 I HEX5 [3] $end
$var wire 1 J HEX5 [4] $end
$var wire 1 K HEX5 [5] $end
$var wire 1 L HEX5 [6] $end
$var wire 1 M LEDR [0] $end

$scope module i1 $end
$var wire 1 N gnd $end
$var wire 1 O vcc $end
$var wire 1 P unknown $end
$var tri1 1 Q devclrn $end
$var tri1 1 R devpor $end
$var tri1 1 S devoe $end
$var wire 1 T ~QUARTUS_CREATED_GND~I_combout $end
$var wire 1 U SW[3]~input_o $end
$var wire 1 V KEY[0]~input_o $end
$var wire 1 W KEY[1]~input_o $end
$var wire 1 X SW[2]~input_o $end
$var wire 1 Y SW[1]~input_o $end
$var wire 1 Z SW[0]~input_o $end
$var wire 1 [ ex6|reply[0]~2 $end
$var wire 1 \ ex6|reply[0]~3 $end
$var wire 1 ] ex6|reply[1]~6 $end
$var wire 1 ^ ex6|reply[1]~7 $end
$var wire 1 _ ex6|reply[2]~10 $end
$var wire 1 ` ex6|reply[2]~11 $end
$var wire 1 a ex6|reply[3]~13_sumout $end
$var wire 1 b ex6|reply[0]~1_sumout $end
$var wire 1 c ex6|reply[2]~9_sumout $end
$var wire 1 d ex6|reply[1]~5_sumout $end
$var wire 1 e ex6|ex1|WideOr6~0_combout $end
$var wire 1 f ex6|ex1|WideOr5~0_combout $end
$var wire 1 g ex6|ex1|WideOr4~0_combout $end
$var wire 1 h ex6|ex1|WideOr3~0_combout $end
$var wire 1 i ex6|ex1|WideOr2~0_combout $end
$var wire 1 j ex6|ex1|WideOr1~0_combout $end
$var wire 1 k ex6|ex1|WideOr0~0_combout $end
$var wire 1 l SW[4]~input_o $end
$var wire 1 m ex6|reply[3]~14 $end
$var wire 1 n ex6|reply[3]~15 $end
$var wire 1 o ex6|reply[4]~17_sumout $end
$var wire 1 p SW[5]~input_o $end
$var wire 1 q ex6|reply[4]~18 $end
$var wire 1 r ex6|reply[4]~19 $end
$var wire 1 s ex6|reply[5]~21_sumout $end
$var wire 1 t SW[6]~input_o $end
$var wire 1 u ex6|reply[5]~22 $end
$var wire 1 v ex6|reply[5]~23 $end
$var wire 1 w ex6|reply[6]~25_sumout $end
$var wire 1 x SW[7]~input_o $end
$var wire 1 y ex6|reply[6]~26 $end
$var wire 1 z ex6|reply[6]~27 $end
$var wire 1 { ex6|reply[7]~29_sumout $end
$var wire 1 | ex6|ex2|WideOr6~0_combout $end
$var wire 1 } ex6|ex2|WideOr5~0_combout $end
$var wire 1 ~ ex6|ex2|WideOr4~0_combout $end
$var wire 1 !! ex6|ex2|WideOr3~0_combout $end
$var wire 1 "! ex6|ex2|WideOr2~0_combout $end
$var wire 1 #! ex6|ex2|WideOr1~0_combout $end
$var wire 1 $! ex6|ex2|WideOr0~0_combout $end
$var wire 1 %! ex2|WideOr6~0_combout $end
$var wire 1 &! ex2|WideOr5~0_combout $end
$var wire 1 '! ex2|WideOr4~0_combout $end
$var wire 1 (! ex2|WideOr3~0_combout $end
$var wire 1 )! ex2|WideOr2~0_combout $end
$var wire 1 *! ex2|WideOr1~0_combout $end
$var wire 1 +! ex2|WideOr0~0_combout $end
$var wire 1 ,! ex3|WideOr6~0_combout $end
$var wire 1 -! ex3|WideOr5~0_combout $end
$var wire 1 .! ex3|WideOr4~0_combout $end
$var wire 1 /! ex3|WideOr3~0_combout $end
$var wire 1 0! ex3|WideOr2~0_combout $end
$var wire 1 1! ex3|WideOr1~0_combout $end
$var wire 1 2! ex3|WideOr0~0_combout $end
$var wire 1 3! ex4|WideOr6~0_combout $end
$var wire 1 4! ex4|WideOr5~0_combout $end
$var wire 1 5! ex4|WideOr4~0_combout $end
$var wire 1 6! ex4|WideOr3~0_combout $end
$var wire 1 7! ex4|WideOr2~0_combout $end
$var wire 1 8! ex4|WideOr1~0_combout $end
$var wire 1 9! ex4|WideOr0~0_combout $end
$var wire 1 :! ex5|WideOr6~0_combout $end
$var wire 1 ;! ex5|WideOr5~0_combout $end
$var wire 1 <! ex5|WideOr4~0_combout $end
$var wire 1 =! ex5|WideOr3~0_combout $end
$var wire 1 >! ex5|WideOr2~0_combout $end
$var wire 1 ?! ex5|WideOr1~0_combout $end
$var wire 1 @! ex5|WideOr0~0_combout $end
$var wire 1 A! ex6|reply[7]~30 $end
$var wire 1 B! ex6|reply[7]~31 $end
$var wire 1 C! ex6|cout[0]~1_sumout $end
$var wire 1 D! ex1|Q [7] $end
$var wire 1 E! ex1|Q [6] $end
$var wire 1 F! ex1|Q [5] $end
$var wire 1 G! ex1|Q [4] $end
$var wire 1 H! ex1|Q [3] $end
$var wire 1 I! ex1|Q [2] $end
$var wire 1 J! ex1|Q [1] $end
$var wire 1 K! ex1|Q [0] $end
$upscope $end
$upscope $end
$enddefinitions $end
#0
$dumpvars
b1 !
b0 "
1)
0(
0'
0&
0%
0$
0#
10
0/
0.
0-
0,
0+
0*
17
06
05
04
03
02
01
1>
0=
0<
0;
0:
09
08
1E
0D
0C
0B
0A
0@
0?
1L
0K
0J
0I
0H
0G
0F
0M
0N
1O
xP
1Q
1R
1S
0T
0U
1V
0W
0X
0Y
0Z
0[
1\
1]
0^
1_
0`
0a
0b
0c
0d
0e
0f
0g
0h
0i
0j
0k
0l
1m
0n
0o
0p
1q
0r
0s
0t
1u
0v
0w
0x
1y
0z
0{
0|
0}
0~
0!!
0"!
0#!
0$!
0%!
0&!
0'!
0(!
0)!
0*!
0+!
0,!
0-!
0.!
0/!
00!
01!
02!
03!
04!
05!
06!
07!
08!
09!
0:!
0;!
0<!
0=!
0>!
0?!
0@!
1A!
0B!
0C!
0K!
0J!
0I!
0H!
0G!
0F!
0E!
0D!
$end
#300000
b10000000 "
b11000000 "
b11000100 "
b11000110 "
1Y
1X
1t
1x
0A!
1{
1D!
0y
1w
1E!
13!
0_
1c
1I!
0]
1d
1J!
1?!
1>!
18!
1@
1H
1G
0E
0m
1a
1%!
1]
0d
1e
1y
0w
1C!
1*!
1j
11!
10!
1#!
1"!
1,
1+
1:
19
1$
12
1M
0)
07
0q
1o
1_
0c
1A!
0{
1|
0e
0#!
0"!
1i
1%
0,
0+
1)
00
0u
1s
1m
0a
0|
1e
0C!
1$!
1!!
1~
1}
0j
0i
0%
0$
1/
1.
1-
1*
0M
0)
10
0y
1w
1q
0o
0e
1|
0$!
0!!
0-
0*
00
1)
0A!
1{
1u
0s
1#!
0~
0}
0/
0.
1+
1y
0w
0|
1C!
1"!
1,
1M
10
1A!
0{
1|
0#!
0"!
0,
0+
00
0|
0C!
0M
10
#320000
b11 !
b1000110 "
b110 "
b10 "
b0 "
0Y
0X
0t
0x
1W
0A!
1{
1B!
0y
1w
1z
03!
0_
1c
1`
0]
1d
1^
0?!
0>!
08!
0@
0H
0G
1E
1e
1j
1#!
1"!
1,
1+
1$
0)
#340000
b1 "
b10000001 "
b11000001 "
b11000101 "
b11000111 "
1Z
1Y
1X
1t
1x
1A!
0{
0B!
1y
0w
0z
1_
0c
0`
1]
0d
0^
1b
0\
1?!
1>!
16!
15!
14!
1D
1C
1B
1H
1G
0]
1d
0e
1k
0j
1h
1g
1f
0#!
0"!
0,
0+
1(
1'
1&
0$
1#
1)
0_
1c
1e
0k
0h
0&
0#
0)
0m
1a
0e
1h
1&
1)
0q
1o
1e
1j
1i
0g
0f
0(
0'
1%
1$
0)
0u
1s
1$!
1!!
1~
1}
1/
1.
1-
1*
0y
1w
1|
0$!
0!!
0-
0*
00
0A!
1{
0|
1!!
1-
10
1|
1C!
1#!
1"!
0~
0}
0/
0.
1,
1+
1M
00
#360000
b11000110 "
b1000110 "
b110 "
b10 "
b0 "
0Z
0Y
0X
0t
0x
0{
1B!
0w
1z
0c
1`
0d
1^
0b
1\
0?!
0>!
06!
05!
04!
0D
0C
0B
0H
0G
1{
1m
0a
1c
1d
0C!
0j
0i
0h
0#!
0"!
0!!
1~
1}
1/
1.
0-
0,
0+
0&
0%
0$
0M
1q
0o
1j
1$!
1#!
0~
0}
0/
0.
1+
1*
1$
1u
0s
0$!
0#!
1!!
1-
0+
0*
1w
0!!
0-
0|
1#!
1"!
1,
1+
10
#380000
b1 "
b10000001 "
b11000001 "
b11000101 "
1Z
1X
1t
1x
1A!
0{
0B!
1y
0w
0z
13!
1_
0c
0`
1b
0\
1?!
1>!
18!
15!
1C
1@
1H
1G
0E
0d
0j
1g
1f
0#!
0"!
0,
0+
1(
1'
0$
0e
1k
1h
1&
1#
1)
#400000
b11000100 "
b1000100 "
b100 "
b0 "
0Z
0X
0t
0x
0A!
1{
1B!
0y
1w
1z
03!
0_
1c
1`
0b
1\
0?!
0>!
08!
05!
0C
0@
0H
0G
1E
1d
1e
0f
1#!
1"!
1,
1+
0(
0)
0k
1j
0h
0g
0'
0&
1$
0#
#420000
b10 "
b11 "
1Z
1Y
13!
1]
0d
0^
1b
0\
15!
14!
1D
1C
0E
0]
1d
1g
1'
0c
0e
0j
1h
1f
1(
1&
0$
1)
1e
0h
0&
0)
#440000
b1 "
b0 "
0Z
0Y
03!
0d
1^
0b
1\
05!
04!
0D
0C
1E
1c
1d
0e
0g
0f
0(
0'
1)
1e
1j
1$
0)
#460000
b10 "
1Y
13!
1]
0d
0^
17!
14!
1D
1A
0E
1k
0j
1h
1g
1'
1&
0$
1#
#480000
b0 "
0Y
03!
0]
1d
1^
07!
04!
0D
0A
1E
0k
1j
0h
0g
0'
0&
1$
0#
#500000
b1 "
1Z
1b
0\
19!
16!
15!
14!
1D
1C
1B
1?
0d
0e
0j
1h
1g
1f
1(
1'
1&
0$
1)
1e
1j
0h
0f
0(
0&
1$
0)
#520000
b0 "
0Z
0b
1\
09!
06!
05!
04!
0D
0C
0B
0?
1d
1k
0j
1h
1&
0$
1#
0k
1j
0h
0g
0'
0&
1$
0#
#540000
b100000 "
b110000 "
b1110000 "
b1110100 "
b1110110 "
1Y
1X
1l
1p
1t
1y
0w
0z
0u
1s
0q
1o
13!
1_
0c
0`
1]
0d
0^
1=!
1<!
1;!
18!
1@
1K
1J
1I
0E
0y
1w
0s
0e
1|
0j
1$!
0"!
0,
1*
0$
00
1)
0{
0#!
1}
1/
0+
0$!
1#!
1~
0}
0/
1.
1+
0*
#560000
b1010110 "
b1000110 "
b110 "
b10 "
b0 "
0Y
0X
0l
0p
0t
0w
1z
1s
1q
0o
03!
0_
1c
1`
0]
1d
1^
0=!
0<!
0;!
08!
0@
0K
0J
0I
1E
1{
1u
0s
1e
1j
0#!
1"!
0~
1}
1/
0.
1,
0+
1$
0)
1w
0"!
0}
0/
0,
0|
1#!
1"!
1,
1+
10
#580000
b1000 "
b1001 "
b101001 "
b111001 "
b1111001 "
b1111101 "
b1111111 "
1Z
1Y
1X
1U
1l
1p
1t
1y
0w
0z
0u
1s
0q
1o
13!
0m
1a
1_
0c
0`
1]
0d
0^
1b
0\
1=!
1<!
1;!
18!
17!
16!
1B
1A
1@
1K
1J
1I
0E
0y
1w
0s
0o
0]
1d
1|
0j
1g
1$!
0"!
0,
1*
1'
0$
00
0{
0_
1c
0|
1k
1j
0g
0$!
1"!
1,
0*
0'
1$
1#
10
0a
1|
0k
1i
1h
1$!
0#!
0"!
1!!
1~
1.
1-
0,
0+
1*
1&
1%
0#
00
0e
0j
0i
1g
1f
1(
1'
0%
0$
1)
#600000
b1110111 "
b1110110 "
b1010110 "
b1000110 "
b110 "
b10 "
b0 "
0Z
0Y
0X
0U
0l
0p
0t
0w
1z
1s
1o
03!
1a
0c
1`
0d
1^
0b
1\
0=!
0<!
0;!
08!
07!
06!
0B
0A
0@
0K
0J
0I
1E
1{
1m
0a
1c
1d
1e
0h
0g
0f
0$!
0!!
1}
1/
0-
0*
0(
0'
0&
0)
1q
0o
1j
1$!
1#!
0~
0}
0/
0.
1+
1*
1$
1u
0s
0$!
0#!
1!!
1-
0+
0*
1w
0!!
0-
0|
1#!
1"!
1,
1+
10
#620000
b1000 "
b1001 "
b101001 "
b1101001 "
b1101101 "
b1101111 "
1Z
1Y
1X
1U
1p
1t
1:!
1y
0w
0z
0u
1s
13!
0m
1a
1_
0c
0`
1]
0d
0^
1b
0\
1?!
18!
17!
16!
1B
1A
1@
1G
0E
0L
0y
1w
0q
1o
0]
1d
1|
0j
1g
0#!
0"!
1!!
1-
0,
0+
1'
0$
00
0{
0s
0_
1c
1k
1j
0g
1#!
1"!
1,
1+
0'
1$
1#
0a
0k
1i
1h
0"!
0!!
1~
1.
0-
0,
1&
1%
0#
0e
0j
0i
1g
1f
1(
1'
0%
0$
1)
#640000
b1 !
b1100111 "
b1100110 "
b1000110 "
b110 "
b10 "
b0 "
0Z
0Y
0X
0U
0p
0t
0W
0D!
0E!
0J!
0I!
0:!
0w
1z
1s
03!
1a
0c
1`
0d
1^
0b
1\
0?!
08!
07!
06!
0B
0A
0@
0G
1E
1L
1A!
0B!
1m
0a
1_
0`
1]
0^
1e
0%!
1w
0z
0h
0g
0f
0#!
1}
0*!
01!
00!
0:
09
02
1/
0+
0(
0'
0&
17
0)
1q
0o
0A!
1{
0|
0e
1!!
1-
1)
10
1u
0s
1|
1C!
1#!
1"!
0!!
0~
0}
0/
0.
0-
1,
1+
1M
00
1y
0w
0|
10
1A!
0{
1|
0#!
0"!
0,
0+
00
0|
0C!
0M
10
#940000
b10000 "
b11000 "
b11001 "
b11101 "
1Z
1X
1U
1l
0q
1o
1G!
13!
0m
1a
1H!
0_
1c
1I!
1b
0\
1K!
1@!
1=!
1<!
1;!
19!
14!
1D
1?
1K
1J
1I
1F
0E
0u
1s
0]
1d
1%!
0b
1\
1e
1_
0c
1+!
1&!
1k
1f
12!
1/!
1.!
1-!
1$!
1!!
1~
1}
1/
1.
1-
1*
1=
1<
1;
18
1(
1#
16
11
0)
07
0y
1w
0_
1c
1]
0d
1m
0a
1|
0k
1h
0f
0$!
0!!
0-
0*
0(
1&
0#
00
0A!
1{
0m
1a
1_
0c
1q
0o
0|
1k
1g
1!!
1-
1'
1#
10
0q
1o
1m
0a
1u
0s
1|
1C!
1#!
1"!
0!!
0~
0}
0k
0h
0g
0'
0&
0#
0/
0.
0-
1,
1+
1M
00
0u
1s
1q
0o
1y
0w
0e
1$!
0#!
0"!
1}
1/
0,
0+
1*
1)
0y
1w
1u
0s
1A!
0{
0$!
1!!
0}
0/
1-
0*
0A!
1{
1y
0w
0C!
1$!
1~
1.
1*
0M
1A!
0{
1C!
0$!
0!!
0~
0.
0-
0*
1M
0|
0C!
0M
10
#950000
b111101 "
b1111101 "
1p
1t
0y
1w
1E!
0u
1s
1F!
0@!
0F
0A!
1{
1u
0s
1|
02!
1#!
1+
08
00
1y
0w
0|
1C!
1"!
1,
1M
10
1A!
0{
1|
0#!
0"!
0,
0+
00
0|
0C!
0M
10
#960000
b11 !
b1101101 "
b1100101 "
b1100100 "
b1100000 "
b1000000 "
b0 "
0Z
0X
0U
0l
0p
0t
1W
0y
1w
1z
0u
1s
1v
0q
1o
1r
03!
0m
1a
1n
0_
1c
1`
1b
0=!
0<!
0;!
09!
04!
0D
0?
0K
0J
0I
1E
1e
1k
1f
1!!
1~
1}
1/
1.
1-
1(
1#
0)
#980000
b10000000 "
b10000010 "
b10010010 "
b10011010 "
b10011011 "
b10011111 "
b10111111 "
b11111111 "
1Z
1Y
1X
1U
1l
1p
1t
1x
1:!
0A!
1{
1y
0w
0z
1u
0s
0v
1q
0o
0r
13!
1m
0a
0n
1_
0c
0`
0]
1d
0b
1?!
1>!
1=!
18!
17!
16!
1B
1A
1@
1I
1H
1G
0E
0L
0_
1c
1|
1C!
0k
1i
0!!
0~
0}
0/
0.
0-
1%
0#
1M
00
0m
1a
1j
0i
0f
0(
0%
1$
0q
1o
1i
1%
0u
1s
1~
1.
0y
1w
1$!
1#!
0~
0.
1+
1*
0{
0$!
1"!
1!!
1-
1,
0*
0|
0#!
0"!
1~
1}
1/
1.
0,
0+
10
