ps2/zad6zps2/moje7/simulation/qsim/mux_4_1_1_bit_board.msim.vcd
$comment
	File created using the following command:
		vcd file mux_4_1_1_bit_board.msim.vcd -direction
$end
$date
	Tue Mar 12 10:50:20 2019
$end
$version
	ModelSim Version 10.5b
$end
$timescale
	1ps
$end

$scope module mux_4_1_1_bit_board_vlg_vec_tst $end
$var reg 2 ! KEY [1:0] $end
$var reg 8 " SW [7:0] $end
$var wire 1 # LEDR [1] $end
$var wire 1 $ LEDR [0] $end

$scope module i1 $end
$var wire 1 % gnd $end
$var wire 1 & vcc $end
$var wire 1 ' unknown $end
$var tri1 1 ( devclrn $end
$var tri1 1 ) devpor $end
$var tri1 1 * devoe $end
$var wire 1 + ~QUARTUS_CREATED_GND~I_combout $end
$var wire 1 , SW[0]~input_o $end
$var wire 1 - SW[4]~input_o $end
$var wire 1 . SW[2]~input_o $end
$var wire 1 / SW[6]~input_o $end
$var wire 1 0 KEY[0]~input_o $end
$var wire 1 1 KEY[1]~input_o $end
$var wire 1 2 ex1|m~0_combout $end
$var wire 1 3 SW[1]~input_o $end
$var wire 1 4 SW[5]~input_o $end
$var wire 1 5 SW[7]~input_o $end
$var wire 1 6 SW[3]~input_o $end
$var wire 1 7 ex2|m~0_combout $end
$upscope $end
$upscope $end
$enddefinitions $end
#0
$dumpvars
b0 !
b0 "
0$
0#
0%
1&
x'
1(
1)
1*
0+
0,
0-
0.
0/
00
01
02
03
04
05
06
07
$end
#5000
b1 "
1,
12
1$
#10000
b11 "
b10 "
0,
13
17
02
0$
1#
#15000
b11 "
1,
12
1$
#20000
b111 "
b101 "
b100 "
0,
03
1.
02
07
0#
0$
#25000
b101 "
1,
12
1$
#30000
b111 "
b110 "
0,
13
17
02
0$
1#
#35000
b111 "
1,
12
1$
#40000
b1111 "
b1011 "
b1001 "
b1000 "
0,
03
0.
16
07
02
0$
0#
#45000
b1001 "
1,
12
1$
#50000
b1011 "
b1010 "
0,
13
17
02
0$
1#
#55000
b1011 "
1,
12
1$
#60000
b1111 "
b1101 "
b1100 "
0,
03
1.
02
07
0#
0$
#65000
b1101 "
1,
12
1$
#70000
b1111 "
b1110 "
0,
13
17
02
0$
1#
#75000
b1111 "
1,
12
1$
#80000
b11111 "
b10111 "
b10011 "
b10001 "
b10000 "
0,
03
0.
06
1-
02
07
0#
0$
#85000
b10001 "
1,
12
1$
#90000
b10011 "
b10010 "
0,
13
17
02
0$
1#
#95000
b10011 "
1,
12
1$
#100000
b10111 "
b10101 "
b10100 "
0,
03
1.
02
07
0#
0$
#105000
b10101 "
1,
12
1$
#110000
b10111 "
b10110 "
0,
13
17
02
0$
1#
#115000
b10111 "
1,
12
1$
#120000
b11111 "
b11011 "
b11001 "
b11000 "
0,
03
0.
16
07
02
0$
0#
#125000
b11001 "
1,
12
1$
#130000
b11011 "
b11010 "
0,
13
17
02
0$
1#
#135000
b11011 "
1,
12
1$
#140000
b11111 "
b11101 "
b11100 "
0,
03
1.
02
07
0#
0$
#145000
b11101 "
1,
12
1$
#150000
b11111 "
b11110 "
0,
13
17
02
0$
1#
#155000
b11111 "
1,
12
1$
#160000
b111111 "
b101111 "
b100111 "
b100011 "
b100001 "
b100000 "
0,
03
0.
06
0-
14
07
02
0$
0#
#165000
b100001 "
1,
12
1$
#170000
b100011 "
b100010 "
0,
13
17
02
0$
1#
#175000
b100011 "
1,
12
1$
#180000
b100111 "
b100101 "
b100100 "
0,
03
1.
02
07
0#
0$
#185000
b100101 "
1,
12
1$
#190000
b100111 "
b100110 "
0,
13
17
02
0$
1#
#195000
b100111 "
1,
12
1$
#200000
b101111 "
b101011 "
b101001 "
b101000 "
0,
03
0.
16
07
02
0$
0#
#205000
b101001 "
1,
12
1$
#210000
b101011 "
b101010 "
0,
13
17
02
0$
1#
#215000
b101011 "
1,
12
1$
#220000
b101111 "
b101101 "
b101100 "
0,
03
1.
02
07
0#
0$
#225000
b101101 "
1,
12
1$
#230000
b101111 "
b101110 "
0,
13
17
02
0$
1#
#235000
b101111 "
1,
12
1$
#240000
b111111 "
b110111 "
b110011 "
b110001 "
b110000 "
0,
03
0.
06
1-
02
07
0#
0$
#245000
b110001 "
1,
12
1$
#250000
b110011 "
b110010 "
0,
13
17
02
0$
1#
#255000
b110011 "
1,
12
1$
#260000
b110111 "
b110101 "
b110100 "
0,
03
1.
02
07
0#
0$
#265000
b110101 "
1,
12
1$
#270000
b110111 "
b110110 "
0,
13
17
02
0$
1#
#275000
b110111 "
1,
12
1$
#280000
b111111 "
b111011 "
b111001 "
b111000 "
0,
03
0.
16
07
02
0$
0#
#285000
b111001 "
1,
12
1$
#290000
b111011 "
b111010 "
0,
13
17
02
0$
1#
#295000
b111011 "
1,
12
1$
#300000
b111111 "
b111101 "
b111100 "
0,
03
1.
02
07
0#
0$
#305000
b111101 "
1,
12
1$
#310000
b111111 "
b111110 "
0,
13
17
02
0$
1#
#315000
b111111 "
1,
12
1$
#320000
b1111111 "
b1011111 "
b1001111 "
b1000111 "
b1000011 "
b1000001 "
b1000000 "
0,
03
0.
06
0-
04
1/
02
07
0#
0$
#325000
b1000001 "
1,
12
1$
#330000
b1000011 "
b1000010 "
0,
13
17
02
0$
1#
#335000
b1000011 "
1,
12
1$
#340000
b1000111 "
b1000101 "
b1000100 "
0,
03
1.
02
07
0#
0$
#345000
b1000101 "
1,
12
1$
#350000
b1000111 "
b1000110 "
0,
13
17
02
0$
1#
#355000
b1000111 "
1,
12
1$
#360000
b1001111 "
b1001011 "
b1001001 "
b1001000 "
0,
03
0.
16
07
02
0$
0#
#365000
b1001001 "
1,
12
1$
#370000
b1001011 "
b1001010 "
0,
13
17
02
0$
1#
#375000
b1001011 "
1,
12
1$
#380000
b1001111 "
b1001101 "
b1001100 "
0,
03
1.
02
07
0#
0$
#385000
b1001101 "
1,
12
1$
#390000
b1001111 "
b1001110 "
0,
13
17
02
0$
1#
#395000
b1001111 "
1,
12
1$
#400000
b1011111 "
b1010111 "
b1010011 "
b1010001 "
b1010000 "
0,
03
0.
06
1-
02
07
0#
0$
#405000
b1010001 "
1,
12
1$
#410000
b1010011 "
b1010010 "
0,
13
17
02
0$
1#
#415000
b1010011 "
1,
12
1$
#420000
b1010111 "
b1010101 "
b1010100 "
0,
03
1.
02
07
0#
0$
#425000
b1010101 "
1,
12
1$
#430000
b1010111 "
b1010110 "
0,
13
17
02
0$
1#
#435000
b1010111 "
1,
12
1$
#440000
b1011111 "
b1011011 "
b1011001 "
b1011000 "
0,
03
0.
16
07
02
0$
0#
#445000
b1011001 "
1,
12
1$
#450000
b1011011 "
b1011010 "
0,
13
17
02
0$
1#
#455000
b1011011 "
1,
12
1$
#460000
b1011111 "
b1011101 "
b1011100 "
0,
03
1.
02
07
0#
0$
#465000
b1011101 "
1,
12
1$
#470000
b1011111 "
b1011110 "
0,
13
17
02
0$
1#
#475000
b1011111 "
1,
12
1$
#480000
b1111111 "
b1101111 "
b1100111 "
b1100011 "
b1100001 "
b1100000 "
0,
03
0.
06
0-
14
07
02
0$
0#
#485000
b1100001 "
1,
12
1$
#490000
b1100011 "
b1100010 "
0,
13
17
02
0$
1#
#495000
b1100011 "
1,
12
1$
#500000
b1100111 "
b1100101 "
b1100100 "
0,
03
1.
02
07
0#
0$
#505000
b1100101 "
1,
12
1$
#510000
b1100111 "
b1100110 "
0,
13
17
02
0$
1#
#515000
b1100111 "
1,
12
1$
#520000
b1101111 "
b1101011 "
b1101001 "
b1101000 "
0,
03
0.
16
07
02
0$
0#
#525000
b1101001 "
1,
12
1$
#530000
b1101011 "
b1101010 "
0,
13
17
02
0$
1#
#535000
b1101011 "
1,
12
1$
#540000
b1101111 "
b1101101 "
b1101100 "
0,
03
1.
02
07
0#
0$
#545000
b1101101 "
1,
12
1$
#550000
b1101111 "
b1101110 "
0,
13
17
02
0$
1#
#555000
b1101111 "
1,
12
1$
#560000
b1111111 "
b1110111 "
b1110011 "
b1110001 "
b1110000 "
0,
03
0.
06
1-
02
07
0#
0$
#565000
b1110001 "
1,
12
1$
#570000
b1110011 "
b1110010 "
0,
13
17
02
0$
1#
#575000
b1110011 "
1,
12
1$
#580000
b1110111 "
b1110101 "
b1110100 "
0,
03
1.
02
07
0#
0$
#585000
b1110101 "
1,
12
1$
#590000
b1110111 "
b1110110 "
0,
13
17
02
0$
1#
#595000
b1110111 "
1,
12
1$
#600000
b1111111 "
b1111011 "
b1111001 "
b1111000 "
0,
03
0.
16
07
02
0$
0#
#605000
b1111001 "
1,
12
1$
#610000
b1111011 "
b1111010 "
0,
13
17
02
0$
1#
#615000
b1111011 "
1,
12
1$
#620000
b1111111 "
b1111101 "
b1111100 "
0,
03
1.
02
07
0#
0$
#625000
b1111101 "
1,
12
1$
#630000
b1111111 "
b1111110 "
0,
13
17
02
0$
1#
#635000
b1111111 "
1,
12
1$
#640000
b11111111 "
b10111111 "
b10011111 "
b10001111 "
b10000111 "
b10000011 "
b10000001 "
b10000000 "
0,
03
0.
06
0-
04
0/
15
07
02
0$
0#
#645000
b10000001 "
1,
12
1$
#650000
b10000011 "
b10000010 "
0,
13
17
02
0$
1#
#655000
b10000011 "
1,
12
1$
#660000
b10000111 "
b10000101 "
b10000100 "
0,
03
1.
02
07
0#
0$
#665000
b10000101 "
1,
12
1$
#670000
b10000111 "
b10000110 "
0,
13
17
02
0$
1#
#675000
b10000111 "
1,
12
1$
#680000
b10001111 "
b10001011 "
b10001001 "
b10001000 "
0,
03
0.
16
07
02
0$
0#
#685000
b10001001 "
1,
12
1$
#690000
b10001011 "
b10001010 "
0,
13
17
02
0$
1#
#695000
b10001011 "
1,
12
1$
#700000
b10001111 "
b10001101 "
b10001100 "
0,
03
1.
02
07
0#
0$
#705000
b10001101 "
1,
12
1$
#710000
b10001111 "
b10001110 "
0,
13
17
02
0$
1#
#715000
b10001111 "
1,
12
1$
#720000
b10011111 "
b10010111 "
b10010011 "
b10010001 "
b10010000 "
0,
03
0.
06
1-
02
07
0#
0$
#725000
b10010001 "
1,
12
1$
#730000
b10010011 "
b10010010 "
0,
13
17
02
0$
1#
#735000
b10010011 "
1,
12
1$
#740000
b10010111 "
b10010101 "
b10010100 "
0,
03
1.
02
07
0#
0$
#745000
b10010101 "
1,
12
1$
#750000
b10010111 "
b10010110 "
0,
13
17
02
0$
1#
#755000
b10010111 "
1,
12
1$
#760000
b10011111 "
b10011011 "
b10011001 "
b10011000 "
0,
03
0.
16
07
02
0$
0#
#765000
b10011001 "
1,
12
1$
#770000
b10011011 "
b10011010 "
0,
13
17
02
0$
1#
#775000
b10011011 "
1,
12
1$
#780000
b10011111 "
b10011101 "
b10011100 "
0,
03
1.
02
07
0#
0$
#785000
b10011101 "
1,
12
1$
#790000
b10011111 "
b10011110 "
0,
13
17
02
0$
1#
#795000
b10011111 "
1,
12
1$
#800000
b10111111 "
b10101111 "
b10100111 "
b10100011 "
b10100001 "
b10100000 "
0,
03
0.
06
0-
14
07
02
0$
0#
#805000
b10100001 "
1,
12
1$
#810000
b10100011 "
b10100010 "
0,
13
17
02
0$
1#
#815000
b10100011 "
1,
12
1$
#820000
b10100111 "
b10100101 "
b10100100 "
0,
03
1.
02
07
0#
0$
#825000
b10100101 "
1,
12
1$
#830000
b10100111 "
b10100110 "
0,
13
17
02
0$
1#
#835000
b10100111 "
1,
12
1$
#840000
b10101111 "
b10101011 "
b10101001 "
b10101000 "
0,
03
0.
16
07
02
0$
0#
#845000
b10101001 "
1,
12
1$
#850000
b10101011 "
b10101010 "
0,
13
17
02
0$
1#
#855000
b10101011 "
1,
12
1$
#860000
b10101111 "
b10101101 "
b10101100 "
0,
03
1.
02
07
0#
0$
#865000
b10101101 "
1,
12
1$
#870000
b10101111 "
b10101110 "
0,
13
17
02
0$
1#
#875000
b10101111 "
1,
12
1$
#880000
b10111111 "
b10110111 "
b10110011 "
b10110001 "
b10110000 "
0,
03
0.
06
1-
02
07
0#
0$
#885000
b10110001 "
1,
12
1$
#890000
b10110011 "
b10110010 "
0,
13
17
02
0$
1#
#895000
b10110011 "
1,
12
1$
#900000
b10110111 "
b10110101 "
b10110100 "
0,
03
1.
02
07
0#
0$
#905000
b10110101 "
1,
12
1$
#910000
b10110111 "
b10110110 "
0,
13
17
02
0$
1#
#915000
b10110111 "
1,
12
1$
#920000
b10111111 "
b10111011 "
b10111001 "
b10111000 "
0,
03
0.
16
07
02
0$
0#
#925000
b10111001 "
1,
12
1$
#930000
b10111011 "
b10111010 "
0,
13
17
02
0$
1#
#935000
b10111011 "
1,
12
1$
#940000
b10111111 "
b10111101 "
b10111100 "
0,
03
1.
02
07
0#
0$
#945000
b10111101 "
1,
12
1$
#950000
b10111111 "
b10111110 "
0,
13
17
02
0$
1#
#955000
b10111111 "
1,
12
1$
#960000
b11111111 "
b11011111 "
b11001111 "
b11000111 "
b11000011 "
b11000001 "
b11000000 "
0,
03
0.
06
0-
04
1/
02
07
0#
0$
#965000
b11000001 "
1,
12
1$
#970000
b11000011 "
b11000010 "
0,
13
17
02
0$
1#
#975000
b11000011 "
1,
12
1$
#980000
b11000111 "
b11000101 "
b11000100 "
0,
03
1.
02
07
0#
0$
#985000
b11000101 "
1,
12
1$
#990000
b11000111 "
b11000110 "
0,
13
17
02
0$
1#
#995000
b11000111 "
1,
12
1$
#1000000
b11001111 "
b11001011 "
b11001001 "
b11001000 "
0,
03
0.
16
07
02
0$
0#
#1005000
b11001001 "
1,
12
1$
#1010000
b11001011 "
b11001010 "
0,
13
17
02
0$
1#
#1015000
b11001011 "
1,
12
1$
#1020000
b11001111 "
b11001101 "
b11001100 "
0,
03
1.
02
07
0#
0$
#1025000
b11001101 "
1,
12
1$
#1030000
b11001111 "
b11001110 "
0,
13
17
02
0$
1#
#1035000
b11001111 "
1,
12
1$
#1040000
b11011111 "
b11010111 "
b11010011 "
b11010001 "
b11010000 "
0,
03
0.
06
1-
02
07
0#
0$
#1045000
b11010001 "
1,
12
1$
#1050000
b11010011 "
b11010010 "
0,
13
17
02
0$
1#
#1055000
b11010011 "
1,
12
1$
#1060000
b11010111 "
b11010101 "
b11010100 "
0,
03
1.
02
07
0#
0$
#1065000
b11010101 "
1,
12
1$
#1070000
b11010111 "
b11010110 "
0,
13
17
02
0$
1#
#1075000
b11010111 "
1,
12
1$
#1080000
b11011111 "
b11011011 "
b11011001 "
b11011000 "
0,
03
0.
16
07
02
0$
0#
#1085000
b11011001 "
1,
12
1$
#1090000
b11011011 "
b11011010 "
0,
13
17
02
0$
1#
#1095000
b11011011 "
1,
12
1$
#1100000
b11011111 "
b11011101 "
b11011100 "
0,
03
1.
02
07
0#
0$
#1105000
b11011101 "
1,
12
1$
#1110000
b11011111 "
b11011110 "
0,
13
17
02
0$
1#
#1115000
b11011111 "
1,
12
1$
#1120000
b11111111 "
b11101111 "
b11100111 "
b11100011 "
b11100001 "
b11100000 "
0,
03
0.
06
0-
14
07
02
0$
0#
#1125000
b11100001 "
1,
12
1$
#1130000
b11100011 "
b11100010 "
0,
13
17
02
0$
1#
#1135000
b11100011 "
1,
12
1$
#1140000
b11100111 "
b11100101 "
b11100100 "
0,
03
1.
02
07
0#
0$
#1145000
b11100101 "
1,
12
1$
#1150000
b11100111 "
b11100110 "
0,
13
17
02
0$
1#
#1155000
b11100111 "
1,
12
1$
#1160000
b11101111 "
b11101011 "
b11101001 "
b11101000 "
0,
03
0.
16
07
02
0$
0#
#1165000
b11101001 "
1,
12
1$
#1170000
b11101011 "
b11101010 "
0,
13
17
02
0$
1#
#1175000
b11101011 "
1,
12
1$
#1180000
b11101111 "
b11101101 "
b11101100 "
0,
03
1.
02
07
0#
0$
#1185000
b11101101 "
1,
12
1$
#1190000
b11101111 "
b11101110 "
0,
13
17
02
0$
1#
#1195000
b11101111 "
1,
12
1$
#1200000
b11111111 "
b11110111 "
b11110011 "
b11110001 "
b11110000 "
0,
03
0.
06
1-
02
07
0#
0$
#1205000
b11110001 "
1,
12
1$
#1210000
b11110011 "
b11110010 "
0,
13
17
02
0$
1#
#1215000
b11110011 "
1,
12
1$
#1220000
b11110111 "
b11110101 "
b11110100 "
0,
03
1.
02
07
0#
0$
#1225000
b11110101 "
1,
12
1$
#1230000
b11110111 "
b11110110 "
0,
13
17
02
0$
1#
#1235000
b11110111 "
1,
12
1$
#1240000
b11111111 "
b11111011 "
b11111001 "
b11111000 "
0,
03
0.
16
07
02
0$
0#
#1245000
b11111001 "
1,
12
1$
#1250000
b11111011 "
b11111010 "
0,
13
17
02
0$
1#
#1255000
b11111011 "
1,
12
1$
#1260000
b11111111 "
b11111101 "
b11111100 "
0,
03
1.
02
07
0#
0$
#1265000
b11111101 "
1,
12
1$
#1270000
b11111111 "
b11111110 "
0,
13
17
02
0$
1#
#1275000
b11111111 "
1,
12
1$
#1280000
b1 !
b1111111 "
b111111 "
b11111 "
b1111 "
b111 "
b11 "
b1 "
b0 "
0,
03
0.
06
0-
04
0/
05
10
07
02
0$
0#
#1285000
b1 "
1,
#1290000
b11 "
b10 "
0,
13
#1295000
b11 "
1,
#1300000
b111 "
b101 "
b100 "
0,
03
1.
12
1$
#1305000
b101 "
1,
#1310000
b111 "
b110 "
0,
13
#1315000
b111 "
1,
#1320000
b1111 "
b1011 "
b1001 "
b1000 "
0,
03
0.
16
17
02
0$
1#
#1325000
b1001 "
1,
#1330000
b1011 "
b1010 "
0,
13
#1335000
b1011 "
1,
#1340000
b1111 "
b1101 "
b1100 "
0,
03
1.
12
1$
#1345000
b1101 "
1,
#1350000
b1111 "
b1110 "
0,
13
#1355000
b1111 "
1,
#1360000
b11111 "
b10111 "
b10011 "
b10001 "
b10000 "
0,
03
0.
06
1-
02
07
0#
0$
#1365000
b10001 "
1,
#1370000
b10011 "
b10010 "
0,
13
#1375000
b10011 "
1,
#1380000
b10111 "
b10101 "
b10100 "
0,
03
1.
12
1$
#1385000
b10101 "
1,
#1390000
b10111 "
b10110 "
0,
13
#1395000
b10111 "
1,
#1400000
b11111 "
b11011 "
b11001 "
b11000 "
0,
03
0.
16
17
02
0$
1#
#1405000
b11001 "
1,
#1410000
b11011 "
b11010 "
0,
13
#1415000
b11011 "
1,
#1420000
b11111 "
b11101 "
b11100 "
0,
03
1.
12
1$
#1425000
b11101 "
1,
#1430000
b11111 "
b11110 "
0,
13
#1435000
b11111 "
1,
#1440000
b111111 "
b101111 "
b100111 "
b100011 "
b100001 "
b100000 "
0,
03
0.
06
0-
14
07
02
0$
0#
#1445000
b100001 "
1,
#1450000
b100011 "
b100010 "
0,
13
#1455000
b100011 "
1,
#1460000
b100111 "
b100101 "
b100100 "
0,
03
1.
12
1$
#1465000
b100101 "
1,
#1470000
b100111 "
b100110 "
0,
13
#1475000
b100111 "
1,
#1480000
b101111 "
b101011 "
b101001 "
b101000 "
0,
03
0.
16
17
02
0$
1#
#1485000
b101001 "
1,
#1490000
b101011 "
b101010 "
0,
13
#1495000
b101011 "
1,
#1500000
b101111 "
b101101 "
b101100 "
0,
03
1.
12
1$
#1505000
b101101 "
1,
#1510000
b101111 "
b101110 "
0,
13
#1515000
b101111 "
1,
#1520000
b111111 "
b110111 "
b110011 "
b110001 "
b110000 "
0,
03
0.
06
1-
02
07
0#
0$
#1525000
b110001 "
1,
#1530000
b110011 "
b110010 "
0,
13
#1535000
b110011 "
1,
#1540000
b110111 "
b110101 "
b110100 "
0,
03
1.
12
1$
#1545000
b110101 "
1,
#1550000
b110111 "
b110110 "
0,
13
#1555000
b110111 "
1,
#1560000
b111111 "
b111011 "
b111001 "
b111000 "
0,
03
0.
16
17
02
0$
1#
#1565000
b111001 "
1,
#1570000
b111011 "
b111010 "
0,
13
#1575000
b111011 "
1,
#1580000
b111111 "
b111101 "
b111100 "
0,
03
1.
12
1$
#1585000
b111101 "
1,
#1590000
b111111 "
b111110 "
0,
13
#1595000
b111111 "
1,
#1600000
b1111111 "
b1011111 "
b1001111 "
b1000111 "
b1000011 "
b1000001 "
b1000000 "
0,
03
0.
06
0-
04
1/
02
07
0#
0$
#1605000
b1000001 "
1,
#1610000
b1000011 "
b1000010 "
0,
13
#1615000
b1000011 "
1,
#1620000
b1000111 "
b1000101 "
b1000100 "
0,
03
1.
12
1$
#1625000
b1000101 "
1,
#1630000
b1000111 "
b1000110 "
0,
13
#1635000
b1000111 "
1,
#1640000
b1001111 "
b1001011 "
b1001001 "
b1001000 "
0,
03
0.
16
17
02
0$
1#
#1645000
b1001001 "
1,
#1650000
b1001011 "
b1001010 "
0,
13
#1655000
b1001011 "
1,
#1660000
b1001111 "
b1001101 "
b1001100 "
0,
03
1.
12
1$
#1665000
b1001101 "
1,
#1670000
b1001111 "
b1001110 "
0,
13
#1675000
b1001111 "
1,
#1680000
b1011111 "
b1010111 "
b1010011 "
b1010001 "
b1010000 "
0,
03
0.
06
1-
02
07
0#
0$
#1685000
b1010001 "
1,
#1690000
b1010011 "
b1010010 "
0,
13
#1695000
b1010011 "
1,
#1700000
b1010111 "
b1010101 "
b1010100 "
0,
03
1.
12
1$
#1705000
b1010101 "
1,
#1710000
b1010111 "
b1010110 "
0,
13
#1715000
b1010111 "
1,
#1720000
b1011111 "
b1011011 "
b1011001 "
b1011000 "
0,
03
0.
16
17
02
0$
1#
#1725000
b1011001 "
1,
#1730000
b1011011 "
b1011010 "
0,
13
#1735000
b1011011 "
1,
#1740000
b1011111 "
b1011101 "
b1011100 "
0,
03
1.
12
1$
#1745000
b1011101 "
1,
#1750000
b1011111 "
b1011110 "
0,
13
#1755000
b1011111 "
1,
#1760000
b1111111 "
b1101111 "
b1100111 "
b1100011 "
b1100001 "
b1100000 "
0,
03
0.
06
0-
14
07
02
0$
0#
#1765000
b1100001 "
1,
#1770000
b1100011 "
b1100010 "
0,
13
#1775000
b1100011 "
1,
#1780000
b1100111 "
b1100101 "
b1100100 "
0,
03
1.
12
1$
#1785000
b1100101 "
1,
#1790000
b1100111 "
b1100110 "
0,
13
#1795000
b1100111 "
1,
#1800000
b1101111 "
b1101011 "
b1101001 "
b1101000 "
0,
03
0.
16
17
02
0$
1#
#1805000
b1101001 "
1,
#1810000
b1101011 "
b1101010 "
0,
13
#1815000
b1101011 "
1,
#1820000
b1101111 "
b1101101 "
b1101100 "
0,
03
1.
12
1$
#1825000
b1101101 "
1,
#1830000
b1101111 "
b1101110 "
0,
13
#1835000
b1101111 "
1,
#1840000
b1111111 "
b1110111 "
b1110011 "
b1110001 "
b1110000 "
0,
03
0.
06
1-
02
07
0#
0$
#1845000
b1110001 "
1,
#1850000
b1110011 "
b1110010 "
0,
13
#1855000
b1110011 "
1,
#1860000
b1110111 "
b1110101 "
b1110100 "
0,
03
1.
12
1$
#1865000
b1110101 "
1,
#1870000
b1110111 "
b1110110 "
0,
13
#1875000
b1110111 "
1,
#1880000
b1111111 "
b1111011 "
b1111001 "
b1111000 "
0,
03
0.
16
17
02
0$
1#
#1885000
b1111001 "
1,
#1890000
b1111011 "
b1111010 "
0,
13
#1895000
b1111011 "
1,
#1900000
b1111111 "
b1111101 "
b1111100 "
0,
03
1.
12
1$
#1905000
b1111101 "
1,
#1910000
b1111111 "
b1111110 "
0,
13
#1915000
b1111111 "
1,
#1920000
b11111111 "
b10111111 "
b10011111 "
b10001111 "
b10000111 "
b10000011 "
b10000001 "
b10000000 "
0,
03
0.
06
0-
04
0/
15
07
02
0$
0#
#1925000
b10000001 "
1,
#1930000
b10000011 "
b10000010 "
0,
13
#1935000
b10000011 "
1,
#1940000
b10000111 "
b10000101 "
b10000100 "
0,
03
1.
12
1$
#1945000
b10000101 "
1,
#1950000
b10000111 "
b10000110 "
0,
13
#1955000
b10000111 "
1,
#1960000
b10001111 "
b10001011 "
b10001001 "
b10001000 "
0,
03
0.
16
17
02
0$
1#
#1965000
b10001001 "
1,
#1970000
b10001011 "
b10001010 "
0,
13
#1975000
b10001011 "
1,
#1980000
b10001111 "
b10001101 "
b10001100 "
0,
03
1.
12
1$
#1985000
b10001101 "
1,
#1990000
b10001111 "
b10001110 "
0,
13
#1995000
b10001111 "
1,
#2000000
b10011111 "
b10010111 "
b10010011 "
b10010001 "
b10010000 "
0,
03
0.
06
1-
02
07
0#
0$
#2005000
b10010001 "
1,
#2010000
b10010011 "
b10010010 "
0,
13
#2015000
b10010011 "
1,
#2020000
b10010111 "
b10010101 "
b10010100 "
0,
03
1.
12
1$
#2025000
b10010101 "
1,
#2030000
b10010111 "
b10010110 "
0,
13
#2035000
b10010111 "
1,
#2040000
b10011111 "
b10011011 "
b10011001 "
b10011000 "
0,
03
0.
16
17
02
0$
1#
#2045000
b10011001 "
1,
#2050000
b10011011 "
b10011010 "
0,
13
#2055000
b10011011 "
1,
#2060000
b10011111 "
b10011101 "
b10011100 "
0,
03
1.
12
1$
#2065000
b10011101 "
1,
#2070000
b10011111 "
b10011110 "
0,
13
#2075000
b10011111 "
1,
#2080000
b10111111 "
b10101111 "
b10100111 "
b10100011 "
b10100001 "
b10100000 "
0,
03
0.
06
0-
14
07
02
0$
0#
#2085000
b10100001 "
1,
#2090000
b10100011 "
b10100010 "
0,
13
#2095000
b10100011 "
1,
#2100000
b10100111 "
b10100101 "
b10100100 "
0,
03
1.
12
1$
#2105000
b10100101 "
1,
#2110000
b10100111 "
b10100110 "
0,
13
#2115000
b10100111 "
1,
#2120000
b10101111 "
b10101011 "
b10101001 "
b10101000 "
0,
03
0.
16
17
02
0$
1#
#2125000
b10101001 "
1,
#2130000
b10101011 "
b10101010 "
0,
13
#2135000
b10101011 "
1,
#2140000
b10101111 "
b10101101 "
b10101100 "
0,
03
1.
12
1$
#2145000
b10101101 "
1,
#2150000
b10101111 "
b10101110 "
0,
13
#2155000
b10101111 "
1,
#2160000
b10111111 "
b10110111 "
b10110011 "
b10110001 "
b10110000 "
0,
03
0.
06
1-
02
07
0#
0$
#2165000
b10110001 "
1,
#2170000
b10110011 "
b10110010 "
0,
13
#2175000
b10110011 "
1,
#2180000
b10110111 "
b10110101 "
b10110100 "
0,
03
1.
12
1$
#2185000
b10110101 "
1,
#2190000
b10110111 "
b10110110 "
0,
13
#2195000
b10110111 "
1,
#2200000
b10111111 "
b10111011 "
b10111001 "
b10111000 "
0,
03
0.
16
17
02
0$
1#
#2205000
b10111001 "
1,
#2210000
b10111011 "
b10111010 "
0,
13
#2215000
b10111011 "
1,
#2220000
b10111111 "
b10111101 "
b10111100 "
0,
03
1.
12
1$
#2225000
b10111101 "
1,
#2230000
b10111111 "
b10111110 "
0,
13
#2235000
b10111111 "
1,
#2240000
b11111111 "
b11011111 "
b11001111 "
b11000111 "
b11000011 "
b11000001 "
b11000000 "
0,
03
0.
06
0-
04
1/
02
07
0#
0$
#2245000
b11000001 "
1,
#2250000
b11000011 "
b11000010 "
0,
13
#2255000
b11000011 "
1,
#2260000
b11000111 "
b11000101 "
b11000100 "
0,
03
1.
12
1$
#2265000
b11000101 "
1,
#2270000
b11000111 "
b11000110 "
0,
13
#2275000
b11000111 "
1,
#2280000
b11001111 "
b11001011 "
b11001001 "
b11001000 "
0,
03
0.
16
17
02
0$
1#
#2285000
b11001001 "
1,
#2290000
b11001011 "
b11001010 "
0,
13
#2295000
b11001011 "
1,
#2300000
b11001111 "
b11001101 "
b11001100 "
0,
03
1.
12
1$
#2305000
b11001101 "
1,
#2310000
b11001111 "
b11001110 "
0,
13
#2315000
b11001111 "
1,
#2320000
b11011111 "
b11010111 "
b11010011 "
b11010001 "
b11010000 "
0,
03
0.
06
1-
02
07
0#
0$
#2325000
b11010001 "
1,
#2330000
b11010011 "
b11010010 "
0,
13
#2335000
b11010011 "
1,
#2340000
b11010111 "
b11010101 "
b11010100 "
0,
03
1.
12
1$
#2345000
b11010101 "
1,
#2350000
b11010111 "
b11010110 "
0,
13
#2355000
b11010111 "
1,
#2360000
b11011111 "
b11011011 "
b11011001 "
b11011000 "
0,
03
0.
16
17
02
0$
1#
#2365000
b11011001 "
1,
#2370000
b11011011 "
b11011010 "
0,
13
#2375000
b11011011 "
1,
#2380000
b11011111 "
b11011101 "
b11011100 "
0,
03
1.
12
1$
#2385000
b11011101 "
1,
#2390000
b11011111 "
b11011110 "
0,
13
#2395000
b11011111 "
1,
#2400000
b11111111 "
b11101111 "
b11100111 "
b11100011 "
b11100001 "
b11100000 "
0,
03
0.
06
0-
14
07
02
0$
0#
#2405000
b11100001 "
1,
#2410000
b11100011 "
b11100010 "
0,
13
#2415000
b11100011 "
1,
#2420000
b11100111 "
b11100101 "
b11100100 "
0,
03
1.
12
1$
#2425000
b11100101 "
1,
#2430000
b11100111 "
b11100110 "
0,
13
#2435000
b11100111 "
1,
#2440000
b11101111 "
b11101011 "
b11101001 "
b11101000 "
0,
03
0.
16
17
02
0$
1#
#2445000
b11101001 "
1,
#2450000
b11101011 "
b11101010 "
0,
13
#2455000
b11101011 "
1,
#2460000
b11101111 "
b11101101 "
b11101100 "
0,
03
1.
12
1$
#2465000
b11101101 "
1,
#2470000
b11101111 "
b11101110 "
0,
13
#2475000
b11101111 "
1,
#2480000
b11111111 "
b11110111 "
b11110011 "
b11110001 "
b11110000 "
0,
03
0.
06
1-
02
07
0#
0$
#2485000
b11110001 "
1,
#2490000
b11110011 "
b11110010 "
0,
13
#2495000
b11110011 "
1,
#2500000
b11110111 "
b11110101 "
b11110100 "
0,
03
1.
12
1$
#2505000
b11110101 "
1,
#2510000
b11110111 "
b11110110 "
0,
13
#2515000
b11110111 "
1,
#2520000
b11111111 "
b11111011 "
b11111001 "
b11111000 "
0,
03
0.
16
17
02
0$
1#
#2525000
b11111001 "
1,
#2530000
b11111011 "
b11111010 "
0,
13
#2535000
b11111011 "
1,
#2540000
b11111111 "
b11111101 "
b11111100 "
0,
03
1.
12
1$
#2545000
b11111101 "
1,
#2550000
b11111111 "
b11111110 "
0,
13
