ps9/zad1/simulation/qsim/my_ram32x4.msim.vcd
$comment
	File created using the following command:
		vcd file my_ram32x4.msim.vcd -direction
$end
$date
	Thu Apr 25 10:49:21 2019
$end
$version
	ModelSim Version 10.5b
$end
$timescale
	1ps
$end

$scope module my_ram32x4_vlg_vec_tst $end
$var reg 5 ! Address [4:0] $end
$var reg 4 " DataIn [3:0] $end
$var reg 1 # Write $end
$var reg 1 $ clk $end
$var wire 1 % DataOut [3] $end
$var wire 1 & DataOut [2] $end
$var wire 1 ' DataOut [1] $end
$var wire 1 ( DataOut [0] $end

$scope module i1 $end
$var wire 1 ) gnd $end
$var wire 1 * vcc $end
$var wire 1 + unknown $end
$var tri1 1 , devclrn $end
$var tri1 1 - devpor $end
$var tri1 1 . devoe $end
$var wire 1 / ~QUARTUS_CREATED_GND~I_combout $end
$var wire 1 0 Write~input_o $end
$var wire 1 1 clk~input_o $end
$var wire 1 2 clk~inputCLKENA0_outclk $end
$var wire 1 3 DataIn[0]~input_o $end
$var wire 1 4 Address[0]~input_o $end
$var wire 1 5 Address[1]~input_o $end
$var wire 1 6 Address[2]~input_o $end
$var wire 1 7 Address[3]~input_o $end
$var wire 1 8 Address[4]~input_o $end
$var wire 1 9 DataIn[1]~input_o $end
$var wire 1 : DataIn[2]~input_o $end
$var wire 1 ; DataIn[3]~input_o $end
$var wire 1 < my|altsyncram_component|auto_generated|q_a [3] $end
$var wire 1 = my|altsyncram_component|auto_generated|q_a [2] $end
$var wire 1 > my|altsyncram_component|auto_generated|q_a [1] $end
$var wire 1 ? my|altsyncram_component|auto_generated|q_a [0] $end
$var wire 1 @ my|altsyncram_component|auto_generated|ram_block1a0_PORTADATAOUT_bus [19] $end
$var wire 1 A my|altsyncram_component|auto_generated|ram_block1a0_PORTADATAOUT_bus [18] $end
$var wire 1 B my|altsyncram_component|auto_generated|ram_block1a0_PORTADATAOUT_bus [17] $end
$var wire 1 C my|altsyncram_component|auto_generated|ram_block1a0_PORTADATAOUT_bus [16] $end
$var wire 1 D my|altsyncram_component|auto_generated|ram_block1a0_PORTADATAOUT_bus [15] $end
$var wire 1 E my|altsyncram_component|auto_generated|ram_block1a0_PORTADATAOUT_bus [14] $end
$var wire 1 F my|altsyncram_component|auto_generated|ram_block1a0_PORTADATAOUT_bus [13] $end
$var wire 1 G my|altsyncram_component|auto_generated|ram_block1a0_PORTADATAOUT_bus [12] $end
$var wire 1 H my|altsyncram_component|auto_generated|ram_block1a0_PORTADATAOUT_bus [11] $end
$var wire 1 I my|altsyncram_component|auto_generated|ram_block1a0_PORTADATAOUT_bus [10] $end
$var wire 1 J my|altsyncram_component|auto_generated|ram_block1a0_PORTADATAOUT_bus [9] $end
$var wire 1 K my|altsyncram_component|auto_generated|ram_block1a0_PORTADATAOUT_bus [8] $end
$var wire 1 L my|altsyncram_component|auto_generated|ram_block1a0_PORTADATAOUT_bus [7] $end
$var wire 1 M my|altsyncram_component|auto_generated|ram_block1a0_PORTADATAOUT_bus [6] $end
$var wire 1 N my|altsyncram_component|auto_generated|ram_block1a0_PORTADATAOUT_bus [5] $end
$var wire 1 O my|altsyncram_component|auto_generated|ram_block1a0_PORTADATAOUT_bus [4] $end
$var wire 1 P my|altsyncram_component|auto_generated|ram_block1a0_PORTADATAOUT_bus [3] $end
$var wire 1 Q my|altsyncram_component|auto_generated|ram_block1a0_PORTADATAOUT_bus [2] $end
$var wire 1 R my|altsyncram_component|auto_generated|ram_block1a0_PORTADATAOUT_bus [1] $end
$var wire 1 S my|altsyncram_component|auto_generated|ram_block1a0_PORTADATAOUT_bus [0] $end
$upscope $end
$upscope $end
$enddefinitions $end
#0
$dumpvars
b0 !
b1111 "
1#
0$
0(
0'
0&
0%
0)
1*
x+
1,
1-
1.
0/
10
01
02
13
04
05
06
07
08
19
1:
1;
0?
0>
0=
0<
0S
0R
0Q
0P
0O
0N
0M
0L
0K
0J
0I
0H
0G
0F
0E
0D
0C
0B
0A
0@
$end
#5000
1$
11
12
#5001
1S
1R
1Q
1P
1?
1>
1=
1<
1%
1&
1'
1(
#10000
b1 !
b1110 "
0$
03
14
01
02
#15000
1$
11
12
#15001
0S
0?
0(
#20000
b11 !
b1100 "
b10 !
b1101 "
0$
13
09
04
15
01
02
#25000
1$
11
12
#25001
1S
0R
1?
0>
0'
1(
#30000
b11 !
b1100 "
0$
03
14
01
02
#35000
1$
11
12
#35001
0S
0?
0(
#40000
b111 !
b1000 "
b101 !
b1010 "
b100 !
b1011 "
0$
13
19
0:
04
05
16
01
02
#45000
1$
11
12
#45001
1S
1R
0Q
1?
1>
0=
0&
1'
1(
#50000
b101 !
b1010 "
0$
03
14
01
02
#55000
1$
11
12
#55001
0S
0?
0(
#60000
b111 !
b1000 "
b110 !
b1001 "
0$
13
09
04
15
01
02
#65000
1$
11
12
#65001
1S
0R
1?
0>
0'
1(
#70000
b111 !
b1000 "
0$
03
14
01
02
#75000
1$
11
12
#75001
0S
0?
0(
#80000
b1111 !
b0 "
b1011 !
b100 "
b1001 !
b110 "
b1000 !
b111 "
0$
13
19
1:
0;
04
05
06
17
01
02
#85000
1$
11
12
#85001
1S
1R
1Q
0P
1?
1>
1=
0<
0%
1&
1'
1(
#90000
b1001 !
b110 "
0$
03
14
01
02
#95000
1$
11
12
#95001
0S
0?
0(
#100000
b1011 !
b100 "
b1010 !
b101 "
0$
13
09
04
15
01
02
#105000
1$
11
12
#105001
1S
0R
1?
0>
0'
1(
#110000
b1011 !
b100 "
0$
03
14
01
02
#115000
1$
11
12
#115001
0S
0?
0(
#120000
b1111 !
b0 "
b1101 !
b10 "
b1100 !
b11 "
0$
13
19
0:
04
05
16
01
02
#125000
1$
11
12
#125001
1S
1R
0Q
1?
1>
0=
0&
1'
1(
#130000
b1101 !
b10 "
0$
03
14
01
02
#135000
1$
11
12
#135001
0S
0?
0(
#140000
b1111 !
b0 "
b1110 !
b1 "
0$
13
09
04
15
01
02
#145000
1$
11
12
#145001
1S
0R
1?
0>
0'
1(
#150000
b1111 !
b0 "
0$
03
14
01
02
#155000
1$
11
12
#155001
0S
0?
0(
#160000
b11111 !
0#
b10111 !
b10011 !
b10001 !
b10000 !
0$
04
05
06
07
18
00
01
02
#165000
1$
11
12
#170000
b10001 !
0$
14
01
02
#175000
1$
11
12
#180000
b10011 !
b10010 !
0$
04
15
01
02
#185000
1$
11
12
#190000
b10011 !
0$
14
01
02
#195000
1$
11
12
#200000
b10111 !
b10101 !
b10100 !
0$
04
05
16
01
02
#205000
1$
11
12
#210000
b10101 !
0$
14
01
02
#215000
1$
11
12
#220000
b10111 !
b10110 !
0$
04
15
01
02
#225000
1$
11
12
#230000
b10111 !
0$
14
01
02
#235000
1$
11
12
#240000
b11111 !
b11011 !
b11001 !
b11000 !
0$
04
05
06
17
01
02
#245000
1$
11
12
#250000
b11001 !
0$
14
01
02
#255000
1$
11
12
#260000
b11011 !
b11010 !
0$
04
15
01
02
#265000
1$
11
12
#270000
b11011 !
0$
14
01
02
#275000
1$
11
12
#280000
b11111 !
b11101 !
b11100 !
0$
04
05
16
01
02
#285000
1$
11
12
#290000
b11101 !
0$
14
01
02
#295000
1$
11
12
#300000
b11111 !
b11110 !
0$
04
15
01
02
#305000
1$
11
12
#310000
b11111 !
0$
14
01
02
#315000
1$
11
12
#320000
b1111 !
b111 !
b11 !
b1 !
b0 !
0$
04
05
06
07
08
01
02
#325000
1$
11
12
#325001
1S
1R
1Q
1P
1?
1>
1=
1<
1%
1&
1'
1(
#330000
b1 !
0$
14
01
02
#335000
1$
11
12
#335001
0S
0?
0(
#340000
b11 !
b10 !
0$
04
15
01
02
#345000
1$
11
12
#345001
1S
0R
1?
0>
0'
1(
#350000
b11 !
0$
14
01
02
#355000
1$
11
12
#355001
0S
0?
0(
#360000
b111 !
b101 !
b100 !
0$
04
05
16
01
02
#365000
1$
11
12
#365001
1S
1R
0Q
1?
1>
0=
0&
1'
1(
#370000
b101 !
0$
14
01
02
#375000
1$
11
12
#375001
0S
0?
0(
#380000
b111 !
b110 !
0$
04
15
01
02
#385000
1$
11
12
#385001
1S
0R
1?
0>
0'
1(
#390000
b111 !
0$
14
01
02
#395000
1$
11
12
#395001
0S
0?
0(
#400000
b1111 !
b1011 !
b1001 !
b1000 !
0$
04
05
06
17
01
02
#405000
1$
11
12
#405001
1S
1R
1Q
0P
1?
1>
1=
0<
0%
1&
1'
1(
#410000
b1001 !
0$
14
01
02
#415000
1$
11
12
#415001
0S
0?
0(
#420000
b1011 !
b1010 !
0$
04
15
01
02
#425000
1$
11
12
#425001
1S
0R
1?
0>
0'
1(
#430000
b1011 !
0$
14
01
02
#435000
1$
11
12
#435001
0S
0?
0(
#440000
b1111 !
b1101 !
b1100 !
0$
04
05
16
01
02
#445000
1$
11
12
#445001
1S
1R
0Q
1?
1>
0=
0&
1'
1(
#450000
b1101 !
0$
14
01
02
#455000
1$
11
12
#455001
0S
0?
0(
#460000
b1111 !
b1110 !
0$
04
15
01
02
#465000
1$
11
12
#465001
1S
0R
1?
0>
0'
1(
#470000
b1111 !
0$
14
01
02
#475000
1$
11
12
#475001
0S
0?
0(
#480000
b11111 !
b10111 !
b10011 !
b10001 !
b10000 !
0$
04
05
06
07
18
01
02
#485000
1$
11
12
#490000
b10001 !
0$
14
01
02
#495000
1$
11
12
#500000
b10011 !
b10010 !
0$
04
15
01
02
#505000
1$
11
12
#510000
b10011 !
0$
14
01
02
#515000
1$
11
12
#520000
b10111 !
b10101 !
b10100 !
0$
04
05
16
01
02
#525000
1$
11
12
#530000
b10101 !
0$
14
01
02
#535000
1$
11
12
#540000
b10111 !
b10110 !
0$
04
15
01
02
#545000
1$
11
12
#550000
b10111 !
0$
14
01
02
#555000
1$
11
12
#560000
b11111 !
b11011 !
b11001 !
b11000 !
0$
04
05
06
17
01
02
#565000
1$
11
12
#570000
b11001 !
0$
14
01
02
#575000
1$
11
12
#580000
b11011 !
b11010 !
0$
04
15
01
02
#585000
1$
11
12
#590000
b11011 !
0$
14
01
02
#595000
1$
11
12
#600000
b11111 !
b11101 !
b11100 !
0$
04
05
16
01
02
#605000
1$
11
12
#610000
b11101 !
0$
14
01
02
#615000
1$
11
12
#620000
b11111 !
b11110 !
0$
04
15
01
02
#625000
1$
11
12
#630000
b11111 !
0$
14
01
02
#635000
1$
11
12
#640000
b1111 !
b111 !
b11 !
b1 !
b0 !
0$
04
05
06
07
08
01
02
#645000
1$
11
12
#645001
1S
1R
1Q
1P
1?
1>
1=
1<
1%
1&
1'
1(
#650000
b1 !
0$
14
01
02
#655000
1$
11
12
#655001
0S
0?
0(
#660000
b11 !
b10 !
0$
04
15
01
02
#665000
1$
11
12
#665001
1S
0R
1?
0>
0'
1(
#670000
b11 !
0$
14
01
02
#675000
1$
11
12
#675001
0S
0?
0(
#680000
b111 !
b101 !
b100 !
0$
04
05
16
01
02
#685000
1$
11
12
#685001
1S
1R
0Q
1?
1>
0=
0&
1'
1(
#690000
b101 !
0$
14
01
02
#695000
1$
11
12
#695001
0S
0?
0(
#700000
b111 !
b110 !
0$
04
15
01
02
#705000
1$
11
12
#705001
1S
0R
1?
0>
0'
1(
#710000
b111 !
0$
14
01
02
#715000
1$
11
12
#715001
0S
0?
0(
#720000
b1111 !
b1011 !
b1001 !
b1000 !
0$
04
05
06
17
01
02
#725000
1$
11
12
#725001
1S
1R
1Q
0P
1?
1>
1=
0<
0%
1&
1'
1(
#730000
b1001 !
0$
14
01
02
#735000
1$
11
12
#735001
0S
0?
0(
#740000
b1011 !
b1010 !
0$
04
15
01
02
#745000
1$
11
12
#745001
1S
0R
1?
0>
0'
1(
#750000
b1011 !
0$
14
01
02
#755000
1$
11
12
#755001
0S
0?
0(
#760000
b1111 !
b1101 !
b1100 !
0$
04
05
16
01
02
#765000
1$
11
12
#765001
1S
1R
0Q
1?
1>
0=
0&
1'
1(
#770000
b1101 !
0$
14
01
02
#775000
1$
11
12
#775001
0S
0?
0(
#780000
b1111 !
b1110 !
0$
04
15
01
02
#785000
1$
11
12
#785001
1S
0R
1?
0>
0'
1(
#790000
b1111 !
0$
14
01
02
#795000
1$
11
12
#795001
0S
0?
0(
#800000
b11111 !
b10111 !
b10011 !
b10001 !
b10000 !
0$
04
05
06
07
18
01
02
#805000
1$
11
12
#810000
b10001 !
0$
14
01
02
#815000
1$
11
12
#820000
b10011 !
b10010 !
0$
04
15
01
02
#825000
1$
11
12
#830000
b10011 !
0$
14
01
02
#835000
1$
11
12
#840000
b10111 !
b10101 !
b10100 !
0$
04
05
16
01
02
#845000
1$
11
12
#850000
b10101 !
0$
14
01
02
#855000
1$
11
12
#860000
b10111 !
b10110 !
0$
04
15
01
02
#865000
1$
11
12
#870000
b10111 !
0$
14
01
02
#875000
1$
11
12
#880000
b11111 !
b11011 !
b11001 !
b11000 !
0$
04
05
06
17
01
02
#885000
1$
11
12
#890000
b11001 !
0$
14
01
02
#895000
1$
11
12
#900000
b11011 !
b11010 !
0$
04
15
01
02
#905000
1$
11
12
#910000
b11011 !
0$
14
01
02
#915000
1$
11
12
#920000
b11111 !
b11101 !
b11100 !
0$
04
05
16
01
02
#925000
1$
11
12
#930000
b11101 !
0$
14
01
02
#935000
1$
11
12
#940000
b11111 !
b11110 !
0$
04
15
01
02
#945000
1$
11
12
#950000
b11111 !
0$
14
01
02
#955000
1$
11
12
#960000
b1111 !
b111 !
b11 !
b1 !
b0 !
0$
04
05
06
07
08
01
02
#965000
1$
11
12
#965001
1S
1R
1Q
1P
1?
1>
1=
1<
1%
1&
1'
1(
#970000
b1 !
0$
14
01
02
#975000
1$
11
12
#975001
0S
0?
0(
#980000
b11 !
b10 !
0$
04
15
01
02
#985000
1$
11
12
#985001
1S
0R
1?
0>
0'
1(
#990000
b11 !
0$
14
01
02
#995000
1$
11
12
#995001
0S
0?
0(
