ps3/zad1/decoder_hex_10_board/simulation/qsim/decoder_hex_10_board.msim.vcd
$comment
	File created using the following command:
		vcd file decoder_hex_10_board.msim.vcd -direction
$end
$date
	Wed Mar 13 21:59:31 2019
$end
$version
	ModelSim Version 10.5b
$end
$timescale
	1ps
$end

$scope module decoder_hex_10_board_vlg_vec_tst $end
$var reg 8 ! SW [7:0] $end
$var wire 1 " HEX0 [0] $end
$var wire 1 # HEX0 [1] $end
$var wire 1 $ HEX0 [2] $end
$var wire 1 % HEX0 [3] $end
$var wire 1 & HEX0 [4] $end
$var wire 1 ' HEX0 [5] $end
$var wire 1 ( HEX0 [6] $end
$var wire 1 ) HEX1 [0] $end
$var wire 1 * HEX1 [1] $end
$var wire 1 + HEX1 [2] $end
$var wire 1 , HEX1 [3] $end
$var wire 1 - HEX1 [4] $end
$var wire 1 . HEX1 [5] $end
$var wire 1 / HEX1 [6] $end
$var wire 1 0 LEDR [9] $end
$var wire 1 1 LEDR [8] $end
$var wire 1 2 LEDR [7] $end
$var wire 1 3 LEDR [6] $end
$var wire 1 4 LEDR [5] $end
$var wire 1 5 LEDR [4] $end
$var wire 1 6 LEDR [3] $end
$var wire 1 7 LEDR [2] $end
$var wire 1 8 LEDR [1] $end
$var wire 1 9 LEDR [0] $end

$scope module i1 $end
$var wire 1 : gnd $end
$var wire 1 ; vcc $end
$var wire 1 < unknown $end
$var tri1 1 = devclrn $end
$var tri1 1 > devpor $end
$var tri1 1 ? devoe $end
$var wire 1 @ ~QUARTUS_CREATED_GND~I_combout $end
$var wire 1 A SW[0]~input_o $end
$var wire 1 B SW[1]~input_o $end
$var wire 1 C SW[2]~input_o $end
$var wire 1 D SW[3]~input_o $end
$var wire 1 E SW[4]~input_o $end
$var wire 1 F SW[5]~input_o $end
$var wire 1 G SW[6]~input_o $end
$var wire 1 H SW[7]~input_o $end
$var wire 1 I LessThan0~0_combout $end
$var wire 1 J LessThan1~0_combout $end
$var wire 1 K ex1|WideOr6~0_combout $end
$var wire 1 L ex1|WideOr5~0_combout $end
$var wire 1 M ex1|WideOr4~0_combout $end
$var wire 1 N ex1|WideOr3~0_combout $end
$var wire 1 O ex1|WideOr2~0_combout $end
$var wire 1 P ex1|WideOr1~0_combout $end
$var wire 1 Q ex1|WideOr0~0_combout $end
$var wire 1 R ex2|WideOr6~0_combout $end
$var wire 1 S ex2|WideOr5~0_combout $end
$var wire 1 T ex2|WideOr4~0_combout $end
$var wire 1 U ex2|WideOr3~0_combout $end
$var wire 1 V ex2|WideOr2~0_combout $end
$var wire 1 W ex2|WideOr1~0_combout $end
$var wire 1 X ex2|WideOr0~0_combout $end
$upscope $end
$upscope $end
$enddefinitions $end
#0
$dumpvars
b0 !
1(
0'
0&
0%
0$
0#
0"
1/
0.
0-
0,
0+
0*
0)
09
08
07
06
05
04
03
02
01
00
0:
1;
x<
1=
1>
1?
0@
0A
0B
0C
0D
0E
0F
0G
0H
0I
0J
0K
0L
0M
0N
0O
0P
0Q
0R
0S
0T
0U
0V
0W
0X
$end
#5000
b1 !
1A
19
1Q
1N
1M
1L
1'
1&
1%
1"
#10000
b11 !
b10 !
0A
1B
18
09
1K
0Q
1O
0N
0M
0&
0%
1$
0"
0(
#15000
b11 !
1A
19
0O
1M
1&
0$
#20000
b111 !
b101 !
b100 !
0A
0B
1C
17
08
09
1Q
1P
1N
0L
0'
1%
1#
1"
#25000
b101 !
1A
19
0Q
0N
0%
0"
#30000
b111 !
b110 !
0A
1B
18
09
0M
0&
#35000
b111 !
1A
19
0K
0P
1N
1M
1L
1'
1&
1%
0#
1(
#40000
b1111 !
b1011 !
b1001 !
b1000 !
0A
0B
0C
1D
16
07
08
09
1K
0N
0M
0L
0'
0&
0%
0(
#45000
b1001 !
1A
19
1N
1%
#50000
b1011 !
b1010 !
0A
1B
18
09
0K
1Q
1P
1O
1M
1L
1I
11
1'
1&
1$
1#
1"
1(
#55000
b1011 !
1A
19
#60000
b1111 !
b1101 !
b1100 !
0A
0B
1C
17
08
09
#65000
b1101 !
1A
19
#70000
b1111 !
b1110 !
0A
1B
18
09
#75000
b1111 !
1A
19
#80000
b11111 !
b10111 !
b10011 !
b10001 !
b10000 !
0A
0B
0C
0D
1E
15
06
07
08
09
1X
1U
1T
1S
0Q
0P
0O
0N
0M
0L
0I
01
0'
0&
0%
0$
0#
0"
1.
1-
1,
1)
#85000
b10001 !
1A
19
1Q
1N
1M
1L
1'
1&
1%
1"
#90000
b10011 !
b10010 !
0A
1B
18
09
1K
0Q
1O
0N
0M
0&
0%
1$
0"
0(
#95000
b10011 !
1A
19
0O
1M
1&
0$
#100000
b10111 !
b10101 !
b10100 !
0A
0B
1C
17
08
09
1Q
1P
1N
0L
0'
1%
1#
1"
#105000
b10101 !
1A
19
0Q
0N
0%
0"
#110000
b10111 !
b10110 !
0A
1B
18
09
0M
0&
#115000
b10111 !
1A
19
0K
0P
1N
1M
1L
1'
1&
1%
0#
1(
#120000
b11111 !
b11011 !
b11001 !
b11000 !
0A
0B
0C
1D
16
07
08
09
1K
0N
0M
0L
0'
0&
0%
0(
#125000
b11001 !
1A
19
1N
1%
#130000
b11011 !
b11010 !
0A
1B
18
09
0K
1Q
1P
1O
1M
1L
1I
11
1'
1&
1$
1#
1"
1(
#135000
b11011 !
1A
19
#140000
b11111 !
b11101 !
b11100 !
0A
0B
1C
17
08
09
#145000
b11101 !
1A
19
#150000
b11111 !
b11110 !
0A
1B
18
09
#155000
b11111 !
1A
19
#160000
b111111 !
b101111 !
b100111 !
b100011 !
b100001 !
b100000 !
0A
0B
0C
0D
0E
1F
14
05
06
07
08
09
1R
0X
1V
0U
0T
0Q
0P
0O
0N
0M
0L
0I
01
0'
0&
0%
0$
0#
0"
0-
0,
1+
0)
0/
#165000
b100001 !
1A
19
1Q
1N
1M
1L
1'
1&
1%
1"
#170000
b100011 !
b100010 !
0A
1B
18
09
1K
0Q
1O
0N
0M
0&
0%
1$
0"
0(
#175000
b100011 !
1A
19
0O
1M
1&
0$
#180000
b100111 !
b100101 !
b100100 !
0A
0B
1C
17
08
09
1Q
1P
1N
0L
0'
1%
1#
1"
#185000
b100101 !
1A
19
0Q
0N
0%
0"
#190000
b100111 !
b100110 !
0A
1B
18
09
0M
0&
#195000
b100111 !
1A
19
0K
0P
1N
1M
1L
1'
1&
1%
0#
1(
#200000
b101111 !
b101011 !
b101001 !
b101000 !
0A
0B
0C
1D
16
07
08
09
1K
0N
0M
0L
0'
0&
0%
0(
#205000
b101001 !
1A
19
1N
1%
#210000
b101011 !
b101010 !
0A
1B
18
09
0K
1Q
1P
1O
1M
1L
1I
11
1'
1&
1$
1#
1"
1(
#215000
b101011 !
1A
19
#220000
b101111 !
b101101 !
b101100 !
0A
0B
1C
17
08
09
#225000
b101101 !
1A
19
#230000
b101111 !
b101110 !
0A
1B
18
09
#235000
b101111 !
1A
19
#240000
b111111 !
b110111 !
b110011 !
b110001 !
b110000 !
0A
0B
0C
0D
1E
15
06
07
08
09
0V
1T
0Q
0P
0O
0N
0M
0L
0I
01
0'
0&
0%
0$
0#
0"
1-
0+
#245000
b110001 !
1A
19
1Q
1N
1M
1L
1'
1&
1%
1"
#250000
b110011 !
b110010 !
0A
1B
18
09
1K
0Q
1O
0N
0M
0&
0%
1$
0"
0(
#255000
b110011 !
1A
19
0O
1M
1&
0$
#260000
b110111 !
b110101 !
b110100 !
0A
0B
1C
17
08
09
1Q
1P
1N
0L
0'
1%
1#
1"
#265000
b110101 !
1A
19
0Q
0N
0%
0"
#270000
b110111 !
b110110 !
0A
1B
18
09
0M
0&
#275000
b110111 !
1A
19
0K
0P
1N
1M
1L
1'
1&
1%
0#
1(
#280000
b111111 !
b111011 !
b111001 !
b111000 !
0A
0B
0C
1D
16
07
08
09
1K
0N
0M
0L
0'
0&
0%
0(
#285000
b111001 !
1A
19
1N
1%
#290000
b111011 !
b111010 !
0A
1B
18
09
0K
1Q
1P
1O
1M
1L
1I
11
1'
1&
1$
1#
1"
1(
#295000
b111011 !
1A
19
#300000
b111111 !
b111101 !
b111100 !
0A
0B
1C
17
08
09
#305000
b111101 !
1A
19
#310000
b111111 !
b111110 !
0A
1B
18
09
#315000
b111111 !
1A
19
#320000
b1111111 !
b1011111 !
b1001111 !
b1000111 !
b1000011 !
b1000001 !
b1000000 !
0A
0B
0C
0D
0E
0F
1G
13
04
05
06
07
08
09
1X
1W
1U
0S
0Q
0P
0O
0N
0M
0L
0I
01
0'
0&
0%
0$
0#
0"
0.
1,
1*
1)
#325000
b1000001 !
1A
19
1Q
1N
1M
1L
1'
1&
1%
1"
#330000
b1000011 !
b1000010 !
0A
1B
18
09
1K
0Q
1O
0N
0M
0&
0%
1$
0"
0(
#335000
b1000011 !
1A
19
0O
1M
1&
0$
#340000
b1000111 !
b1000101 !
b1000100 !
0A
0B
1C
17
08
09
1Q
1P
1N
0L
0'
1%
1#
1"
#345000
b1000101 !
1A
19
0Q
0N
0%
0"
#350000
b1000111 !
b1000110 !
0A
1B
18
09
0M
0&
#355000
b1000111 !
1A
19
0K
0P
1N
1M
1L
1'
1&
1%
0#
1(
#360000
b1001111 !
b1001011 !
b1001001 !
b1001000 !
0A
0B
0C
1D
16
07
08
09
1K
0N
0M
0L
0'
0&
0%
0(
#365000
b1001001 !
1A
19
1N
1%
#370000
b1001011 !
b1001010 !
0A
1B
18
09
0K
1Q
1P
1O
1M
1L
1I
11
1'
1&
1$
1#
1"
1(
#375000
b1001011 !
1A
19
#380000
b1001111 !
b1001101 !
b1001100 !
0A
0B
1C
17
08
09
#385000
b1001101 !
1A
19
#390000
b1001111 !
b1001110 !
0A
1B
18
09
#395000
b1001111 !
1A
19
#400000
b1011111 !
b1010111 !
b1010011 !
b1010001 !
b1010000 !
0A
0B
0C
0D
1E
15
06
07
08
09
0X
0U
0Q
0P
0O
0N
0M
0L
0I
01
0'
0&
0%
0$
0#
0"
0,
0)
#405000
b1010001 !
1A
19
1Q
1N
1M
1L
1'
1&
1%
1"
#410000
b1010011 !
b1010010 !
0A
1B
18
09
1K
0Q
1O
0N
0M
0&
0%
1$
0"
0(
#415000
b1010011 !
1A
19
0O
1M
1&
0$
#420000
b1010111 !
b1010101 !
b1010100 !
0A
0B
1C
17
08
09
1Q
1P
1N
0L
0'
1%
1#
1"
#425000
b1010101 !
1A
19
0Q
0N
0%
0"
#430000
b1010111 !
b1010110 !
0A
1B
18
09
0M
0&
#435000
b1010111 !
1A
19
0K
0P
1N
1M
1L
1'
1&
1%
0#
1(
#440000
b1011111 !
b1011011 !
b1011001 !
b1011000 !
0A
0B
0C
1D
16
07
08
09
1K
0N
0M
0L
0'
0&
0%
0(
#445000
b1011001 !
1A
19
1N
1%
#450000
b1011011 !
b1011010 !
0A
1B
18
09
0K
1Q
1P
1O
1M
1L
1I
11
1'
1&
1$
1#
1"
1(
#455000
b1011011 !
1A
19
#460000
b1011111 !
b1011101 !
b1011100 !
0A
0B
1C
17
08
09
#465000
b1011101 !
1A
19
#470000
b1011111 !
b1011110 !
0A
1B
18
09
#475000
b1011111 !
1A
19
#480000
b1111111 !
b1101111 !
b1100111 !
b1100011 !
b1100001 !
b1100000 !
0A
0B
0C
0D
0E
1F
14
05
06
07
08
09
0T
0Q
0P
0O
0N
0M
0L
0I
01
0'
0&
0%
0$
0#
0"
0-
#485000
b1100001 !
1A
19
1Q
1N
1M
1L
1'
1&
1%
1"
#490000
b1100011 !
b1100010 !
0A
1B
18
09
1K
0Q
1O
0N
0M
0&
0%
1$
0"
0(
#495000
b1100011 !
1A
19
0O
1M
1&
0$
#500000
b1100111 !
b1100101 !
b1100100 !
0A
0B
1C
17
08
09
1Q
1P
1N
0L
0'
1%
1#
1"
#505000
b1100101 !
1A
19
0Q
0N
0%
0"
#510000
b1100111 !
b1100110 !
0A
1B
18
09
0M
0&
#515000
b1100111 !
1A
19
0K
0P
1N
1M
1L
1'
1&
1%
0#
1(
#520000
b1101111 !
b1101011 !
b1101001 !
b1101000 !
0A
0B
0C
1D
16
07
08
09
1K
0N
0M
0L
0'
0&
0%
0(
#525000
b1101001 !
1A
19
1N
1%
#530000
b1101011 !
b1101010 !
0A
1B
18
09
0K
1Q
1P
1O
1M
1L
1I
11
1'
1&
1$
1#
1"
1(
#535000
b1101011 !
1A
19
#540000
b1101111 !
b1101101 !
b1101100 !
0A
0B
1C
17
08
09
#545000
b1101101 !
1A
19
#550000
b1101111 !
b1101110 !
0A
1B
18
09
#555000
b1101111 !
1A
19
#560000
b1111111 !
b1110111 !
b1110011 !
b1110001 !
b1110000 !
0A
0B
0C
0D
1E
15
06
07
08
09
0R
0W
1U
1T
1S
0Q
0P
0O
0N
0M
0L
0I
01
0'
0&
0%
0$
0#
0"
1.
1-
1,
0*
1/
#565000
b1110001 !
1A
19
1Q
1N
1M
1L
1'
1&
1%
1"
#570000
b1110011 !
b1110010 !
0A
1B
18
09
1K
0Q
1O
0N
0M
0&
0%
1$
0"
0(
#575000
b1110011 !
1A
19
0O
1M
1&
0$
#580000
b1110111 !
b1110101 !
b1110100 !
0A
0B
1C
17
08
09
1Q
1P
1N
0L
0'
1%
1#
1"
#585000
b1110101 !
1A
19
0Q
0N
0%
0"
#590000
b1110111 !
b1110110 !
0A
1B
18
09
0M
0&
#595000
b1110111 !
1A
19
0K
0P
1N
1M
1L
1'
1&
1%
0#
1(
#600000
b1111111 !
b1111011 !
b1111001 !
b1111000 !
0A
0B
0C
1D
16
07
08
09
1K
0N
0M
0L
0'
0&
0%
0(
#605000
b1111001 !
1A
19
1N
1%
#610000
b1111011 !
b1111010 !
0A
1B
18
09
0K
1Q
1P
1O
1M
1L
1I
11
1'
1&
1$
1#
1"
1(
#615000
b1111011 !
1A
19
#620000
b1111111 !
b1111101 !
b1111100 !
0A
0B
1C
17
08
09
#625000
b1111101 !
1A
19
#630000
b1111111 !
b1111110 !
0A
1B
18
09
#635000
b1111111 !
1A
19
#640000
b11111111 !
b10111111 !
b10011111 !
b10001111 !
b10000111 !
b10000011 !
b10000001 !
b10000000 !
0A
0B
0C
0D
0E
0F
0G
1H
12
03
04
05
06
07
08
09
1R
0U
0T
0S
0Q
0P
0O
0N
0M
0L
0I
01
0'
0&
0%
0$
0#
0"
0.
0-
0,
0/
#645000
b10000001 !
1A
19
1Q
1N
1M
1L
1'
1&
1%
1"
#650000
b10000011 !
b10000010 !
0A
1B
18
09
1K
0Q
1O
0N
0M
0&
0%
1$
0"
0(
#655000
b10000011 !
1A
19
0O
1M
1&
0$
#660000
b10000111 !
b10000101 !
b10000100 !
0A
0B
1C
17
08
09
1Q
1P
1N
0L
0'
1%
1#
1"
#665000
b10000101 !
1A
19
0Q
0N
0%
0"
#670000
b10000111 !
b10000110 !
0A
1B
18
09
0M
0&
#675000
b10000111 !
1A
19
0K
0P
1N
1M
1L
1'
1&
1%
0#
1(
#680000
b10001111 !
b10001011 !
b10001001 !
b10001000 !
0A
0B
0C
1D
16
07
08
09
1K
0N
0M
0L
0'
0&
0%
0(
#685000
b10001001 !
1A
19
1N
1%
#690000
b10001011 !
b10001010 !
0A
1B
18
09
0K
1Q
1P
1O
1M
1L
1I
11
1'
1&
1$
1#
1"
1(
#695000
b10001011 !
1A
19
#700000
b10001111 !
b10001101 !
b10001100 !
0A
0B
1C
17
08
09
#705000
b10001101 !
1A
19
#710000
b10001111 !
b10001110 !
0A
1B
18
09
#715000
b10001111 !
1A
19
#720000
b10011111 !
b10010111 !
b10010011 !
b10010001 !
b10010000 !
0A
0B
0C
0D
1E
15
06
07
08
09
1U
0Q
0P
0O
0N
0M
0L
0I
01
0'
0&
0%
0$
0#
0"
1,
#725000
b10010001 !
1A
19
1Q
1N
1M
1L
1'
1&
1%
1"
#730000
b10010011 !
b10010010 !
0A
1B
18
09
1K
0Q
1O
0N
0M
0&
0%
1$
0"
0(
#735000
b10010011 !
1A
19
0O
1M
1&
0$
#740000
b10010111 !
b10010101 !
b10010100 !
0A
0B
1C
17
08
09
1Q
1P
1N
0L
0'
1%
1#
1"
#745000
b10010101 !
1A
19
0Q
0N
0%
0"
#750000
b10010111 !
b10010110 !
0A
1B
18
09
0M
0&
#755000
b10010111 !
1A
19
0K
0P
1N
1M
1L
1'
1&
1%
0#
1(
#760000
b10011111 !
b10011011 !
b10011001 !
b10011000 !
0A
0B
0C
1D
16
07
08
09
1K
0N
0M
0L
0'
0&
0%
0(
#765000
b10011001 !
1A
19
1N
1%
#770000
b10011011 !
b10011010 !
0A
1B
18
09
0K
1Q
1P
1O
1M
1L
1I
11
1'
1&
1$
1#
1"
1(
#775000
b10011011 !
1A
19
#780000
b10011111 !
b10011101 !
b10011100 !
0A
0B
1C
17
08
09
#785000
b10011101 !
1A
19
#790000
b10011111 !
b10011110 !
0A
1B
18
09
#795000
b10011111 !
1A
19
#800000
b10111111 !
b10101111 !
b10100111 !
b10100011 !
b10100001 !
b10100000 !
0A
0B
0C
0D
0E
1F
14
05
06
07
08
09
0R
1X
1W
1V
1T
1S
1J
0Q
0P
0O
0N
0M
0L
0I
01
0'
0&
0%
0$
0#
0"
10
1.
1-
1+
1*
1)
1/
#805000
b10100001 !
1A
19
1Q
1N
1M
1L
1'
1&
1%
1"
#810000
b10100011 !
b10100010 !
0A
1B
18
09
1K
0Q
1O
0N
0M
0&
0%
1$
0"
0(
#815000
b10100011 !
1A
19
0O
1M
1&
0$
#820000
b10100111 !
b10100101 !
b10100100 !
0A
0B
1C
17
08
09
1Q
1P
1N
0L
0'
1%
1#
1"
#825000
b10100101 !
1A
19
0Q
0N
0%
0"
#830000
b10100111 !
b10100110 !
0A
1B
18
09
0M
0&
#835000
b10100111 !
1A
19
0K
0P
1N
1M
1L
1'
1&
1%
0#
1(
#840000
b10101111 !
b10101011 !
b10101001 !
b10101000 !
0A
0B
0C
1D
16
07
08
09
1K
0N
0M
0L
0'
0&
0%
0(
#845000
b10101001 !
1A
19
1N
1%
#850000
b10101011 !
b10101010 !
0A
1B
18
09
0K
1Q
1P
1O
1M
1L
1I
11
1'
1&
1$
1#
1"
1(
#855000
b10101011 !
1A
19
#860000
b10101111 !
b10101101 !
b10101100 !
0A
0B
1C
17
08
09
#865000
b10101101 !
1A
19
#870000
b10101111 !
b10101110 !
0A
1B
18
09
#875000
b10101111 !
1A
19
#880000
b10111111 !
b10110111 !
b10110011 !
b10110001 !
b10110000 !
0A
0B
0C
0D
1E
15
06
07
08
09
0Q
0P
0O
0N
0M
0L
0I
01
0'
0&
0%
0$
0#
0"
#885000
b10110001 !
1A
19
1Q
1N
1M
1L
1'
1&
1%
1"
#890000
b10110011 !
b10110010 !
0A
1B
18
09
1K
0Q
1O
0N
0M
0&
0%
1$
0"
0(
#895000
b10110011 !
1A
19
0O
1M
1&
0$
#900000
b10110111 !
b10110101 !
b10110100 !
0A
0B
1C
17
08
09
1Q
1P
1N
0L
0'
1%
1#
1"
#905000
b10110101 !
1A
19
0Q
0N
0%
0"
#910000
b10110111 !
b10110110 !
0A
1B
18
09
0M
0&
#915000
b10110111 !
1A
19
0K
0P
1N
1M
1L
1'
1&
1%
0#
1(
#920000
b10111111 !
b10111011 !
b10111001 !
b10111000 !
0A
0B
0C
1D
16
07
08
09
1K
0N
0M
0L
0'
0&
0%
0(
#925000
b10111001 !
1A
19
1N
1%
#930000
b10111011 !
b10111010 !
0A
1B
18
09
0K
1Q
1P
1O
1M
1L
1I
11
1'
1&
1$
1#
1"
1(
#935000
b10111011 !
1A
19
#940000
b10111111 !
b10111101 !
b10111100 !
0A
0B
1C
17
08
09
#945000
b10111101 !
1A
19
#950000
b10111111 !
b10111110 !
0A
1B
18
09
#955000
b10111111 !
1A
19
#960000
b11111111 !
b11011111 !
b11001111 !
b11000111 !
b11000011 !
b11000001 !
b11000000 !
0A
0B
0C
0D
0E
0F
1G
13
04
05
06
07
08
09
0Q
0P
0O
0N
0M
0L
0I
01
0'
0&
0%
0$
0#
0"
#965000
b11000001 !
1A
19
1Q
1N
1M
1L
1'
1&
1%
1"
#970000
b11000011 !
b11000010 !
0A
1B
18
09
1K
0Q
1O
0N
0M
0&
0%
1$
0"
0(
#975000
b11000011 !
1A
19
0O
1M
1&
0$
#980000
b11000111 !
b11000101 !
b11000100 !
0A
0B
1C
17
08
09
1Q
1P
1N
0L
0'
1%
1#
1"
#985000
b11000101 !
1A
19
0Q
0N
0%
0"
#990000
b11000111 !
b11000110 !
0A
1B
18
09
0M
0&
#995000
b11000111 !
1A
19
0K
0P
1N
1M
1L
1'
1&
1%
0#
1(
#1000000
b11001111 !
b11001011 !
b11001001 !
b11001000 !
0A
0B
0C
1D
16
07
08
09
1K
0N
0M
0L
0'
0&
0%
0(
#1005000
b11001001 !
1A
19
1N
1%
#1010000
b11001011 !
b11001010 !
0A
1B
18
09
0K
1Q
1P
1O
1M
1L
1I
11
1'
1&
1$
1#
1"
1(
#1015000
b11001011 !
1A
19
#1020000
b11001111 !
b11001101 !
b11001100 !
0A
0B
1C
17
08
09
#1025000
b11001101 !
1A
19
#1030000
b11001111 !
b11001110 !
0A
1B
18
09
#1035000
b11001111 !
1A
19
#1040000
b11011111 !
b11010111 !
b11010011 !
b11010001 !
b11010000 !
0A
0B
0C
0D
1E
15
06
07
08
09
0Q
0P
0O
0N
0M
0L
0I
01
0'
0&
0%
0$
0#
0"
#1045000
b11010001 !
1A
19
1Q
1N
1M
1L
1'
1&
1%
1"
#1050000
b11010011 !
b11010010 !
0A
1B
18
09
1K
0Q
1O
0N
0M
0&
0%
1$
0"
0(
#1055000
b11010011 !
1A
19
0O
1M
1&
0$
#1060000
b11010111 !
b11010101 !
b11010100 !
0A
0B
1C
17
08
09
1Q
1P
1N
0L
0'
1%
1#
1"
#1065000
b11010101 !
1A
19
0Q
0N
0%
0"
#1070000
b11010111 !
b11010110 !
0A
1B
18
09
0M
0&
#1075000
b11010111 !
1A
19
0K
0P
1N
1M
1L
1'
1&
1%
0#
1(
#1080000
b11011111 !
b11011011 !
b11011001 !
b11011000 !
0A
0B
0C
1D
16
07
08
09
1K
0N
0M
0L
0'
0&
0%
0(
#1085000
b11011001 !
1A
19
1N
1%
#1090000
b11011011 !
b11011010 !
0A
1B
18
09
0K
1Q
1P
1O
1M
1L
1I
11
1'
1&
1$
1#
1"
1(
#1095000
b11011011 !
1A
19
#1100000
b11011111 !
b11011101 !
b11011100 !
0A
0B
1C
17
08
09
#1105000
b11011101 !
1A
19
#1110000
b11011111 !
b11011110 !
0A
1B
18
09
#1115000
b11011111 !
1A
19
#1120000
b11111111 !
b11101111 !
b11100111 !
b11100011 !
b11100001 !
b11100000 !
0A
0B
0C
0D
0E
1F
14
05
06
07
08
09
0Q
0P
0O
0N
0M
0L
0I
01
0'
0&
0%
0$
0#
0"
#1125000
b11100001 !
1A
19
1Q
1N
1M
1L
1'
1&
1%
1"
#1130000
b11100011 !
b11100010 !
0A
1B
18
09
1K
0Q
1O
0N
0M
0&
0%
1$
0"
0(
#1135000
b11100011 !
1A
19
0O
1M
1&
0$
#1140000
b11100111 !
b11100101 !
b11100100 !
0A
0B
1C
17
08
09
1Q
1P
1N
0L
0'
1%
1#
1"
#1145000
b11100101 !
1A
19
0Q
0N
0%
0"
#1150000
b11100111 !
b11100110 !
0A
1B
18
09
0M
0&
#1155000
b11100111 !
1A
19
0K
0P
1N
1M
1L
1'
1&
1%
0#
1(
#1160000
b11101111 !
b11101011 !
b11101001 !
b11101000 !
0A
0B
0C
1D
16
07
08
09
1K
0N
0M
0L
0'
0&
0%
0(
#1165000
b11101001 !
1A
19
1N
1%
#1170000
b11101011 !
b11101010 !
0A
1B
18
09
0K
1Q
1P
1O
1M
1L
1I
11
1'
1&
1$
1#
1"
1(
#1175000
b11101011 !
1A
19
#1180000
b11101111 !
b11101101 !
b11101100 !
0A
0B
1C
17
08
09
#1185000
b11101101 !
1A
19
#1190000
b11101111 !
b11101110 !
0A
1B
18
09
#1195000
b11101111 !
1A
19
#1200000
b11111111 !
b11110111 !
b11110011 !
b11110001 !
b11110000 !
0A
0B
0C
0D
1E
15
06
07
08
09
0Q
0P
0O
0N
0M
0L
0I
01
0'
0&
0%
0$
0#
0"
#1205000
b11110001 !
1A
19
1Q
1N
1M
1L
1'
1&
1%
1"
#1210000
b11110011 !
b11110010 !
0A
1B
18
09
1K
0Q
1O
0N
0M
0&
0%
1$
0"
0(
#1215000
b11110011 !
1A
19
0O
1M
1&
0$
#1220000
b11110111 !
b11110101 !
b11110100 !
0A
0B
1C
17
08
09
1Q
1P
1N
0L
0'
1%
1#
1"
#1225000
b11110101 !
1A
19
0Q
0N
0%
0"
#1230000
b11110111 !
b11110110 !
0A
1B
18
09
0M
0&
#1235000
b11110111 !
1A
19
0K
0P
1N
1M
1L
1'
1&
1%
0#
1(
#1240000
b11111111 !
b11111011 !
b11111001 !
b11111000 !
0A
0B
0C
1D
16
07
08
09
1K
0N
0M
0L
0'
0&
0%
0(
#1245000
b11111001 !
1A
19
1N
1%
#1250000
b11111011 !
b11111010 !
0A
1B
18
09
0K
1Q
1P
1O
1M
1L
1I
11
1'
1&
1$
1#
1"
1(
#1255000
b11111011 !
1A
19
#1260000
b11111111 !
b11111101 !
b11111100 !
0A
0B
1C
17
08
09
#1265000
b11111101 !
1A
19
#1270000
b11111111 !
b11111110 !
0A
1B
18
09
#1275000
b11111111 !
1A
19
