ps5/zad2/simulation/qsim/counter_16_bits_board.msim.vcd
$comment
	File created using the following command:
		vcd file counter_16_bits_board.msim.vcd -direction
$end
$date
	Wed Mar 27 19:30:00 2019
$end
$version
	ModelSim Version 10.5b
$end
$timescale
	1ps
$end

$scope module counter_16_bits_board_vlg_vec_tst $end
$var reg 1 ! KEY [0:0] $end
$var reg 2 " SW [1:0] $end
$var wire 1 # HEX0 [0] $end
$var wire 1 $ HEX0 [1] $end
$var wire 1 % HEX0 [2] $end
$var wire 1 & HEX0 [3] $end
$var wire 1 ' HEX0 [4] $end
$var wire 1 ( HEX0 [5] $end
$var wire 1 ) HEX0 [6] $end
$var wire 1 * HEX1 [0] $end
$var wire 1 + HEX1 [1] $end
$var wire 1 , HEX1 [2] $end
$var wire 1 - HEX1 [3] $end
$var wire 1 . HEX1 [4] $end
$var wire 1 / HEX1 [5] $end
$var wire 1 0 HEX1 [6] $end
$var wire 1 1 HEX2 [0] $end
$var wire 1 2 HEX2 [1] $end
$var wire 1 3 HEX2 [2] $end
$var wire 1 4 HEX2 [3] $end
$var wire 1 5 HEX2 [4] $end
$var wire 1 6 HEX2 [5] $end
$var wire 1 7 HEX2 [6] $end
$var wire 1 8 HEX3 [0] $end
$var wire 1 9 HEX3 [1] $end
$var wire 1 : HEX3 [2] $end
$var wire 1 ; HEX3 [3] $end
$var wire 1 < HEX3 [4] $end
$var wire 1 = HEX3 [5] $end
$var wire 1 > HEX3 [6] $end

$scope module i1 $end
$var wire 1 ? gnd $end
$var wire 1 @ vcc $end
$var wire 1 A unknown $end
$var tri1 1 B devclrn $end
$var tri1 1 C devpor $end
$var tri1 1 D devoe $end
$var wire 1 E ~QUARTUS_CREATED_GND~I_combout $end
$var wire 1 F KEY[0]~input_o $end
$var wire 1 G KEY[0]~inputCLKENA0_outclk $end
$var wire 1 H ex0|Q[0]~0_combout $end
$var wire 1 I SW[0]~input_o $end
$var wire 1 J SW[1]~input_o $end
$var wire 1 K ex0|Add0~1_sumout $end
$var wire 1 L ex0|Add0~2 $end
$var wire 1 M ex0|Add0~5_sumout $end
$var wire 1 N ex0|Add0~6 $end
$var wire 1 O ex0|Add0~9_sumout $end
$var wire 1 P ex1|WideOr6~0_combout $end
$var wire 1 Q ex1|WideOr5~0_combout $end
$var wire 1 R ex1|WideOr4~0_combout $end
$var wire 1 S ex1|WideOr3~0_combout $end
$var wire 1 T ex1|WideOr2~0_combout $end
$var wire 1 U ex1|WideOr1~0_combout $end
$var wire 1 V ex1|WideOr0~0_combout $end
$var wire 1 W ex0|Add0~10 $end
$var wire 1 X ex0|Add0~13_sumout $end
$var wire 1 Y ex0|Add0~14 $end
$var wire 1 Z ex0|Add0~17_sumout $end
$var wire 1 [ ex0|Add0~18 $end
$var wire 1 \ ex0|Add0~21_sumout $end
$var wire 1 ] ex0|Add0~22 $end
$var wire 1 ^ ex0|Add0~25_sumout $end
$var wire 1 _ ex2|WideOr6~0_combout $end
$var wire 1 ` ex2|WideOr5~0_combout $end
$var wire 1 a ex2|WideOr4~0_combout $end
$var wire 1 b ex2|WideOr3~0_combout $end
$var wire 1 c ex2|WideOr2~0_combout $end
$var wire 1 d ex2|WideOr1~0_combout $end
$var wire 1 e ex2|WideOr0~0_combout $end
$var wire 1 f ex0|Add0~26 $end
$var wire 1 g ex0|Add0~29_sumout $end
$var wire 1 h ex0|Add0~30 $end
$var wire 1 i ex0|Add0~33_sumout $end
$var wire 1 j ex0|Add0~34 $end
$var wire 1 k ex0|Add0~37_sumout $end
$var wire 1 l ex0|Add0~38 $end
$var wire 1 m ex0|Add0~41_sumout $end
$var wire 1 n ex3|WideOr6~0_combout $end
$var wire 1 o ex3|WideOr5~0_combout $end
$var wire 1 p ex3|WideOr4~0_combout $end
$var wire 1 q ex3|WideOr3~0_combout $end
$var wire 1 r ex3|WideOr2~0_combout $end
$var wire 1 s ex3|WideOr1~0_combout $end
$var wire 1 t ex3|WideOr0~0_combout $end
$var wire 1 u ex0|Add0~42 $end
$var wire 1 v ex0|Add0~45_sumout $end
$var wire 1 w ex0|Add0~46 $end
$var wire 1 x ex0|Add0~49_sumout $end
$var wire 1 y ex0|Add0~50 $end
$var wire 1 z ex0|Add0~53_sumout $end
$var wire 1 { ex0|Add0~54 $end
$var wire 1 | ex0|Add0~57_sumout $end
$var wire 1 } ex4|WideOr6~0_combout $end
$var wire 1 ~ ex4|WideOr5~0_combout $end
$var wire 1 !! ex4|WideOr4~0_combout $end
$var wire 1 "! ex4|WideOr3~0_combout $end
$var wire 1 #! ex4|WideOr2~0_combout $end
$var wire 1 $! ex4|WideOr1~0_combout $end
$var wire 1 %! ex4|WideOr0~0_combout $end
$var wire 1 &! ex0|Q [15] $end
$var wire 1 '! ex0|Q [14] $end
$var wire 1 (! ex0|Q [13] $end
$var wire 1 )! ex0|Q [12] $end
$var wire 1 *! ex0|Q [11] $end
$var wire 1 +! ex0|Q [10] $end
$var wire 1 ,! ex0|Q [9] $end
$var wire 1 -! ex0|Q [8] $end
$var wire 1 .! ex0|Q [7] $end
$var wire 1 /! ex0|Q [6] $end
$var wire 1 0! ex0|Q [5] $end
$var wire 1 1! ex0|Q [4] $end
$var wire 1 2! ex0|Q [3] $end
$var wire 1 3! ex0|Q [2] $end
$var wire 1 4! ex0|Q [1] $end
$var wire 1 5! ex0|Q [0] $end
$upscope $end
$upscope $end
$enddefinitions $end
#0
$dumpvars
b0 !
b11 "
1)
0(
0'
0&
0%
0$
0#
10
0/
0.
0-
0,
0+
0*
17
06
05
04
03
02
01
1>
0=
0<
0;
0:
09
08
0?
1@
xA
1B
1C
1D
0E
0F
0G
1H
1I
1J
0K
0L
0M
0N
0O
0P
0Q
0R
0S
0T
0U
0V
0W
0X
0Y
0Z
0[
0\
0]
0^
0_
0`
0a
0b
0c
0d
0e
0f
0g
0h
0i
0j
0k
0l
0m
0n
0o
0p
0q
0r
0s
0t
0u
0v
0w
0x
0y
0z
0{
0|
0}
0~
0!!
0"!
0#!
0$!
0%!
05!
04!
03!
02!
01!
00!
0/!
0.!
0-!
0,!
0+!
0*!
0)!
0(!
0'!
0&!
$end
#5000
b1 !
1F
1G
15!
1V
1S
1R
1Q
1K
0H
1(
1'
1&
1#
#10000
b0 !
0F
0G
#15000
b1 !
1F
1G
14!
05!
1P
0V
1T
0S
0R
1H
0'
0&
1%
0#
0)
#20000
b0 !
0F
0G
#25000
b1 !
1F
1G
15!
1L
0T
1R
0K
0H
1'
0%
1M
#30000
b0 !
0F
0G
#35000
b1 !
1F
1G
13!
04!
05!
0L
1N
1V
1S
0Q
1H
0M
0(
1&
1#
0N
1M
1O
0O
#40000
b0 !
0F
0G
#45000
b1 !
1F
1G
15!
0V
1U
0S
1K
0H
0&
1$
0#
#50000
b0 !
0F
0G
#55000
b1 !
1F
1G
14!
05!
0R
1H
0'
#60000
b0 !
0F
0G
#65000
b1 !
1F
1G
15!
0P
1L
0U
1S
1R
1Q
0K
0H
1(
1'
1&
0$
1)
1N
0M
1O
#70000
b0 !
0F
0G
#75000
b1 !
1F
1G
12!
03!
04!
05!
1P
0L
0N
1W
0S
0R
0Q
1H
1M
0O
0(
0'
0&
0)
0W
0M
1O
1X
0X
#80000
b0 !
0F
0G
#85000
b1 !
1F
1G
15!
1R
1K
0H
1'
#90000
b0 !
0F
0G
#95000
b1 !
1F
1G
14!
05!
1S
0R
1H
0'
1&
#100000
b0 !
0F
0G
#105000
b1 !
1F
1G
15!
1L
1V
1U
0S
0K
0H
0&
1$
1#
1M
#110000
b0 !
0F
0G
#115000
b1 !
1F
1G
13!
04!
05!
0P
0L
1N
0V
1T
1H
0M
1%
0#
1)
0N
1W
1M
0O
0W
1O
1X
0X
#120000
b0 !
0F
0G
#125000
b1 !
1F
1G
15!
1P
1V
0U
0T
1Q
1K
0H
1(
0%
0$
1#
0)
#130000
b0 !
0F
0G
#135000
b1 !
1F
1G
14!
05!
0V
1U
1T
0Q
1H
0(
1%
1$
0#
#140000
b0 !
0F
0G
#145000
b1 !
1F
1G
15!
1L
1S
0K
0H
1&
1N
0M
1W
0O
1X
#150000
b0 !
0F
0G
#155000
b1 !
1F
1G
11!
02!
03!
04!
05!
0P
0L
0N
0W
1Y
0U
0T
0S
1H
1M
1O
1e
1b
1a
1`
0X
1/
1.
1-
1*
0&
0%
0$
1)
0Y
0M
0O
1X
1Z
0Z
#160000
b0 !
0F
0G
#165000
b1 !
1F
1G
15!
1V
1S
1R
1Q
1K
0H
1(
1'
1&
1#
#170000
b0 !
0F
0G
#175000
b1 !
1F
1G
14!
05!
1P
0V
1T
0S
0R
1H
0'
0&
1%
0#
0)
#180000
b0 !
0F
0G
#185000
b1 !
1F
1G
15!
1L
0T
1R
0K
0H
1'
0%
1M
#190000
b0 !
0F
0G
#195000
b1 !
1F
1G
13!
04!
05!
0L
1N
1V
1S
0Q
1H
0M
0(
1&
1#
0N
1M
1O
0O
#200000
b0 !
0F
0G
#205000
b1 !
1F
1G
15!
0V
1U
0S
1K
0H
0&
1$
0#
#210000
b0 !
0F
0G
#215000
b1 !
1F
1G
14!
05!
0R
1H
0'
#220000
b0 !
0F
0G
#225000
b1 !
1F
1G
15!
0P
1L
0U
1S
1R
1Q
0K
0H
1(
1'
1&
0$
1)
1N
0M
1O
#230000
b0 !
0F
0G
#235000
b1 !
1F
1G
12!
03!
04!
05!
1P
0L
0N
1W
0S
0R
0Q
1H
1M
0O
0(
0'
0&
0)
0W
1Y
0M
1O
0X
0Y
1X
1Z
0Z
#240000
b0 !
0F
0G
#245000
b1 !
1F
1G
15!
1R
1K
0H
1'
#250000
b0 !
0F
0G
#255000
b1 !
1F
1G
14!
05!
1S
0R
1H
0'
1&
#260000
b0 !
0F
0G
#265000
b1 !
1F
1G
15!
1L
1V
1U
0S
0K
0H
0&
1$
1#
1M
#270000
b0 !
0F
0G
#275000
b1 !
1F
1G
13!
04!
05!
0P
0L
1N
0V
1T
1H
0M
1%
0#
1)
0N
1W
1M
0O
0W
1Y
1O
0X
0Y
1X
1Z
0Z
#280000
b0 !
0F
0G
#285000
b1 !
1F
1G
15!
1P
1V
0U
0T
1Q
1K
0H
1(
0%
0$
1#
0)
#290000
b0 !
0F
0G
#295000
b1 !
1F
1G
14!
05!
0V
1U
1T
0Q
1H
0(
1%
1$
0#
#300000
b0 !
0F
0G
#305000
b1 !
1F
1G
15!
1L
1S
0K
0H
1&
1N
0M
1W
0O
1Y
0X
1Z
#310000
b0 !
0F
0G
#315000
b1 !
1F
1G
10!
01!
02!
03!
04!
05!
0P
0L
0N
0W
1_
0Y
1[
0U
0T
0S
1H
1M
1O
0e
1c
0b
0a
1X
0Z
0.
0-
1,
0*
0&
0%
0$
00
1)
0[
0M
0O
0X
1Z
1\
0\
#320000
b0 !
0F
0G
#325000
b1 !
1F
1G
15!
1V
1S
1R
1Q
1K
0H
1(
1'
1&
1#
#330000
b0 !
0F
0G
#335000
b1 !
1F
1G
14!
05!
1P
0V
1T
0S
0R
1H
0'
0&
1%
0#
0)
#340000
b0 !
0F
0G
#345000
b1 !
1F
1G
15!
1L
0T
1R
0K
0H
1'
0%
1M
#350000
b0 !
0F
0G
#355000
b1 !
1F
1G
13!
04!
05!
0L
1N
1V
1S
0Q
1H
0M
0(
1&
1#
0N
1M
1O
0O
#360000
b0 !
0F
0G
#365000
b1 !
1F
1G
15!
0V
1U
0S
1K
0H
0&
1$
0#
#370000
b0 !
0F
0G
#375000
b1 !
1F
1G
14!
05!
0R
1H
0'
#380000
b0 !
0F
0G
#385000
b1 !
1F
1G
15!
0P
1L
0U
1S
1R
1Q
0K
0H
1(
1'
1&
0$
1)
1N
0M
1O
#390000
b0 !
0F
0G
#395000
b1 !
1F
1G
12!
03!
04!
05!
1P
0L
0N
1W
0S
0R
0Q
1H
1M
0O
0(
0'
0&
0)
0W
0M
1O
1X
0X
#400000
b0 !
0F
0G
#405000
b1 !
1F
1G
15!
1R
1K
0H
1'
#410000
b0 !
0F
0G
#415000
b1 !
1F
1G
14!
05!
1S
0R
1H
0'
1&
#420000
b0 !
0F
0G
#425000
b1 !
1F
1G
15!
1L
1V
1U
0S
0K
0H
0&
1$
1#
1M
#430000
b0 !
0F
0G
#435000
b1 !
1F
1G
13!
04!
05!
0P
0L
1N
0V
1T
1H
0M
1%
0#
1)
0N
1W
1M
0O
0W
1O
1X
0X
#440000
b0 !
0F
0G
#445000
b1 !
1F
1G
15!
1P
1V
0U
0T
1Q
1K
0H
1(
0%
0$
1#
0)
#450000
b0 !
0F
0G
#455000
b1 !
1F
1G
14!
05!
0V
1U
1T
0Q
1H
0(
1%
1$
0#
#460000
b0 !
0F
0G
#465000
b1 !
1F
1G
15!
1L
1S
0K
0H
1&
1N
0M
1W
0O
1X
#470000
b0 !
0F
0G
#475000
b1 !
1F
1G
11!
02!
03!
04!
05!
0P
0L
0N
0W
1Y
0U
0T
0S
1H
1M
1O
0c
1a
0X
1.
0,
0&
0%
0$
1)
0Y
1[
0M
0O
1X
0Z
0[
1Z
1\
0\
#480000
b0 !
0F
0G
#485000
b1 !
1F
1G
15!
1V
1S
1R
1Q
1K
0H
1(
1'
1&
1#
#490000
b0 !
0F
0G
#495000
b1 !
1F
1G
14!
05!
1P
0V
1T
0S
0R
1H
0'
0&
1%
0#
0)
#500000
b0 !
0F
0G
#505000
b1 !
1F
1G
15!
1L
0T
1R
0K
0H
1'
0%
1M
#510000
b0 !
0F
0G
#515000
b1 !
1F
1G
13!
04!
05!
0L
1N
1V
1S
0Q
1H
0M
0(
1&
1#
0N
1M
1O
0O
#520000
b0 !
0F
0G
#525000
b1 !
1F
1G
15!
0V
1U
0S
1K
0H
0&
1$
0#
#530000
b0 !
0F
0G
#535000
b1 !
1F
1G
14!
05!
0R
1H
0'
#540000
b0 !
0F
0G
#545000
b1 !
1F
1G
15!
0P
1L
0U
1S
1R
1Q
0K
0H
1(
1'
1&
0$
1)
1N
0M
1O
#550000
b0 !
0F
0G
#555000
b1 !
1F
1G
12!
03!
04!
05!
1P
0L
0N
1W
0S
0R
0Q
1H
1M
0O
0(
0'
0&
0)
0W
1Y
0M
1O
0X
0Y
1[
1X
0Z
0[
1Z
1\
0\
#560000
b0 !
0F
0G
#565000
b1 !
1F
1G
15!
1R
1K
0H
1'
#570000
b0 !
0F
0G
#575000
b1 !
1F
1G
14!
05!
1S
0R
1H
0'
1&
#580000
b0 !
0F
0G
#585000
b1 !
1F
1G
15!
1L
1V
1U
0S
0K
0H
0&
1$
1#
1M
#590000
b0 !
0F
0G
#595000
b1 !
1F
1G
13!
04!
05!
0P
0L
1N
0V
1T
1H
0M
1%
0#
1)
0N
1W
1M
0O
0W
1Y
1O
0X
0Y
1[
1X
0Z
0[
1Z
1\
0\
#600000
b0 !
0F
0G
#605000
b1 !
1F
1G
15!
1P
1V
0U
0T
1Q
1K
0H
1(
0%
0$
1#
0)
#610000
b0 !
0F
0G
#615000
b1 !
1F
1G
14!
05!
0V
1U
1T
0Q
1H
0(
1%
1$
0#
#620000
b0 !
0F
0G
#625000
b1 !
1F
1G
15!
1L
1S
0K
0H
1&
1N
0M
1W
0O
1Y
0X
1[
0Z
1\
#630000
b0 !
0F
0G
#635000
b1 !
1F
1G
1/!
00!
01!
02!
03!
04!
05!
0P
0L
0N
0W
0Y
0[
1]
0U
0T
0S
1H
1M
1O
1e
1b
0`
1X
1Z
0\
0/
1-
1*
0&
0%
0$
1)
0]
0M
0O
0X
0Z
1\
1^
0^
#640000
b0 !
0F
0G
#645000
b1 !
1F
1G
15!
1V
1S
1R
1Q
1K
0H
1(
1'
1&
1#
#650000
b0 !
0F
0G
#655000
b1 !
1F
1G
14!
05!
1P
0V
1T
0S
0R
1H
0'
0&
1%
0#
0)
#660000
b0 !
0F
0G
#665000
b1 !
1F
1G
15!
1L
0T
1R
0K
0H
1'
0%
1M
#670000
b0 !
0F
0G
#675000
b1 !
1F
1G
13!
04!
05!
0L
1N
1V
1S
0Q
1H
0M
0(
1&
1#
0N
1M
1O
0O
#680000
b0 !
0F
0G
#685000
b1 !
1F
1G
15!
0V
1U
0S
1K
0H
0&
1$
0#
#690000
b0 !
0F
0G
#695000
b1 !
1F
1G
14!
05!
0R
1H
0'
#700000
b0 !
0F
0G
#705000
b1 !
1F
1G
15!
0P
1L
0U
1S
1R
1Q
0K
0H
1(
1'
1&
0$
1)
1N
0M
1O
#710000
b0 !
0F
0G
#715000
b1 !
1F
1G
12!
03!
04!
05!
1P
0L
0N
1W
0S
0R
0Q
1H
1M
0O
0(
0'
0&
0)
0W
0M
1O
1X
0X
#720000
b0 !
0F
0G
#725000
b1 !
1F
1G
15!
1R
1K
0H
1'
#730000
b0 !
0F
0G
#735000
b1 !
1F
1G
14!
05!
1S
0R
1H
0'
1&
#740000
b0 !
0F
0G
#745000
b1 !
1F
1G
15!
1L
1V
1U
0S
0K
0H
0&
1$
1#
1M
#750000
b0 !
0F
0G
#755000
b1 !
1F
1G
13!
04!
05!
0P
0L
1N
0V
1T
1H
0M
1%
0#
1)
0N
1W
1M
0O
0W
1O
1X
0X
#760000
b0 !
0F
0G
#765000
b1 !
1F
1G
15!
1P
1V
0U
0T
1Q
1K
0H
1(
0%
0$
1#
0)
#770000
b0 !
0F
0G
#775000
b1 !
1F
1G
14!
05!
0V
1U
1T
0Q
1H
0(
1%
1$
0#
#780000
b0 !
0F
0G
#785000
b1 !
1F
1G
15!
1L
1S
0K
0H
1&
1N
0M
1W
0O
1X
#790000
b0 !
0F
0G
#795000
b1 !
1F
1G
11!
02!
03!
04!
05!
0P
0L
0N
0W
1Y
0U
0T
0S
1H
1M
1O
0e
1d
0b
0X
0-
1+
0*
0&
0%
0$
1)
0Y
0M
0O
1X
1Z
0Z
#800000
b0 !
0F
0G
#805000
b1 !
1F
1G
15!
1V
1S
1R
1Q
1K
0H
1(
1'
1&
1#
#810000
b0 !
0F
0G
#815000
b1 !
1F
1G
14!
05!
1P
0V
1T
0S
0R
1H
0'
0&
1%
0#
0)
#820000
b0 !
0F
0G
#825000
b1 !
1F
1G
15!
1L
0T
1R
0K
0H
1'
0%
1M
#830000
b0 !
0F
0G
#835000
b1 !
1F
1G
13!
04!
05!
0L
1N
1V
1S
0Q
1H
0M
0(
1&
1#
0N
1M
1O
0O
#840000
b0 !
0F
0G
#845000
b1 !
1F
1G
15!
0V
1U
0S
1K
0H
0&
1$
0#
#850000
b0 !
0F
0G
#855000
b1 !
1F
1G
14!
05!
0R
1H
0'
#860000
b0 !
0F
0G
#865000
b1 !
1F
1G
15!
0P
1L
0U
1S
1R
1Q
0K
0H
1(
1'
1&
0$
1)
1N
0M
1O
#870000
b0 !
0F
0G
#875000
b1 !
1F
1G
12!
03!
04!
05!
1P
0L
0N
1W
0S
0R
0Q
1H
1M
0O
0(
0'
0&
0)
0W
1Y
0M
1O
0X
0Y
1X
1Z
0Z
#880000
b0 !
0F
0G
#885000
b1 !
1F
1G
15!
1R
1K
0H
1'
#890000
b0 !
0F
0G
#895000
b1 !
1F
1G
14!
05!
1S
0R
1H
0'
1&
#900000
b0 !
0F
0G
#905000
b1 !
1F
1G
15!
1L
1V
1U
0S
0K
0H
0&
1$
1#
1M
#910000
b0 !
0F
0G
#915000
b1 !
1F
1G
13!
04!
05!
0P
0L
1N
0V
1T
1H
0M
1%
0#
1)
0N
1W
1M
0O
0W
1Y
1O
0X
0Y
1X
1Z
0Z
#920000
b0 !
0F
0G
#925000
b1 !
1F
1G
15!
1P
1V
0U
0T
1Q
1K
0H
1(
0%
0$
1#
0)
#930000
b0 !
0F
0G
#935000
b1 !
1F
1G
14!
05!
0V
1U
1T
0Q
1H
0(
1%
1$
0#
#940000
b0 !
0F
0G
#945000
b1 !
1F
1G
15!
1L
1S
0K
0H
1&
1N
0M
1W
0O
1Y
0X
1Z
#950000
b0 !
0F
0G
#955000
b1 !
1F
1G
10!
01!
02!
03!
04!
05!
0P
0L
0N
0W
0Y
1[
0U
0T
0S
1H
1M
1O
0a
1X
0Z
0.
0&
0%
0$
1)
0[
1]
0M
0O
0X
1Z
0\
0]
1\
1^
0^
#960000
b0 !
0F
0G
#965000
b1 !
1F
1G
15!
1V
1S
1R
1Q
1K
0H
1(
1'
1&
1#
#970000
b0 !
0F
0G
#975000
b1 !
1F
1G
14!
05!
1P
0V
1T
0S
0R
1H
0'
0&
1%
0#
0)
#980000
b0 !
0F
0G
#985000
b1 !
1F
1G
15!
1L
0T
1R
0K
0H
1'
0%
1M
#990000
b0 !
0F
0G
#995000
b1 !
1F
1G
13!
04!
05!
0L
1N
1V
1S
0Q
1H
0M
0(
1&
1#
0N
1M
1O
0O
#1000000
b0 !
0F
0G
#1005000
b1 !
1F
1G
15!
0V
1U
0S
1K
0H
0&
1$
0#
#1010000
b0 !
0F
0G
#1015000
b1 !
1F
1G
14!
05!
0R
1H
0'
#1020000
b0 !
0F
0G
#1025000
b1 !
1F
1G
15!
0P
1L
0U
1S
1R
1Q
0K
0H
1(
1'
1&
0$
1)
1N
0M
1O
#1030000
b0 !
0F
0G
#1035000
b1 !
1F
1G
12!
03!
04!
05!
1P
0L
0N
1W
0S
0R
0Q
1H
1M
0O
0(
0'
0&
0)
0W
0M
1O
1X
0X
#1040000
b0 !
0F
0G
#1045000
b1 !
1F
1G
15!
1R
1K
0H
1'
#1050000
b0 !
0F
0G
#1055000
b1 !
1F
1G
14!
05!
1S
0R
1H
0'
1&
#1060000
b0 !
0F
0G
#1065000
b1 !
1F
1G
15!
1L
1V
1U
0S
0K
0H
0&
1$
1#
1M
#1070000
b0 !
0F
0G
#1075000
b1 !
1F
1G
13!
04!
05!
0P
0L
1N
0V
1T
1H
0M
1%
0#
1)
0N
1W
1M
0O
0W
1O
1X
0X
#1080000
b0 !
0F
0G
#1085000
b1 !
1F
1G
15!
1P
1V
0U
0T
1Q
1K
0H
1(
0%
0$
1#
0)
#1090000
b0 !
0F
0G
#1095000
b1 !
1F
1G
14!
05!
0V
1U
1T
0Q
1H
0(
1%
1$
0#
#1100000
b0 !
0F
0G
#1105000
b1 !
1F
1G
15!
1L
1S
0K
0H
1&
1N
0M
1W
0O
1X
#1110000
b0 !
0F
0G
#1115000
b1 !
1F
1G
11!
02!
03!
04!
05!
0P
0L
0N
0W
0_
1Y
0U
0T
0S
1H
1M
1O
0d
1b
1a
1`
0X
1/
1.
1-
0+
0&
0%
0$
10
1)
0Y
1[
0M
0O
1X
0Z
0[
1]
1Z
0\
0]
1\
1^
0^
#1120000
b0 !
0F
0G
#1125000
b1 !
1F
1G
15!
1V
1S
1R
1Q
1K
0H
1(
1'
1&
1#
#1130000
b0 !
0F
0G
#1135000
b1 !
1F
1G
14!
05!
1P
0V
1T
0S
0R
1H
0'
0&
1%
0#
0)
#1140000
b0 !
0F
0G
#1145000
b1 !
1F
1G
15!
1L
0T
1R
0K
0H
1'
0%
1M
#1150000
b0 !
0F
0G
#1155000
b1 !
1F
1G
13!
04!
05!
0L
1N
1V
1S
0Q
1H
0M
0(
1&
1#
0N
1M
1O
0O
#1160000
b0 !
0F
0G
#1165000
b1 !
1F
1G
15!
0V
1U
0S
1K
0H
0&
1$
0#
#1170000
b0 !
0F
0G
#1175000
b1 !
1F
1G
14!
05!
0R
1H
0'
#1180000
b0 !
0F
0G
#1185000
b1 !
1F
1G
15!
0P
1L
0U
1S
1R
1Q
0K
0H
1(
1'
1&
0$
1)
1N
0M
1O
#1190000
b0 !
0F
0G
#1195000
b1 !
1F
1G
12!
03!
04!
05!
1P
0L
0N
1W
0S
0R
0Q
1H
1M
0O
0(
0'
0&
0)
0W
1Y
0M
1O
0X
0Y
1[
1X
0Z
0[
1]
1Z
0\
0]
1\
1^
0^
#1200000
b0 !
0F
0G
#1205000
b1 !
1F
1G
15!
1R
1K
0H
1'
#1210000
b0 !
0F
0G
#1215000
b1 !
1F
1G
14!
05!
1S
0R
1H
0'
1&
#1220000
b0 !
0F
0G
#1225000
b1 !
1F
1G
15!
1L
1V
1U
0S
0K
0H
0&
1$
1#
1M
#1230000
b0 !
0F
0G
#1235000
b1 !
1F
1G
13!
04!
05!
0P
0L
1N
0V
1T
1H
0M
1%
0#
1)
0N
1W
1M
0O
0W
1Y
1O
0X
0Y
1[
1X
0Z
0[
1]
1Z
0\
0]
1\
1^
0^
#1240000
b0 !
0F
0G
#1245000
b1 !
1F
1G
15!
1P
1V
0U
0T
1Q
1K
0H
1(
0%
0$
1#
0)
#1250000
b0 !
0F
0G
#1255000
b1 !
1F
1G
14!
05!
0V
1U
1T
0Q
1H
0(
1%
1$
0#
#1260000
b0 !
0F
0G
#1265000
b1 !
1F
1G
15!
1L
1S
0K
0H
1&
1N
0M
1W
0O
1Y
0X
1[
0Z
1]
0\
1^
#1270000
b0 !
0F
0G
#1275000
b1 !
1F
1G
1.!
0/!
00!
01!
02!
03!
04!
05!
0P
0L
0N
0W
1_
0Y
0[
0]
1f
0U
0T
0S
1H
1M
1O
0b
0a
0`
1X
1Z
1\
0^
0/
0.
0-
0&
0%
0$
00
1)
0f
0M
0O
0X
0Z
0\
1^
1g
0g
#1280000
b0 !
0F
0G
#1285000
b1 !
1F
1G
15!
1V
1S
1R
1Q
1K
0H
1(
1'
1&
1#
#1290000
b0 !
0F
0G
#1295000
b1 !
1F
1G
14!
05!
1P
0V
1T
0S
0R
1H
0'
0&
1%
0#
0)
#1300000
b0 !
0F
0G
#1305000
b1 !
1F
1G
15!
1L
0T
1R
0K
0H
1'
0%
1M
#1310000
b0 !
0F
0G
#1315000
b1 !
1F
1G
13!
04!
05!
0L
1N
1V
1S
0Q
1H
0M
0(
1&
1#
0N
1M
1O
0O
#1320000
b0 !
0F
0G
#1325000
b1 !
1F
1G
15!
0V
1U
0S
1K
0H
0&
1$
0#
#1330000
b0 !
0F
0G
#1335000
b1 !
1F
1G
14!
05!
0R
1H
0'
#1340000
b0 !
0F
0G
#1345000
b1 !
1F
1G
15!
0P
1L
0U
1S
1R
1Q
0K
0H
1(
1'
1&
0$
1)
1N
0M
1O
#1350000
b0 !
0F
0G
#1355000
b1 !
1F
1G
12!
03!
04!
05!
1P
0L
0N
1W
0S
0R
0Q
1H
1M
0O
0(
0'
0&
0)
0W
0M
1O
1X
0X
#1360000
b0 !
0F
0G
#1365000
b1 !
1F
1G
15!
1R
1K
0H
1'
#1370000
b0 !
0F
0G
#1375000
b1 !
1F
1G
14!
05!
1S
0R
1H
0'
1&
#1380000
b0 !
0F
0G
#1385000
b1 !
1F
1G
15!
1L
1V
1U
0S
0K
0H
0&
1$
1#
1M
#1390000
b0 !
0F
0G
#1395000
b1 !
1F
1G
13!
04!
05!
0P
0L
1N
0V
1T
1H
0M
1%
0#
1)
0N
1W
1M
0O
0W
1O
1X
0X
#1400000
b0 !
0F
0G
#1405000
b1 !
1F
1G
15!
1P
1V
0U
0T
1Q
1K
0H
1(
0%
0$
1#
0)
#1410000
b0 !
0F
0G
#1415000
b1 !
1F
1G
14!
05!
0V
1U
1T
0Q
1H
0(
1%
1$
0#
#1420000
b0 !
0F
0G
#1425000
b1 !
1F
1G
15!
1L
1S
0K
0H
1&
1N
0M
1W
0O
1X
#1430000
b0 !
0F
0G
#1435000
b1 !
1F
1G
11!
02!
03!
04!
05!
0P
0L
0N
0W
1Y
0U
0T
0S
1H
1M
1O
1a
0X
1.
0&
0%
0$
1)
0Y
0M
0O
1X
1Z
0Z
#1440000
b0 !
0F
0G
#1445000
b1 !
1F
1G
15!
1V
1S
1R
1Q
1K
0H
1(
1'
1&
1#
#1450000
b0 !
0F
0G
#1455000
b1 !
1F
1G
14!
05!
1P
0V
1T
0S
0R
1H
0'
0&
1%
0#
0)
#1460000
b0 !
0F
0G
#1465000
b1 !
1F
1G
15!
1L
0T
1R
0K
0H
1'
0%
1M
#1470000
b0 !
0F
0G
#1475000
b1 !
1F
1G
13!
04!
05!
0L
1N
1V
1S
0Q
1H
0M
0(
1&
1#
0N
1M
1O
0O
#1480000
b0 !
0F
0G
#1485000
b1 !
1F
1G
15!
0V
1U
0S
1K
0H
0&
1$
0#
#1490000
b0 !
0F
0G
#1495000
b1 !
1F
1G
14!
05!
0R
1H
0'
#1500000
b0 !
0F
0G
#1505000
b1 !
1F
1G
15!
0P
1L
0U
1S
1R
1Q
0K
0H
1(
1'
1&
0$
1)
1N
0M
1O
#1510000
b0 !
0F
0G
#1515000
b1 !
1F
1G
12!
03!
04!
05!
1P
0L
0N
1W
0S
0R
0Q
1H
1M
0O
0(
0'
0&
0)
0W
1Y
0M
1O
0X
0Y
1X
1Z
0Z
#1520000
b0 !
0F
0G
#1525000
b1 !
1F
1G
15!
1R
1K
0H
1'
#1530000
b0 !
0F
0G
#1535000
b1 !
1F
1G
14!
05!
1S
0R
1H
0'
1&
#1540000
b0 !
0F
0G
#1545000
b1 !
1F
1G
15!
1L
1V
1U
0S
0K
0H
0&
1$
1#
1M
#1550000
b0 !
0F
0G
#1555000
b1 !
1F
1G
13!
04!
05!
0P
0L
1N
0V
1T
1H
0M
1%
0#
1)
0N
1W
1M
0O
0W
1Y
1O
0X
0Y
1X
1Z
0Z
#1560000
b0 !
0F
0G
#1565000
b1 !
1F
1G
15!
1P
1V
0U
0T
1Q
1K
0H
1(
0%
0$
1#
0)
#1570000
b0 !
0F
0G
#1575000
b1 !
1F
1G
14!
05!
0V
1U
1T
0Q
1H
0(
1%
1$
0#
#1580000
b0 !
0F
0G
#1585000
b1 !
1F
1G
15!
1L
1S
0K
0H
1&
1N
0M
1W
0O
1Y
0X
1Z
#1590000
b0 !
0F
0G
