ps8/zad1/simulation/qsim/FSM_one_hot_board.msim.vcd
$comment
	File created using the following command:
		vcd file FSM_one_hot_board.msim.vcd -direction
$end
$date
	Thu Apr 18 09:10:10 2019
$end
$version
	ModelSim Version 10.5b
$end
$timescale
	1ps
$end

$scope module FSM_one_hot_board_vlg_vec_tst $end
$var reg 1 ! KEY [0:0] $end
$var reg 2 " SW [1:0] $end
$var wire 1 # LEDR [9] $end
$var wire 1 $ LEDR [8] $end
$var wire 1 % LEDR [7] $end
$var wire 1 & LEDR [6] $end
$var wire 1 ' LEDR [5] $end
$var wire 1 ( LEDR [4] $end
$var wire 1 ) LEDR [3] $end
$var wire 1 * LEDR [2] $end
$var wire 1 + LEDR [1] $end
$var wire 1 , LEDR [0] $end

$scope module i1 $end
$var wire 1 - gnd $end
$var wire 1 . vcc $end
$var wire 1 / unknown $end
$var tri1 1 0 devclrn $end
$var tri1 1 1 devpor $end
$var tri1 1 2 devoe $end
$var wire 1 3 ~QUARTUS_CREATED_GND~I_combout $end
$var wire 1 4 KEY[0]~input_o $end
$var wire 1 5 KEY[0]~inputCLKENA0_outclk $end
$var wire 1 6 ex1|y[0]~feeder_combout $end
$var wire 1 7 SW[0]~input_o $end
$var wire 1 8 ex1|y[0]~DUPLICATE_q $end
$var wire 1 9 SW[1]~input_o $end
$var wire 1 : ex1|d[4]~1_combout $end
$var wire 1 ; ex1|d[5]~2_combout $end
$var wire 1 < ex1|d[8]~3_combout $end
$var wire 1 = ex1|d[1]~0_combout $end
$var wire 1 > ex1|z~combout $end
$var wire 1 ? ex1|y [8] $end
$var wire 1 @ ex1|y [7] $end
$var wire 1 A ex1|y [6] $end
$var wire 1 B ex1|y [5] $end
$var wire 1 C ex1|y [4] $end
$var wire 1 D ex1|y [3] $end
$var wire 1 E ex1|y [2] $end
$var wire 1 F ex1|y [1] $end
$var wire 1 G ex1|y [0] $end
$var wire 1 H ex1|d [8] $end
$var wire 1 I ex1|d [7] $end
$var wire 1 J ex1|d [6] $end
$var wire 1 K ex1|d [5] $end
$var wire 1 L ex1|d [4] $end
$var wire 1 M ex1|d [3] $end
$var wire 1 N ex1|d [2] $end
$var wire 1 O ex1|d [1] $end
$var wire 1 P ex1|d [0] $end
$upscope $end
$upscope $end
$enddefinitions $end
#0
$dumpvars
b0 !
b0 "
1,
0+
0*
0)
0(
0'
0&
0%
0$
0#
0-
1.
x/
10
11
12
03
04
05
16
07
08
09
0:
0;
0<
1=
0>
0G
0F
0E
0D
0C
0B
0A
0@
0?
zP
zO
0N
0M
zL
zK
0J
0I
zH
$end
#9000
b1 !
14
15
#14000
b0 !
04
05
#19000
b1 !
14
15
#24000
b0 !
04
05
#29000
b1 !
14
15
#30000
b10 "
19
0=
1;
#34000
b0 !
04
05
#39000
b1 !
14
15
#40000
b0 "
09
1=
0;
#44000
b0 !
04
05
#49000
b1 !
14
15
#54000
b0 !
04
05
#59000
b1 !
14
15
#64000
b0 !
04
05
#69000
b1 !
14
15
#74000
b0 !
04
05
#79000
b1 !
14
15
#80000
b10 "
19
0=
1;
#84000
b0 !
04
05
#89000
b1 !
14
15
#94000
b0 !
04
05
#99000
b1 !
14
15
#104000
b0 !
04
05
#109000
b1 !
14
15
#114000
b0 !
04
05
#119000
b1 !
14
15
#124000
b0 !
04
05
#129000
b1 !
14
15
#130000
b0 "
09
1=
0;
#134000
b0 !
04
05
#139000
b1 !
14
15
#144000
b0 !
04
05
#149000
b1 !
14
15
#154000
b0 !
04
05
#159000
b1 !
14
15
#164000
b0 !
04
05
#169000
b1 !
14
15
#174000
b0 !
04
05
#179000
b1 !
14
15
#184000
b0 !
04
05
#189000
b1 !
14
15
#194000
b0 !
04
05
#199000
b1 !
14
15
#204000
b0 !
04
05
#209000
b1 !
14
15
#214000
b0 !
04
05
#219000
b1 !
14
15
#224000
b0 !
04
05
#229000
b1 !
14
15
#234000
b0 !
04
05
#239000
b1 !
14
15
#244000
b0 !
04
05
#249000
b1 !
14
15
#254000
b0 !
04
05
#259000
b1 !
14
15
#264000
b0 !
04
05
#269000
b1 !
14
15
#274000
b0 !
04
05
#279000
b1 !
14
15
#284000
b0 !
04
05
#289000
b1 !
14
15
#294000
b0 !
04
05
#299000
b1 !
14
15
#304000
b0 !
04
05
#309000
b1 !
14
15
#314000
b0 !
04
05
#319000
b1 !
14
15
#324000
b0 !
04
05
#329000
b1 !
14
15
#334000
b0 !
04
05
#339000
b1 !
14
15
#344000
b0 !
04
05
#349000
b1 !
14
15
#354000
b0 !
04
05
#359000
b1 !
14
15
#364000
b0 !
04
05
#369000
b1 !
14
15
#374000
b0 !
04
05
#379000
b1 !
14
15
#384000
b0 !
04
05
#389000
b1 !
14
15
#394000
b0 !
04
05
#399000
b1 !
14
15
#404000
b0 !
04
05
#409000
b1 !
14
15
#414000
b0 !
04
05
#419000
b1 !
14
15
#424000
b0 !
04
05
#429000
b1 !
14
15
#434000
b0 !
04
05
#439000
b1 !
14
15
#444000
b0 !
04
05
#449000
b1 !
14
15
#454000
b0 !
04
05
#459000
b1 !
14
15
#464000
b0 !
04
05
#469000
b1 !
14
15
#474000
b0 !
04
05
#479000
b1 !
14
15
#484000
b0 !
04
05
#489000
b1 !
14
15
#494000
b0 !
04
05
#499000
b1 !
14
15
#504000
b0 !
04
05
#509000
b1 !
14
15
#514000
b0 !
04
05
#519000
b1 !
14
15
#524000
b0 !
04
05
#529000
b1 !
14
15
#534000
b0 !
04
05
#539000
b1 !
14
15
#544000
b0 !
04
05
#549000
b1 !
14
15
#554000
b0 !
04
05
#559000
b1 !
14
15
#564000
b0 !
04
05
#569000
b1 !
14
15
#574000
b0 !
04
05
#579000
b1 !
14
15
#584000
b0 !
04
05
#589000
b1 !
14
15
#594000
b0 !
04
05
#599000
b1 !
14
15
#604000
b0 !
04
05
#609000
b1 !
14
15
#614000
b0 !
04
05
#619000
b1 !
14
15
#624000
b0 !
04
05
#629000
b1 !
14
15
#634000
b0 !
04
05
#639000
b1 !
14
15
#644000
b0 !
04
05
#649000
b1 !
14
15
#654000
b0 !
04
05
#659000
b1 !
14
15
#664000
b0 !
04
05
#669000
b1 !
14
15
#674000
b0 !
04
05
#679000
b1 !
14
15
#684000
b0 !
04
05
#689000
b1 !
14
15
#694000
b0 !
04
05
#699000
b1 !
14
15
#704000
b0 !
04
05
#709000
b1 !
14
15
#714000
b0 !
04
05
#719000
b1 !
14
15
#724000
b0 !
04
05
#729000
b1 !
14
15
#734000
b0 !
04
05
#739000
b1 !
14
15
#744000
b0 !
04
05
#749000
b1 !
14
15
#754000
b0 !
04
05
#759000
b1 !
14
15
#764000
b0 !
04
05
#769000
b1 !
14
15
#774000
b0 !
04
05
#779000
b1 !
14
15
#784000
b0 !
04
05
#789000
b1 !
14
15
#794000
b0 !
04
05
#799000
b1 !
14
15
#804000
b0 !
04
05
#809000
b1 !
14
15
#814000
b0 !
04
05
#819000
b1 !
14
15
#824000
b0 !
04
05
#829000
b1 !
14
15
#834000
b0 !
04
05
#839000
b1 !
14
15
#844000
b0 !
04
05
#849000
b1 !
14
15
#854000
b0 !
04
05
#859000
b1 !
14
15
#864000
b0 !
04
05
#869000
b1 !
14
15
#874000
b0 !
04
05
#879000
b1 !
14
15
#884000
b0 !
04
05
#889000
b1 !
14
15
#894000
b0 !
04
05
#899000
b1 !
14
15
#904000
b0 !
04
05
#909000
b1 !
14
15
#914000
b0 !
04
05
#919000
b1 !
14
15
#924000
b0 !
04
05
#929000
b1 !
14
15
#934000
b0 !
04
05
#939000
b1 !
14
15
#944000
b0 !
04
05
#949000
b1 !
14
15
#954000
b0 !
04
05
#959000
b1 !
14
15
#964000
b0 !
04
05
#969000
b1 !
14
15
#974000
b0 !
04
05
#979000
b1 !
14
15
#984000
b0 !
04
05
#989000
b1 !
14
15
#994000
b0 !
04
05
#999000
b1 !
14
15
