ps2/mojezad7/simulation/qsim/decoder_7_seg.msim.vcd
$comment
	File created using the following command:
		vcd file decoder_7_seg.msim.vcd -direction
$end
$date
	Thu Mar 07 10:00:09 2019
$end
$version
	ModelSim Version 10.5b
$end
$timescale
	1ps
$end

$scope module decoder_7_seg_vlg_vec_tst $end
$var reg 2 ! x [1:0] $end
$var wire 1 " h [6] $end
$var wire 1 # h [5] $end
$var wire 1 $ h [4] $end
$var wire 1 % h [3] $end
$var wire 1 & h [2] $end
$var wire 1 ' h [1] $end
$var wire 1 ( h [0] $end

$scope module i1 $end
$var wire 1 ) gnd $end
$var wire 1 * vcc $end
$var wire 1 + unknown $end
$var tri1 1 , devclrn $end
$var tri1 1 - devpor $end
$var tri1 1 . devoe $end
$var wire 1 / ~QUARTUS_CREATED_GND~I_combout $end
$var wire 1 0 x[1]~input_o $end
$var wire 1 1 x[0]~input_o $end
$var wire 1 2 Decoder0~0_combout $end
$var wire 1 3 Decoder0~1_combout $end
$var wire 1 4 Decoder0~2_combout $end
$upscope $end
$upscope $end
$enddefinitions $end
#0
$dumpvars
b0 !
1(
0'
0&
0%
0$
0#
0"
0)
1*
x+
1,
1-
1.
0/
00
01
02
03
04
$end
#5000
b10 !
10
0(
14
12
1'
1$
#10000
b11 !
b1 !
00
11
1&
1(
04
13
1%
1"
0$
#15000
b11 !
10
0(
03
0%
0"
#20000
b10 !
b0 !
00
01
0&
1(
02
0'
#25000
b10 !
10
0(
14
12
1'
1$
#30000
b11 !
b1 !
00
11
1&
1(
04
13
1%
1"
0$
#35000
b11 !
10
0(
03
0%
0"
#40000
b10 !
b0 !
00
01
0&
1(
02
0'
#45000
b10 !
10
0(
14
12
1'
1$
#50000
b11 !
b1 !
00
11
1&
1(
04
13
1%
1"
0$
#55000
b11 !
10
0(
03
0%
0"
#60000
b10 !
b0 !
00
01
0&
1(
02
0'
#65000
b10 !
10
0(
14
12
1'
1$
#70000
b11 !
b1 !
00
11
1&
1(
04
13
1%
1"
0$
#75000
b11 !
10
0(
03
0%
0"
